<?xml version="1.0" encoding="utf-8"?>
<!-- Generator: Adobe Illustrator 16.0.0, SVG Export Plug-In . SVG Version: 6.00 Build 0)  -->
<!DOCTYPE svg PUBLIC "-//W3C//DTD SVG 1.1//EN" "http://www.w3.org/Graphics/SVG/1.1/DTD/svg11.dtd">
<svg version="1.1" id="Capa_1" xmlns="http://www.w3.org/2000/svg" xmlns:xlink="http://www.w3.org/1999/xlink" x="0px" y="0px"
	 width="500px" height="500px" viewBox="0 0 500 500" enable-background="new 0 0 500 500" xml:space="preserve">
<g>
	<g>
		<path fill="none" stroke="#010202" stroke-miterlimit="10" d="M19.349,322.918c-8.167-7.758-8.5-20.672-0.734-28.838l129.2-136
			c3.829-4.031,9.146-6.331,14.708-6.351c0.027,0,0.054,0,0.082,0c5.535,0,10.833,2.251,14.674,6.229l80.485,83.368L397.32,96.077
			l-29.302-28.151L485.25,34l-29.219,118.49l-29.301-28.151L272.506,284.859c-3.835,3.998-9.139,6.262-14.681,6.27
			c-0.007,0-0.021,0-0.027,0c-5.534,0-10.833-2.252-14.674-6.229l-80.403-83.28L48.188,322.178
			c-4.005,4.223-9.397,6.352-14.79,6.352C28.353,328.529,23.299,326.673,19.349,322.918 M50.535,467.928h30.462V327.102
			l-13.124,13.803c-8.908,9.453-21.488,14.824-34.476,14.824c-4.692,0-9.248-0.68-13.6-1.973v114.172H50.535 M124.954,467.928
			h30.844V248.356l-61.2,64.396v155.176H124.954 M195.883,467.928h34.714V309.76c-2.516-1.768-4.828-3.738-7.004-5.982
			l-54.196-56.101v220.251H195.883 M276.116,467.929h29.282V289.904l-13.26,13.805c-8.909,9.248-21.421,14.619-34.273,14.619
			c-4.691,0-9.249-0.68-13.668-2.039v151.64H276.116 M351.116,467.928h29.081V212.044l-61.199,63.716v192.168H351.116
			 M427.86,467.928h27.137V189.196l-27.472-26.384L393.798,197.9v270.027H427.86"/>
	</g>
	<g>
	</g>
	<g>
	</g>
	<g>
	</g>
	<g>
	</g>
	<g>
	</g>
	<g>
	</g>
	<g>
	</g>
	<g>
	</g>
	<g>
	</g>
	<g>
	</g>
	<g>
	</g>
	<g>
	</g>
	<g>
	</g>
	<g>
	</g>
	<g>
	</g>
</g>
</svg>
