<?xml version="1.0" encoding="utf-8"?>
<!-- Generator: Adobe Illustrator 16.0.0, SVG Export Plug-In . SVG Version: 6.00 Build 0)  -->
<!DOCTYPE svg PUBLIC "-//W3C//DTD SVG 1.1//EN" "http://www.w3.org/Graphics/SVG/1.1/DTD/svg11.dtd">
<svg version="1.1" id="Capa_1" xmlns="http://www.w3.org/2000/svg" xmlns:xlink="http://www.w3.org/1999/xlink" x="0px" y="0px"
	 width="500px" height="500px" viewBox="0 0 500 500" enable-background="new 0 0 500 500" xml:space="preserve">
<path fill-rule="evenodd" clip-rule="evenodd" fill="none" d="M250.879,333.291c-80.75,0-161.498-0.002-242.247,0.022
	c-0.913,0-1.119-0.205-1.118-1.118c0.025-54.13,0.025-108.26,0-162.39c0-0.913,0.206-1.119,1.118-1.119
	c161.579,0.024,323.158,0.024,484.736,0c0.913,0,1.119,0.206,1.118,1.119c-0.024,54.13-0.024,108.26,0,162.39
	c0.001,0.913-0.205,1.118-1.118,1.118C412.538,333.289,331.709,333.291,250.879,333.291z M99.173,225.9
	c-8.926,0-17.853-0.001-26.779,0.001c-1.784,0-1.796,0.01-1.797,1.727c-0.003,4.504-0.004,9.007,0,13.511
	c0.001,1.724,0.073,1.819,1.767,1.799c7.057-0.086,14.113,0.105,21.172-0.131c5.269-0.176,10.548-0.04,15.822-0.034
	c1.327,0.002,1.52,0.218,1.34,1.486c-1.731,12.229-8.153,21.164-19.053,26.861c-8.012,4.188-16.614,5.31-25.521,4.468
	c-9.216-0.87-17.412-4.319-24.283-10.479c-11.594-10.391-16.49-23.554-14.969-38.972c1.042-10.572,5.403-19.738,13.096-27.161
	C50.89,188.439,64,184.832,78.821,187.175c8.191,1.294,15.29,4.989,21.409,10.57c0.514,0.469,0.902,0.724,1.516,0.104
	c3.539-3.575,7.103-7.127,10.669-10.676c0.481-0.479,0.469-0.804-0.045-1.289c-4.185-3.954-8.798-7.321-13.926-9.925
	c-12.381-6.285-25.474-7.96-39.04-5.396c-16.611,3.14-29.939,11.684-39.835,25.382c-9.213,12.751-12.862,27.063-10.984,42.665
	c1.391,11.556,5.94,21.843,13.324,30.866c7.727,9.442,17.375,16.132,28.897,20.075c9.001,3.08,18.257,3.914,27.718,2.897
	c9.829-1.057,18.949-4.022,27.022-9.817c6.67-4.786,12.328-10.539,16.147-17.906c6.088-11.74,7.642-24.234,6.118-37.235
	c-0.138-1.184-0.607-1.625-1.86-1.617C117.025,225.924,108.099,225.9,99.173,225.9z M383.18,251.806c0-3.895,0-7.79,0-11.685
	c0-7.587-0.006-15.174,0.006-22.762c0.001-0.937-0.054-1.673-1.32-1.663c-4.746,0.038-9.493,0.029-14.24,0.002
	c-0.975-0.005-1.276,0.419-1.247,1.33c0.044,1.337,0.02,2.677,0.003,4.016c-0.004,0.348,0.136,0.813-0.254,0.996
	c-0.436,0.204-0.614-0.28-0.849-0.522c-1.047-1.083-2.17-2.08-3.411-2.927c-8.254-5.632-17.26-6.508-26.638-3.787
	c-10.449,3.032-18.173,9.63-23.432,19.086c-4.06,7.299-5.626,15.192-4.737,23.478c1.182,11.015,6.148,20.109,14.773,27.034
	c8.247,6.622,17.667,9.64,28.283,7.975c5.889-0.924,11.043-3.431,15.153-7.864c0.218-0.234,0.41-0.599,0.776-0.474
	c0.443,0.151,0.335,0.606,0.332,0.951c-0.019,3.08,0.155,6.167-0.268,9.235c-0.538,3.909-1.696,7.587-4.004,10.85
	c-5.695,8.055-17.999,9.14-25.146,5.815c-5.017-2.333-8.642-6.092-11.023-11.061c-0.382-0.798-0.729-1.254-1.736-0.824
	c-4.366,1.86-8.755,3.669-13.146,5.472c-0.771,0.316-0.951,0.711-0.582,1.486c4.519,9.515,11.542,16.368,21.453,20.104
	c6.689,2.52,13.602,2.867,20.614,1.797c6.287-0.961,12.075-3.165,17.081-7.172c6.997-5.604,10.623-13.147,12.372-21.744
	c1.139-5.598,1.163-11.279,1.178-16.955C383.197,271.931,383.18,261.868,383.18,251.806z M135.04,253.118
	c-0.251,21.821,16.933,39.744,39.845,39.769c22.9,0.024,39.919-17.867,39.966-39.702c0.045-21.439-16.239-39.883-40.022-39.851
	C151.554,213.366,134.791,231.381,135.04,253.118z M221.006,253.076c-0.269,21.864,16.879,39.659,39.708,39.789
	c22.502,0.128,39.885-17.274,40.016-39.639c0.128-21.84-16.505-39.849-39.864-39.864
	C237.491,213.347,220.762,231.448,221.006,253.076z M457.064,292.886c0.567,0,1.137,0.023,1.704-0.007
	c0.565-0.029,1.128-0.124,1.694-0.17c12.199-1.012,21.719-6.747,29.028-16.415c0.634-0.838,0.613-1.311-0.314-1.913
	c-3.744-2.429-7.439-4.932-11.153-7.404c-1.425-0.949-1.427-0.944-2.45,0.419c-3.948,5.263-8.977,8.751-15.663,9.461
	c-9.009,0.956-16.546-2.142-21.314-10.473c-0.549-0.96-0.424-1.319,0.606-1.741c10.659-4.369,21.298-8.786,31.942-13.189
	c6.185-2.559,12.367-5.125,18.559-7.667c0.8-0.33,1.341-0.622,0.9-1.671c-1.503-3.59-2.816-7.266-4.892-10.592
	c-8.313-13.328-20.059-19.927-35.931-17.784c-12.142,1.64-21.226,8.115-27.158,18.8c-4.67,8.41-5.983,17.509-4.589,26.976
	c1.309,8.882,5.17,16.556,11.702,22.726C437.371,289.453,446.621,292.769,457.064,292.886z M393.187,232.13c0,0.893,0,1.785,0,2.678
	c0,17.972-0.001,35.946,0.001,53.918c0,1.699,0.027,1.726,1.68,1.727c4.748,0.003,9.495-0.018,14.24,0.015
	c0.989,0.006,1.392-0.329,1.367-1.339c-0.048-1.945-0.013-3.895-0.013-5.842c0-35.784,0-71.567-0.001-107.352
	c0-1.9-0.003-1.903-1.863-1.904c-4.463-0.001-8.926-0.001-13.388,0c-2.02,0-2.023,0.001-2.023,1.989
	C393.187,194.724,393.187,213.427,393.187,232.13z"/>
<path fill-rule="evenodd" clip-rule="evenodd" fill="none" stroke="#000000" stroke-miterlimit="10" d="M110,225.905
	c5.317,0.002,10.634-0.002,15.952-0.033c1.253-0.007,1.722,0.433,1.86,1.617c1.524,13-0.03,25.495-6.118,37.235
	c-3.82,7.367-9.477,13.12-16.147,17.906c-8.073,5.795-17.193,8.761-27.022,9.817c-9.461,1.017-18.717,0.183-27.718-2.897
	c-11.522-3.943-21.17-10.633-28.897-20.075c-7.383-9.023-11.933-19.31-13.324-30.866c-1.877-15.602,1.771-29.914,10.984-42.665
	c9.896-13.698,23.224-22.242,39.835-25.382c13.565-2.564,26.659-0.889,39.04,5.396c5.128,2.604,9.741,5.972,13.926,9.925
	c0.514,0.485,0.526,0.81,0.045,1.289c-3.566,3.549-7.13,7.101-10.669,10.676c-0.613,0.62-1.001,0.365-1.516-0.104
	c-6.119-5.581-13.217-9.276-21.409-10.57C64,184.832,50.89,188.439,39.968,198.977c-7.693,7.422-12.054,16.588-13.096,27.161
	c-1.521,15.417,3.375,28.581,14.969,38.972c6.872,6.159,15.067,9.608,24.283,10.479c8.907,0.842,17.509-0.279,25.521-4.468
	c10.899-5.697,17.322-14.632,19.053-26.861c0.18-1.269-0.013-1.484-1.34-1.486c-5.274-0.006-10.554-0.142-15.822,0.034
	c-7.06,0.237-14.115,0.045-21.172,0.131c-1.693,0.021-1.765-0.075-1.767-1.799c-0.004-4.504-0.003-9.007,0-13.511
	c0.001-1.717,0.013-1.727,1.797-1.727c8.926-0.002,17.853-0.001,26.779-0.001C102.782,225.9,106.391,225.904,110,225.905"/>
<path fill-rule="evenodd" clip-rule="evenodd" fill="none" stroke="#000000" stroke-miterlimit="10" d="M342.383,292.764
	c-7.516-0.455-14.362-3.394-20.549-8.361c-8.625-6.925-13.592-16.02-14.773-27.034c-0.889-8.286,0.678-16.179,4.737-23.478
	c5.259-9.456,12.982-16.054,23.432-19.086c9.378-2.721,18.384-1.845,26.638,3.787c1.241,0.847,2.364,1.844,3.411,2.927
	c0.234,0.242,0.413,0.726,0.849,0.522c0.39-0.183,0.25-0.648,0.254-0.996c0.017-1.339,0.041-2.679-0.003-4.016
	c-0.029-0.91,0.272-1.335,1.247-1.33c4.747,0.027,9.494,0.036,14.24-0.002c1.267-0.01,1.321,0.726,1.32,1.663
	c-0.012,7.587-0.006,15.175-0.006,22.762c0,3.896,0,7.79,0,11.685c0,10.063,0.018,20.125-0.008,30.188
	c-0.015,5.676-0.039,11.357-1.178,16.955c-1.749,8.597-5.375,16.141-12.372,21.744c-5.006,4.007-10.794,6.211-17.081,7.172
	c-7.013,1.07-13.925,0.723-20.614-1.797c-9.911-3.735-16.935-10.589-21.453-20.104c-0.369-0.775-0.189-1.17,0.582-1.486
	c4.391-1.803,8.779-3.611,13.146-5.472c1.008-0.43,1.354,0.026,1.736,0.824c2.382,4.969,6.007,8.728,11.023,11.061
	c7.147,3.324,19.451,2.239,25.146-5.815c2.308-3.263,3.466-6.94,4.004-10.85c0.423-3.068,0.249-6.155,0.268-9.235
	c0.003-0.345,0.111-0.8-0.332-0.951c-0.366-0.125-0.559,0.239-0.776,0.474c-4.11,4.434-9.265,6.94-15.153,7.864
	C347.465,292.793,344.887,292.916,342.383,292.764 M324.467,254.971c-0.159,5.059,2.911,12.278,8.002,16.804
	c9.363,8.326,23.801,6.677,30.796-3.691c4.038-5.985,5.053-12.629,3.952-19.657c-0.962-6.131-3.658-11.375-8.637-15.156
	c-8.165-6.199-19.499-5.342-26.795,1.875C326.79,240.088,324.566,246.178,324.467,254.971z"/>
<path fill-rule="evenodd" clip-rule="evenodd" fill="none" stroke="#000000" stroke-miterlimit="10" d="M196.338,219.221
	c11.54,7.115,18.542,19.894,18.513,33.964c-0.046,21.835-17.066,39.727-39.966,39.702c-22.912-0.024-40.096-17.947-39.845-39.769
	c-0.25-21.737,16.514-39.752,39.788-39.785C183.004,213.322,190.293,215.494,196.338,219.221 M197.17,255.35
	c-0.014-10.097-2.902-16.502-8.556-21.306c-8.619-7.322-22.663-6.177-29.975,2.444c-7.056,8.319-8.024,20.678-2.353,30
	c6.763,11.112,21.563,13.972,31.755,6.071C194.403,267.628,197.08,260.909,197.17,255.35z"/>
<path fill-rule="evenodd" clip-rule="evenodd" fill="none" stroke="#000000" stroke-miterlimit="10" d="M228.515,276.797
	c-4.853-6.627-7.618-14.838-7.509-23.721c-0.244-21.628,16.485-39.729,39.859-39.714c23.359,0.016,39.992,18.024,39.864,39.864
	c-0.131,22.364-17.514,39.767-40.016,39.639C247.159,292.788,235.607,286.483,228.515,276.797 M238.55,254.671
	c-0.059,3.729,1.392,8.653,4.482,13.097c7.675,11.035,23.553,12.484,33.08,3.01c8.189-8.148,9.44-22.591,2.777-32.073
	c-8.182-11.64-24.301-12.906-33.991-2.594C240.467,240.826,238.583,246.584,238.55,254.671z"/>
<path fill-rule="evenodd" clip-rule="evenodd" fill="none" stroke="#000000" stroke-miterlimit="10" d="M463,254.824
	c-7.929,3.282-15.857,6.563-23.798,9.818c-1.03,0.422-1.155,0.781-0.606,1.741c4.769,8.331,12.306,11.429,21.314,10.473
	c6.687-0.71,11.715-4.198,15.663-9.461c1.023-1.363,1.025-1.368,2.45-0.419c3.714,2.473,7.409,4.976,11.153,7.404
	c0.928,0.603,0.948,1.075,0.314,1.913c-7.31,9.668-16.829,15.403-29.028,16.415c-0.566,0.046-1.129,0.141-1.694,0.17
	c-0.567,0.03-1.137,0.007-1.704,0.007c-10.443-0.117-19.693-3.433-27.328-10.646c-6.532-6.17-10.394-13.844-11.702-22.726
	c-1.395-9.467-0.081-18.566,4.589-26.976c5.933-10.686,15.017-17.16,27.158-18.8c15.872-2.144,27.617,4.456,35.931,17.784
	c2.075,3.326,3.389,7.002,4.892,10.592c0.44,1.049-0.101,1.342-0.9,1.671c-6.191,2.543-12.374,5.109-18.559,7.667
	C468.43,252.576,465.715,253.7,463,254.824 M435.084,249.703c0,0.284,0.019,0.569-0.004,0.851c-0.077,0.99,0.301,1.062,1.146,0.71
	c10.927-4.558,21.86-9.104,32.814-13.601c1.099-0.451,1.289-0.92,0.619-1.833c-0.168-0.229-0.302-0.482-0.469-0.71
	c-3.137-4.264-7.575-6.035-12.647-6.194C445.219,228.569,435.325,238.237,435.084,249.703z"/>
<path fill-rule="evenodd" clip-rule="evenodd" fill="none" stroke="#000000" stroke-miterlimit="10" d="M393.187,219.5
	c0-14.493,0-28.986,0-43.479c0-1.988,0.004-1.989,2.023-1.989c4.462,0,8.925-0.001,13.388,0c1.86,0,1.863,0.003,1.863,1.904
	c0.001,35.784,0.001,71.567,0.001,107.352c0,1.947-0.035,3.896,0.013,5.842c0.024,1.01-0.378,1.345-1.367,1.339
	c-4.745-0.032-9.492-0.012-14.24-0.015c-1.652-0.001-1.68-0.027-1.68-1.727c-0.002-17.973-0.001-35.946-0.001-53.918
	c0-0.893,0-1.785,0-2.678C393.187,227.92,393.187,223.71,393.187,219.5"/>
<path fill-rule="evenodd" clip-rule="evenodd" fill="none" d="M324.604,257.338c-0.113-0.826-0.16-1.62-0.137-2.367
	c0.1-8.793,2.323-14.883,7.318-19.826c7.296-7.217,18.63-8.074,26.795-1.875c4.979,3.78,7.675,9.025,8.637,15.156
	c1.101,7.028,0.086,13.672-3.952,19.657c-6.995,10.368-21.433,12.018-30.796,3.691C328.13,267.918,325.258,262.104,324.604,257.338"
	/>
<path fill-rule="evenodd" clip-rule="evenodd" fill="none" d="M197.17,255.35c-0.09,5.56-2.767,12.278-9.128,17.209
	c-10.191,7.9-24.992,5.041-31.755-6.071c-5.672-9.321-4.703-21.68,2.353-30c7.312-8.621,21.355-9.767,29.975-2.444
	C194.268,238.847,197.156,245.253,197.17,255.35z"/>
<path fill-rule="evenodd" clip-rule="evenodd" fill="none" d="M238.55,254.671c0.033-8.087,1.917-13.845,6.349-18.561
	c9.69-10.312,25.81-9.046,33.991,2.594c6.663,9.482,5.412,23.924-2.777,32.073c-9.527,9.475-25.405,8.025-33.08-3.01
	C239.941,263.324,238.491,258.399,238.55,254.671z"/>
<path fill-rule="evenodd" clip-rule="evenodd" fill="none" d="M455.998,243.041c-6.595,2.731-13.185,5.475-19.772,8.223
	c-0.845,0.352-1.223,0.28-1.146-0.71c0.022-0.282,0.004-0.567,0.004-0.851c0.241-11.466,10.135-21.134,21.459-20.777
	c5.072,0.16,9.511,1.93,12.647,6.194c0.167,0.228,0.301,0.481,0.469,0.71c0.67,0.913,0.479,1.382-0.619,1.833
	C464.689,239.448,460.343,241.242,455.998,243.041"/>
</svg>
