<?xml version="1.0" encoding="utf-8"?>
<!-- Generator: Adobe Illustrator 16.0.0, SVG Export Plug-In . SVG Version: 6.00 Build 0)  -->
<!DOCTYPE svg PUBLIC "-//W3C//DTD SVG 1.1//EN" "http://www.w3.org/Graphics/SVG/1.1/DTD/svg11.dtd">
<svg version="1.1" id="Capa_1" xmlns="http://www.w3.org/2000/svg" xmlns:xlink="http://www.w3.org/1999/xlink" x="0px" y="0px"
	 width="500px" height="500px" viewBox="0 0 500 500" enable-background="new 0 0 500 500" xml:space="preserve">
<path fill="none" stroke="#010202" stroke-miterlimit="10" d="M458.084,355.292H39.916V71.535h29.869 M219.131,71.535h238.953
	v283.757 M487.953,41.666H219.131v29.869 M308.738,385.161h179.215V41.666 M10.047,385.161h179.215v44.804h-59.738v29.869h224.019
	v-29.869h-44.804v-44.804 M69.785,71.535V41.666H10.047v343.495 M278.869,385.161v44.804h-59.738v-44.804H278.869"/>
<polyline fill="none" stroke="#010202" stroke-miterlimit="10" points="129.523,71.535 99.654,71.535 99.654,41.666 129.523,41.666 
	129.523,71.535 "/>
<polyline fill="none" stroke="#010202" stroke-miterlimit="10" points="189.262,71.535 159.393,71.535 159.393,41.666 
	189.262,41.666 189.262,71.535 "/>
<path fill="none" stroke="#010202" stroke-miterlimit="10" d="M249,101.404c-97.075,0-173.002,98.777-176.228,103.048l-6.84,8.961
	l6.84,8.961c3.226,4.271,79.153,103.048,176.228,103.048 M249,325.423c97.074,0,173.002-98.777,176.228-103.048l6.841-8.961
	l-6.841-8.961c-3.226-4.271-79.153-103.048-176.228-103.048 M249,131.273c66.444,0,124.719,59.126,144.865,82.14
	c-20.102,23.044-78.228,82.14-144.865,82.14 M249,295.554c-66.638,0-124.719-59.126-144.865-82.14
	c20.102-23.044,78.227-82.14,144.865-82.14"/>
<path fill="none" stroke="#010202" stroke-miterlimit="10" d="M249,273.152c32.992,0,59.738-26.747,59.738-59.739
	c0-32.993-26.746-59.738-59.738-59.738s-59.738,26.745-59.738,59.738C189.262,246.406,216.008,273.152,249,273.152 M249,243.283
	c-16.496,0-29.869-13.374-29.869-29.869c0-16.497,13.373-29.869,29.869-29.869s29.869,13.372,29.869,29.869
	C278.869,229.909,265.496,243.283,249,243.283"/>
</svg>
