<?xml version="1.0" encoding="utf-8"?>
<!-- Generator: Adobe Illustrator 16.0.0, SVG Export Plug-In . SVG Version: 6.00 Build 0)  -->
<!DOCTYPE svg PUBLIC "-//W3C//DTD SVG 1.1//EN" "http://www.w3.org/Graphics/SVG/1.1/DTD/svg11.dtd">
<svg version="1.1" xmlns="http://www.w3.org/2000/svg" xmlns:xlink="http://www.w3.org/1999/xlink" x="0px" y="0px" width="500px"
	 height="500px" viewBox="0 0 500 500" enable-background="new 0 0 500 500" xml:space="preserve">
<g id="Capa_9">
	<circle fill="#FFFFFF" cx="250" cy="250" r="246.778"/>
</g>
<g id="Capa_4" display="none">
	<path display="inline" fill="none" stroke="#003E52" stroke-width="10" stroke-miterlimit="10" d="M193.834,80.682
		c0,0,26.498-16.333,57.166-14.167c32.334,2.667,54.835,8,69.168,12.667s44.666,24.167,58.666,35.167S403.835,137.5,405.668,145
		s-0.666,20.349-5.5,27.016s-23.001,11-29.834,12.333s-27.833,1.833-39.333,0s-33.492-5.196-54.167-12.516
		c-26.834-9.5-49.333-26.484-62-38.818s-19.833-21.167-22-30.833s-1.481-16.127,4-21"/>
</g>
<g id="Capa_5" display="none">
	<path display="inline" fill="none" stroke="#003E52" stroke-width="15" stroke-miterlimit="10" d="M211.568,86.811
		c0,0,17.665-11.333,38.666-9.333s31.646,0.667,51.334,7.5s31.333,9.834,42.667,18.167s29.5,19.667,34.333,25.5s10.5,7,15,18.5
		s6.767,14.189-3.733,19.022s-15.766,10.811-34.933,8.478s-57.834-3.833-76.667-13.833s-54-28.167-63.167-42.667
		s-17.167-23.667-9.833-31.167s27.667-11.737,27.333-9.737"/>
</g>
<g id="Capa_6" display="none">
	<path display="inline" fill="none" stroke="#003E52" stroke-width="20" stroke-miterlimit="10" d="M378.501,154.5
		c5.167-4.167-16.333-26.5-31-32s-20.667-17-49.5-24.5s-32.999-12.167-50.167-10.333c-17.167,1.833-30.5,5.167-29.333,11.667
		s10.333,12.833,22,19.833c11.667,7,26.834,22,45.5,27.5s29.999,8.833,50.833,10s34.168,5.72,40.834,2.72s4.332-12.72,0.666-15.72"
		/>
</g>
<g id="Capa_7" display="none">
	<path display="inline" fill="none" stroke="#003E52" stroke-width="25" stroke-miterlimit="10" d="M263.168,102
		c7.5,1.667,24.39,4.5,35.611,10.167s31.888,11.833,36.722,17.667s25.698,11.75,25.374,16.917
		c-0.444,7.077-14.875,2.75-20.041,2.583s-14-5.167-25.833-7.5s-17.333-6.834-27.5-12.167s-19.499-7.5-23.333-12s-28.833-9-26-15
		s25-3.568,30-1.734"/>
</g>
<g id="Capa_8" display="none">
	<path display="inline" fill="none" stroke="#003E52" stroke-width="15" stroke-miterlimit="10" d="M193.872,75.094
		C199.5,75,206.75,72,214.5,71s14-4,21.5-3.5s8.75-1.111,20.25-0.056s14-1.944,21,1.306s7.5-0.063,18.25,6.344
		s8.25,0.406,15.75,5.656s8.75,1.5,15.25,5.5s3.75-2.25,10,2s3.75-1,10.5,8.75s4.75,0,13.5,9s10.75,3.5,16.5,6.75s8.5,4.25,10.75,12
		S399.5,129.25,400,135s6.5,7,5,12.5s5,9.25-2.5,14.25s1.25,11.25-8,11.25s-14.5,9-26.5,6.25s-10.25,5.75-21.75,2.25
		s-11.75,2.75-27.25-4s-20.25,2.25-29.25-6.25s-14.5,1.5-23.75-8.75s-18-0.25-23.5-12.5s-14.25-0.5-17.75-11.25
		s-16.5-3.063-15-14.031s-12-1.719-7.25-11.969s-19.256-11-8.628-15.75S186,86.5,196.25,84s2.75-5.75,19.5-3.5s4-4,26.5-0.25
		s14-3.5,34.5,3.25s17.5-0.5,39.5,13s18.5,4,31.5,16.25s18,3.75,27.25,17.25s26.75,8,18,18.25s0.25,14.75-23.25,9.5
		s-11,19.5-32,6.75s-18,3.25-37.5-6s-24.25-7-38.25-15.25s-16.25-3.75-25.5-14.75s-22.75-19.5-22-24.5S203,93.25,226.25,92
		s12.25-4,36.5-1.25S321.5,111,321.5,111s14.5,3.25,25,11.75S372,134.25,373,144s-18.25,8.5-31.5,8.75s-38-1.25-48.25-7.25
		s-33-18.063-36.25-20.781s-20.75-8.969-18.75-15.469s7.25-11.5,29.25-6s71.25,26,72,26.25s13,3,15,9.25s-12.5,8-35.5,4.25
		s-57.75-27.25-57.75-27.25s-11.75-10.5,25.5,2s30.75,14,30.75,14l11.5,5.5"/>
</g>
<g id="Capa_1" display="none">
	<path display="inline" fill="none" stroke="#003E52" stroke-miterlimit="10" d="M4.492,250.196
		C4.297,114.453,115.625,2.735,250.781,2.832C385.937,3.028,497.07,114.844,496.777,250.586
		c-0.293,136.426-111.035,247.656-246.484,247.461C114.258,497.852,4.59,387.305,4.492,250.196z M46.556,221.175
		c-1.188,8.911-1.841,18.042-1.927,27.361c-0.977,114.063,90.039,207.52,203.809,209.18
		c112.793,1.66,206.738-91.113,208.008-205.273c1.27-116.016-87.305-205.664-203.906-206.348
		C144.3,45.555,60.186,118.963,46.556,221.175"/>
	<path display="inline" fill="#003E52" stroke="#E75E0D" stroke-miterlimit="10" d="M344.043,193.067
		c-54.883-2.832-106.055-21.484-145.117-65.527c-27.93-31.445-16.797-61.523,24.902-66.602
		c57.715-6.934,110.254,9.18,155.859,44.922c18.75,14.648,40.918,31.738,32.129,59.277
		C401.953,195.899,372.265,191.602,344.043,193.067z"/>
</g>
<g id="Capa_12">
	<path fill="none" stroke="#003E52" stroke-miterlimit="10" d="M3.857,249.756C3.662,114.014,114.99,2.295,250.146,2.393
		c135.156,0.195,246.289,112.012,245.996,247.754c-0.293,136.426-111.035,247.656-246.484,247.461
		C113.623,497.412,3.955,386.865,3.857,249.756z M45.921,220.735c-1.188,8.911-1.841,18.042-1.927,27.361
		c-0.977,114.063,90.039,207.52,203.809,209.18c112.793,1.66,206.738-91.113,208.008-205.273
		c1.27-116.016-87.305-205.664-203.906-206.348C143.665,45.115,59.552,118.523,45.921,220.735"/>
</g>
<g id="Capa_10">
	<path fill="none" stroke="#003E52" stroke-width="10" stroke-miterlimit="10" d="M193.833,81.003
		c-26.667,34.333,73.5,92.499,97.407,96.865c23.309,4.257,108.974,20.413,113.927-18.867c4.834-38.332-77.012-75.622-98.086-83.207
		c-26.747-9.626-108.032-14.498-111.248,10.373c-3.035,23.459,53.332,72.111,96.756,83.003
		c17.797,4.464,98.658,18.784,103.244-12.169c4-27-75.153-68.684-92.5-74.833c-18.334-6.5-95.268-14.067-98,6.833
		c-2.581,19.754,63.5,68,88.385,72.894c14.951,2.94,89.406,15.051,92.448-5.894c2.937-20.223-67.42-59.174-81.466-64.875
		c-13.034-5.291-88.555-16.996-90.868,0.542c-2.189,16.604,68.217,63.428,80.829,64.146c12.642,0.72,78.172,8.687,81.672-1.479
		s-50.5-48.667-69-55.001s-80.32-18.333-84.5-5.333s51.334,49.166,71.5,53.833s71.771,14.744,73.5,3.501
		c1.667-10.833-41-35.668-63.167-43.834S234.404,87.965,231,97.668c-3.333,9.5,49.334,37.167,64.334,42s61.166,17.168,63.5,9.5
		c2.523-8.29-44-28.167-55.667-33.334s-61-22.5-62.833-13.666s44.068,26.333,57.701,30.333s47.259,19.84,50.133,13.334
		S307.51,126,300.505,123.834s-48.536-20.999-49.87-17.333s65.699,29.666,71.699,29.999"/>
</g>
<g id="Capa_3">
	<path fill="none" stroke="#003E52" stroke-width="5" stroke-miterlimit="10" d="M343.501,190.917
		c-52.868-2.731-103.289-19.52-140.917-62C172.416,96.584,183,66.75,227.833,62.334c55.598-6.688,107.667,11.167,151,45.417
		c18.062,14.128,40,31.083,31.25,57.25C400.334,194.334,368.167,190.167,343.501,190.917z"/>
</g>
<g id="Capa_2">
	<path fill="none" stroke="#003E52" stroke-width="44" stroke-miterlimit="10" d="M358.709,51.35
		c109.953,59.688,150.702,197.209,91.016,307.163c-59.688,109.953-197.21,150.703-307.163,91.016
		C32.608,389.841-8.142,252.32,51.546,142.366C111.233,32.412,248.754-8.337,358.709,51.35"/>
</g>
<g id="Capa_11">
</g>
</svg>
