<!--?xml version="1.0" encoding="utf-8"?-->
<!-- Generator: Adobe Illustrator 16.0.0, SVG Export Plug-In . SVG Version: 6.00 Build 0)  -->

<svg version="1.1" id="Capa_1" xmlns="http://www.w3.org/2000/svg" xmlns:xlink="http://www.w3.org/1999/xlink" x="0px" y="0px" width="500px" height="500px" viewBox="0 0 500 500" enable-background="new 0 0 500 500" xml:space="preserve" style="">
<g>
	<g>
		<g>
			<path fill="none" stroke="#010202" stroke-miterlimit="10" d="M10.179,78.859v284.173c0,16.229,13.203,29.432,29.432,29.432
				h141.638 M487.821,363.032V78.859c0-16.229-13.202-29.431-29.431-29.431H39.611c-16.229,0-29.432,13.202-29.432,29.431
				 M181.249,392.464l-5.729,45.831h-23.736c-3.865,0-6.997,3.133-6.997,6.997c0,3.863,3.132,6.996,6.997,6.996h194.434
				c3.866,0,6.997-3.133,6.997-6.996c0-3.864-3.131-6.997-6.997-6.997h-23.734l-5.729-45.831h141.638
				c16.229,0,29.431-13.203,29.431-29.432 M195.352,392.464h25.75l2.526,10.103c2.917,11.663,13.35,19.81,25.372,19.81
				s22.456-8.146,25.372-19.81l2.526-10.103h25.75l5.729,45.831H189.622L195.352,392.464 M235.526,392.464h26.946l-1.677,6.709
				c-1.355,5.422-6.206,9.21-11.797,9.21s-10.44-3.788-11.796-9.21L235.526,392.464 M458.391,63.422
				c8.512,0,15.438,6.926,15.438,15.438v284.173l0,0l0,0c0,8.512-6.926,15.438-15.438,15.438H39.611 M39.611,378.47
				c-8.513,0-15.438-6.926-15.438-15.438V78.859c0-8.512,6.926-15.438,15.438-15.438h418.78" class="pKAmdcIb_0"></path>
		</g>
	</g>
	<g>
		<g>
			<path fill="none" stroke="#010202" stroke-miterlimit="10" d="M40.091,355.554c0,3.865,3.131,6.996,6.997,6.996h14.957
				c3.865,0,6.997-3.131,6.997-6.996c0.001-3.863-3.131-6.997-6.996-6.997h-7.96V93.336h351.957" class="pKAmdcIb_1"></path>
			<path fill="none" stroke="#010202" stroke-miterlimit="10" d="M406.042,93.336c3.865,0,6.996-3.133,6.996-6.997
				c0-3.866-3.131-6.997-6.996-6.997H47.088c-3.865,0-6.997,3.132-6.997,6.997v269.214" class="pKAmdcIb_2"></path>
		</g>
	</g>
	<g>
		<g>
			<path fill="none" stroke="#010202" stroke-miterlimit="10" d="M435.956,79.343c-3.866,0-6.997,3.132-6.997,6.997
				c0,3.864,3.131,6.997,6.997,6.997h7.959v255.22H91.958" class="pKAmdcIb_3"></path>
			<path fill="none" stroke="#010202" stroke-miterlimit="10" d="M91.958,348.557c-3.865,0-6.997,3.134-6.997,6.997
				c0,3.865,3.132,6.996,6.997,6.996h358.954c3.864,0,6.997-3.131,6.997-6.996V86.339c0-3.866-3.133-6.997-6.997-6.997h-14.956" class="pKAmdcIb_4"></path>
		</g>
	</g>
	<g>
		<g>
			<path fill="none" stroke="#010202" stroke-miterlimit="10" d="M344.249,156.809c-1.258-1.608-3.153-2.585-5.191-2.677
				l-164.521-7.479c-0.128-0.006-0.254-0.009-0.384-0.007c-0.974-3.198-3.032-5.97-5.817-7.829l-20.148-13.432
				c-3.215-2.142-7.559-1.274-9.702,1.942c-2.143,3.215-1.274,7.559,1.94,9.702l20.147,13.429c0.095,0.063,0.165,0.159,0.197,0.27
				l25.663,89.821c0.8,2.801,2.118,5.318,3.809,7.491l-9.39,18.779c-2.26,4.519-2.023,9.784,0.633,14.083
				c0.964,1.558,2.186,2.887,3.59,3.95c-1.838,3.207-2.895,6.918-2.895,10.874c0,12.105,9.848,21.953,21.953,21.953
				s21.953-9.849,21.953-21.953c0-2.807-0.536-5.489-1.5-7.959h63.789c-0.965,2.47-1.5,5.152-1.5,7.959
				c0,12.105,9.849,21.953,21.953,21.953c12.104,0,21.953-9.849,21.953-21.953c0-3.511-0.834-6.829-2.306-9.775
				c1.412-1.28,2.306-3.123,2.306-5.181c0-3.864-3.133-6.996-6.997-6.996H193.796c-0.1,0-0.269,0-0.41-0.229
				c-0.141-0.228-0.065-0.378-0.021-0.469l8.65-17.299c1.76,0.452,3.595,0.697,5.472,0.697c0.865,0,1.738-0.052,2.617-0.154
				l98.314-11.566c12.698-1.495,22.914-10.92,25.422-23.458l11.76-58.804C346.001,160.492,345.506,158.415,344.249,156.809z
				 M300.867,295.728c0-4.388,3.569-7.959,7.959-7.959c4.389,0,7.96,3.571,7.96,7.959c0,4.391-3.571,7.961-7.96,7.961
				C304.437,303.688,300.867,300.118,300.867,295.728 M196.172,295.728c0-4.388,3.57-7.959,7.959-7.959s7.959,3.571,7.959,7.959
				c0,4.391-3.57,7.961-7.959,7.961S196.172,300.118,196.172,295.728 M206.178,162.098l4.85,29.416h-24.055l-8.768-30.688
				L206.178,162.098 M219.213,241.159l-10.744,1.265c-3.901,0.459-7.507-1.948-8.583-5.72l-8.914-31.197h22.363L219.213,241.159
				 M233.127,239.523l-5.608-34.014h21.963v32.09L233.127,239.523 M220.468,162.749l29.014,1.319v27.446h-24.271L220.468,162.749
				 M284.916,233.429l-21.44,2.522v-30.444h23.967L284.916,233.429 M291.023,165.955l-2.313,25.56h-25.234v-26.812L291.023,165.955
				 M299.117,231.759l2.375-26.25h21.232l-2.608,13.044c-1.315,6.575-6.674,11.521-13.333,12.305L299.117,231.759 M305.017,166.591
				l25.263,1.149l-4.754,23.774h-22.765L305.017,166.591" class="pKAmdcIb_5"></path>
		</g>
	</g>
	<g>
	</g>
	<g>
	</g>
	<g>
	</g>
	<g>
	</g>
	<g>
	</g>
	<g>
	</g>
	<g>
	</g>
	<g>
	</g>
	<g>
	</g>
	<g>
	</g>
	<g>
	</g>
	<g>
	</g>
	<g>
	</g>
	<g>
	</g>
	<g>
	</g>
</g>
<style data-made-with="vivus-instant">.pKAmdcIb_0{stroke-dasharray:3763 3765;stroke-dashoffset:3764;animation:pKAmdcIb_draw_0 7200ms linear 0ms infinite,pKAmdcIb_fade 7200ms linear 0ms infinite;}.pKAmdcIb_1{stroke-dasharray:664 666;stroke-dashoffset:665;animation:pKAmdcIb_draw_1 7200ms linear 0ms infinite,pKAmdcIb_fade 7200ms linear 0ms infinite;}.pKAmdcIb_2{stroke-dasharray:662 664;stroke-dashoffset:663;animation:pKAmdcIb_draw_2 7200ms linear 0ms infinite,pKAmdcIb_fade 7200ms linear 0ms infinite;}.pKAmdcIb_3{stroke-dasharray:638 640;stroke-dashoffset:639;animation:pKAmdcIb_draw_3 7200ms linear 0ms infinite,pKAmdcIb_fade 7200ms linear 0ms infinite;}.pKAmdcIb_4{stroke-dasharray:688 690;stroke-dashoffset:689;animation:pKAmdcIb_draw_4 7200ms linear 0ms infinite,pKAmdcIb_fade 7200ms linear 0ms infinite;}.pKAmdcIb_5{stroke-dasharray:1948 1950;stroke-dashoffset:1949;animation:pKAmdcIb_draw_5 7200ms linear 0ms infinite,pKAmdcIb_fade 7200ms linear 0ms infinite;}@keyframes pKAmdcIb_draw{100%{stroke-dashoffset:0;}}@keyframes pKAmdcIb_fade{0%{stroke-opacity:1;}94.44444444444444%{stroke-opacity:1;}100%{stroke-opacity:0;}}@keyframes pKAmdcIb_draw_0{11.11111111111111%{stroke-dashoffset: 3764}38.88888888888889%{ stroke-dashoffset: 0;}100%{ stroke-dashoffset: 0;}}@keyframes pKAmdcIb_draw_1{13.88888888888889%{stroke-dashoffset: 665}41.66666666666667%{ stroke-dashoffset: 0;}100%{ stroke-dashoffset: 0;}}@keyframes pKAmdcIb_draw_2{16.666666666666664%{stroke-dashoffset: 663}44.44444444444444%{ stroke-dashoffset: 0;}100%{ stroke-dashoffset: 0;}}@keyframes pKAmdcIb_draw_3{19.444444444444446%{stroke-dashoffset: 639}47.22222222222222%{ stroke-dashoffset: 0;}100%{ stroke-dashoffset: 0;}}@keyframes pKAmdcIb_draw_4{22.22222222222222%{stroke-dashoffset: 689}50%{ stroke-dashoffset: 0;}100%{ stroke-dashoffset: 0;}}@keyframes pKAmdcIb_draw_5{25%{stroke-dashoffset: 1949}52.77777777777778%{ stroke-dashoffset: 0;}100%{ stroke-dashoffset: 0;}}</style></svg>
