<!--?xml version="1.0" encoding="utf-8"?-->
<!-- Generator: Adobe Illustrator 16.0.0, SVG Export Plug-In . SVG Version: 6.00 Build 0)  -->

<svg version="1.1" xmlns="http://www.w3.org/2000/svg" xmlns:xlink="http://www.w3.org/1999/xlink" x="0px" y="0px" width="800px" height="343.919px" viewBox="0 0 800 343.919" enable-background="new 0 0 800 343.919" xml:space="preserve" style="">
<g id="ECLOUD" display="none">
	<path display="inline" fill="#13BBE8" d="M287.579,197.558v-49.65h40.479v11.585h-24.204v7.103h20.48v11.585h-20.48v7.793h25.17
		v11.585H287.579z" class="MuCBFLrx_0"></path>
	<path display="inline" fill="none" stroke="#000000" stroke-linejoin="round" stroke-miterlimit="10" d="M327.264,147.907
		l0.074,10.867h-24.204v7.103h20.48v11.585h-20.48v7.793l25.656,0.002" class="MuCBFLrx_1"></path>
	<path display="inline" fill="#13BBE8" d="M389.129,196.203v-48.241h15.813v36.984h21.707v11.257H389.129z" class="MuCBFLrx_2"></path>
	<path display="inline" fill="none" stroke="#000000" stroke-miterlimit="10" d="M422.5,196.203h-33.371v-48.241h7.539" class="MuCBFLrx_3"></path>
	<g display="inline">
		<path fill="none" d="M541.671-3.784" class="MuCBFLrx_4"></path>
	</g>
	<g display="inline">
		<g>
			<path d="M485.256,144.563l-1.694-1.438c0.183-0.752,0.295-1.514,0.329-2.279l2.035-0.893c0.865-0.382,1.329-1.326,1.092-2.241
				l-0.676-2.665c-0.127-0.499-0.439-0.92-0.881-1.186c-0.35-0.207-0.742-0.297-1.143-0.261l-2.219,0.182
				c-0.417-0.676-0.893-1.317-1.43-1.903l0.793-2.049c0.34-0.882-0.003-1.874-0.814-2.359l-2.36-1.402
				c-0.815-0.484-1.85-0.313-2.463,0.409l-1.458,1.715c-0.744-0.178-1.508-0.282-2.277-0.315l-0.882-2.03
				c-0.16-0.366-0.432-0.675-0.778-0.879c-0.443-0.266-0.969-0.342-1.464-0.212l-2.67,0.674c-0.913,0.23-1.528,1.088-1.45,2.028
				l0.184,2.241c-0.656,0.406-1.268,0.87-1.836,1.392l-2.047-0.792c-0.882-0.345-1.877-0.003-2.358,0.813l-1.403,2.357
				c-0.484,0.813-0.313,1.85,0.41,2.462l1.714,1.457c-0.179,0.745-0.284,1.51-0.316,2.281l-2.019,0.879
				c-0.865,0.381-1.327,1.328-1.091,2.24l0.676,2.665c0.128,0.501,0.44,0.923,0.88,1.186c0.35,0.206,0.744,0.296,1.145,0.262
				l2.241-0.187c0.389,0.638,0.841,1.23,1.339,1.783l-0.807,2.072c-0.342,0.879,0.001,1.876,0.813,2.357l2.364,1.406
				c0.815,0.485,1.853,0.312,2.463-0.409l1.438-1.693c0.75,0.182,1.51,0.292,2.279,0.33l0.892,2.032
				c0.159,0.371,0.435,0.675,0.78,0.885l0,0c0.444,0.264,0.963,0.336,1.462,0.208l2.665-0.677c0.91-0.233,1.526-1.086,1.449-2.028
				l-0.184-2.222c0.659-0.404,1.28-0.86,1.845-1.375l2.069,0.805c0.882,0.344,1.877,0,2.359-0.812l1.404-2.359
				C486.149,146.215,485.978,145.177,485.256,144.563z M482.748,148.486c-0.043,0.074-0.131,0.104-0.209,0.07l-2.588-1.007
				c-0.327-0.127-0.691-0.047-0.936,0.193c-0.703,0.699-1.497,1.295-2.371,1.771c-0.306,0.167-0.484,0.491-0.457,0.843l0.223,2.775
				c0.008,0.08-0.048,0.159-0.13,0.18l-2.665,0.678c-0.063,0.015-0.105-0.004-0.133-0.02c-0.033-0.021-0.054-0.048-0.068-0.078
				l-1.119-2.54c-0.138-0.319-0.456-0.523-0.805-0.526c-0.994,0.002-1.977-0.144-2.929-0.419c-0.335-0.104-0.696,0.008-0.915,0.273
				l-1.801,2.118c-0.054,0.064-0.143,0.081-0.219,0.037l-2.358-1.405c-0.073-0.043-0.104-0.13-0.071-0.209l1.006-2.587
				c0.129-0.328,0.048-0.694-0.193-0.936c-0.678-0.688-1.262-1.465-1.736-2.313c-0.078-0.135-0.194-0.25-0.322-0.326
				c-0.152-0.09-0.333-0.139-0.521-0.12l-2.793,0.229c-0.038,0.002-0.072-0.004-0.101-0.022c-0.021-0.011-0.065-0.045-0.077-0.107
				l-0.679-2.665c-0.019-0.079,0.021-0.161,0.097-0.198l2.529-1.116c0.322-0.142,0.523-0.461,0.526-0.808
				c-0.004-0.988,0.131-1.979,0.409-2.931c0.09-0.332-0.016-0.689-0.275-0.914l-2.132-1.817c-0.064-0.051-0.08-0.144-0.036-0.216
				l1.402-2.36c0.043-0.074,0.131-0.104,0.211-0.073l2.57,0.997c0.326,0.126,0.699,0.054,0.945-0.197
				c0.699-0.698,1.49-1.304,2.357-1.784c0.306-0.167,0.48-0.495,0.448-0.84l-0.228-2.794c-0.006-0.079,0.05-0.16,0.131-0.179
				l2.666-0.677c0.06-0.017,0.104,0.002,0.131,0.02c0.034,0.019,0.055,0.047,0.066,0.076l1.115,2.53
				c0.145,0.319,0.461,0.525,0.809,0.525c0.988-0.002,1.979,0.132,2.929,0.408c0.335,0.093,0.692-0.013,0.918-0.274l1.813-2.131
				c0.055-0.066,0.146-0.079,0.218-0.036l2.358,1.404c0.074,0.043,0.107,0.129,0.075,0.209l-1,2.57
				c-0.123,0.326-0.05,0.695,0.198,0.945c0.72,0.716,1.332,1.527,1.818,2.417c0.168,0.303,0.494,0.482,0.843,0.454l2.763-0.239
				c0.037,0.001,0.071,0.007,0.1,0.023c0.023,0.015,0.065,0.046,0.078,0.107l0.678,2.665c0.023,0.078-0.02,0.162-0.095,0.201
				l-2.542,1.121c-0.317,0.136-0.524,0.456-0.525,0.806c0.002,0.994-0.144,1.977-0.421,2.928c-0.102,0.334,0.012,0.696,0.275,0.913
				l2.116,1.802c0.066,0.053,0.082,0.146,0.039,0.217l-1.404,2.361L482.748,148.486z" class="MuCBFLrx_5"></path>
			<path d="M474.982,134.426c-3.191-1.901-7.332-0.85-9.23,2.345c-1.902,3.196-0.852,7.335,2.345,9.237
				c3.194,1.899,7.333,0.848,9.235-2.346C479.232,140.466,478.181,136.327,474.982,134.426z M468.996,144.493
				c-2.359-1.404-3.135-4.462-1.731-6.822c1.403-2.358,4.46-3.135,6.819-1.731c2.362,1.403,3.138,4.461,1.734,6.82
				C474.415,145.118,471.357,145.897,468.996,144.493z" class="MuCBFLrx_6"></path>
		</g>
	</g>
	<g display="inline">
		<path fill="#13BBE8" stroke="#000000" stroke-miterlimit="10" d="M455.592,163.979c-4.422,0-8.013,3.591-8.013,8.013
			s3.591,8.014,8.013,8.014s8.015-3.592,8.015-8.014S460.014,163.979,455.592,163.979z" class="MuCBFLrx_7"></path>
		<path fill="#13BBE8" stroke="#000000" stroke-miterlimit="10" d="M477.979,169.514l-4.557-0.746
			c-0.545-0.084-1.069-0.494-1.204-1.039c-0.4-1.545-1.044-3.026-1.863-4.401c-0.285-0.484-0.279-1.093,0.045-1.543l2.583-3.645
			c0.074-0.115,0.06-0.264-0.037-0.357l-3.131-3.131c-0.074-0.072-0.156-0.084-0.198-0.084c-0.055,0-0.106,0.02-0.161,0.053
			l-3.622,2.604c-0.462,0.325-1.063,0.347-1.545,0.065c-1.407-0.832-2.919-1.451-4.505-1.85c-0.547-0.138-0.955-0.59-1.05-1.146
			l-0.735-4.363c-0.02-0.137-0.137-0.215-0.273-0.215h-4.422c-0.137,0-0.253,0.078-0.272,0.215l-0.758,4.436
			c-0.094,0.545-0.503,0.982-1.038,1.13c-1.544,0.399-3.027,1.026-4.39,1.846c-0.483,0.283-1.094,0.263-1.557-0.063l-3.624-2.584
			c-0.042-0.031-0.094-0.053-0.155-0.053c-0.054,0-0.126,0.012-0.201,0.085l-3.13,3.129c-0.092,0.095-0.105,0.253-0.03,0.357
			l2.616,3.675c0.324,0.452,0.354,1.05,0.073,1.535c-0.809,1.375-1.41,2.866-1.796,4.41c-0.138,0.546-0.588,0.956-1.146,1.05
			l-4.272,0.735c-0.137,0.021-0.122,0.137-0.122,0.273v4.42c0,0.139-0.015,0.253,0.122,0.275l4.388,0.755
			c0.547,0.095,0.962,0.505,1.109,1.041c0.398,1.543,1.014,3.024,1.836,4.391c0.281,0.482,0.256,1.092-0.071,1.555l-2.587,3.622
			c-0.073,0.116-0.063,0.264,0.029,0.357l3.131,3.13c0.074,0.073,0.156,0.084,0.199,0.084c0.05,0,0.104-0.021,0.155-0.053
			l3.679-2.615c0.239-0.179,0.534-0.261,0.816-0.261c0.244,0,0.496,0.062,0.717,0.188c1.354,0.777,2.803,1.376,4.304,1.765
			c0.537,0.135,0.945,0.578,1.041,1.134l0.733,4.108c0.022,0.137,0.138-0.071,0.273-0.071h4.422c0.138,0,0.254,0.208,0.273,0.071
			l0.747-4.259c0.085-0.547,0.493-0.924,1.039-1.06c1.545-0.398,3.024-0.969,4.399-1.79c0.482-0.283,1.093-0.242,1.546,0.082
			l3.642,2.604c0.044,0.032,0.098,0.058,0.159,0.058c0.055,0,0.128-0.011,0.202-0.085l3.128-3.126
			c0.096-0.094,0.105-0.251,0.031-0.357l-2.594-3.653c-0.327-0.463-0.347-1.061-0.063-1.544c0.82-1.377,1.428-2.856,1.826-4.401
			c0.139-0.536,0.581-0.945,1.135-1.041l4.412-0.979c0.137-0.022,0.231-0.52,0.231-0.52h0.589v-3.93
			C478.5,169.65,478.117,169.535,477.979,169.514z M455.592,182.841c-5.984,0-10.849-4.862-10.849-10.85
			c0-5.986,4.864-10.85,10.849-10.85c5.987,0,10.85,4.863,10.85,10.85C466.441,177.979,461.579,182.841,455.592,182.841z" class="MuCBFLrx_8"></path>
	</g>
	<path display="inline" fill="none" stroke="#000000" stroke-miterlimit="10" d="M266.667,175.883A5,5 0,1,1 276.667,175.883A5,5 0,1,1 266.667,175.883" class="MuCBFLrx_9"></path>
	<g display="inline">
		<g>
			<path fill="none" stroke="#000000" stroke-miterlimit="10" d="M221,176.716L258,176.716" class="MuCBFLrx_10"></path>
			<g>
				<path d="M252.263,179.896L251.921,178.956L258.077,176.716L251.921,174.476L252.263,173.536L261,176.716Z" class="MuCBFLrx_11"></path>
			</g>
		</g>
	</g>
	<path display="inline" fill="#13BBE8" d="M366.995,166.825c-0.483-5.172-3.724-8.139-8.827-8.139
		c-5.724,0-9.172,4.896-9.172,14.482c0,6.964,1.518,13.515,9.792,13.515c5.241,0,7.724-3.654,8.344-8.411h15.653
		c-1.447,12.825-10.619,20.549-23.723,20.549c-16.41,0-26.343-10.068-26.343-26.205c0-16.067,10.897-26.065,24.758-26.065
		c15.171,0,23.652,7.517,24.963,20.274H366.995z" class="MuCBFLrx_12"></path>
	<path display="inline" fill="none" stroke="#000000" stroke-miterlimit="10" d="M382.509,166.208l-16.232-0.102
		c-0.482-5.172-3.265-7.979-8.368-7.979c-5.724,0-9.397,5.258-9.397,14.843c0,6.966,1.303,13.528,9.577,13.528
		c5.241,0,8.059-4.103,8.678-8.859l15.981-0.061" class="MuCBFLrx_13"></path>
	<path display="inline" fill="#13BBE8" d="M489.221,147.975h15.813v28.878c0,4.757,0.938,8.844,7.438,8.844
		c5.695,0,7.369-3.618,7.369-8.844v-28.878h15.813v27.27c0,15.478-7.169,22.245-23.182,22.245c-14.941,0-23.25-5.695-23.25-22.312
		V147.975z" class="MuCBFLrx_14"></path>
	<path display="inline" fill="#13BBE8" d="M544.696,196.216v-48.241h21.173c15.544,0,25.192,7.236,25.192,23.115
		c0,18.158-10.117,25.126-25.595,25.126H544.696z M560.509,184.96h3.351c7.369,0,11.39-3.887,11.39-12.999
		c0-10.05-3.283-12.729-11.726-12.729h-3.015V184.96z" class="MuCBFLrx_15"></path>
	<path display="inline" fill="none" stroke="#000000" d="M505.2,160.05v16.97c0,4.757,0.938,8.844,7.437,8.844
		c5.695,0,7.371-3.618,7.371-8.844v-14.804 M535.258,182.204c-1.971,10.685-9.18,15.452-22.621,15.452
		c-12.449,0-20.294-3.954-22.564-14.887" class="MuCBFLrx_16"></path>
	<path display="inline" fill="none" stroke="#000000" d="M553.834,196.383h-8.971v-48.241h11.303 M556.166,148.142h6.334
		 M560.676,168.551v16.576h3.351c5.261,0,8.814-1.98,10.418-6.429" class="MuCBFLrx_17"></path>
	<g display="inline">
		<g>
			<path width="1.851" height="5.553" d="M607.406 87.771 L609.257 87.771 L609.257 93.324 L607.406 93.324 Z" class="MuCBFLrx_18"></path>
		</g>
	</g>
	<g display="inline">
		<g>
			
				<path transform="matrix(0.7071 0.7071 -0.7071 0.7071 251.6295 -416.214)" width="1.851" height="6.543" d="M627.304 92.365 L629.155 92.365 L629.155 98.908 L627.304 98.908 Z" class="MuCBFLrx_19"></path>
		</g>
	</g>
	<g display="inline">
		<g>
			
				<path transform="matrix(0.7071 0.7071 -0.7071 0.7071 279.7663 -404.5602)" width="6.542" height="1.852" d="M624.959 134.502 L631.501 134.502 L631.501 136.354 L624.959 136.354 Z" class="MuCBFLrx_20"></path>
		</g>
	</g>
	<g display="inline">
		<g>
			<path d="M581.396,127.402c0,3.769,2.832,6.89,6.478,7.347v7.461c0,0.511,0.414,0.925,0.926,0.925
				c4.791,0,7.916-11.825,8.381-16.495h4.998c-0.201,0.423-0.324,0.89-0.324,1.389c0,0.907,0.377,1.725,0.979,2.313
				c-0.602,0.589-0.979,1.407-0.979,2.313c0,0.907,0.377,1.726,0.979,2.313c-0.602,0.589-0.979,1.407-0.979,2.314
				c0,1.668,1.273,3.03,2.896,3.204c0.402,1.609,1.85,2.811,3.582,2.811s3.18-1.201,3.581-2.811
				c1.623-0.174,2.896-1.536,2.896-3.204c0-0.907-0.376-1.726-0.979-2.314c0.604-0.588,0.979-1.406,0.979-2.313
				c0-0.906-0.376-1.725-0.979-2.313c0.604-0.589,0.979-1.406,0.979-2.313c0-0.499-0.123-0.966-0.325-1.389h14.207
				c4.082,0,7.404-3.321,7.404-7.403c0-2.533-1.318-4.887-3.426-6.235c0.427-0.949,0.648-1.977,0.648-3.02
				c0-4.082-3.32-7.403-7.403-7.403c-0.475,0-0.948,0.046-1.415,0.138c-1.079-2.847-3.803-4.765-6.914-4.765
				c-1.042,0-2.068,0.222-3.019,0.648c-1.348-2.107-3.702-3.425-6.235-3.425s-4.889,1.317-6.236,3.425
				c-0.949-0.427-1.977-0.648-3.019-0.648c-3.111,0-5.835,1.918-6.914,4.765c-0.468-0.092-0.94-0.138-1.415-0.138
				c-4.082,0-6.576,11.487-6.576,15.569c0,1.043,0.223,2.07,0.648,3.02C582.713,122.516,581.396,124.869,581.396,127.402z
				 M606.738,140.521h3.188c-0.322,0.551-0.912,0.926-1.594,0.926C607.649,141.447,607.059,141.072,606.738,140.521z
				 M603.704,137.283c0-0.766,0.623-1.389,1.388-1.389h6.479c0.766,0,1.389,0.623,1.389,1.389c0,0.765-0.623,1.388-1.389,1.388
				h-6.479C604.327,138.671,603.704,138.048,603.704,137.283z M603.704,132.655c0-0.765,0.623-1.388,1.388-1.388h6.479
				c0.766,0,1.389,0.623,1.389,1.388c0,0.766-0.623,1.389-1.389,1.389h-6.479C604.327,134.044,603.704,133.421,603.704,132.655z
				 M603.704,128.028c0-0.766,0.623-1.389,1.388-1.389h6.479c0.766,0,1.389,0.623,1.389,1.389s-0.623,1.388-1.389,1.388h-6.479
				C604.327,129.416,603.704,128.794,603.704,128.028z M613.885,110.907c0-0.255-0.023-0.507-0.06-0.755
				c-0.007-0.06-0.016-0.118-0.026-0.176c-0.041-0.245-0.094-0.488-0.167-0.723c-0.006-0.019-0.015-0.036-0.02-0.055
				c-0.071-0.221-0.159-0.435-0.257-0.644c-0.024-0.053-0.049-0.104-0.076-0.156c-0.109-0.217-0.231-0.429-0.371-0.63
				c-0.006-0.009-0.01-0.018-0.016-0.026c0.573-0.351,1.232-0.538,1.917-0.538c2.042,0,3.702,1.661,3.702,3.702v2.282l-7.918,5.277
				c-0.257,0.172-0.411,0.461-0.411,0.77v5.553h-3.702v-5.553c0-0.309-0.154-0.598-0.412-0.77l-7.917-5.278v-2.281
				c0-0.997,0.396-1.936,1.11-2.64c1.189-1.167,3.12-1.372,4.508-0.525c-0.007,0.009-0.011,0.018-0.016,0.026
				c-0.139,0.201-0.262,0.413-0.373,0.63c-0.025,0.052-0.049,0.104-0.074,0.156c-0.098,0.209-0.187,0.423-0.258,0.644
				c-0.006,0.019-0.014,0.036-0.02,0.055c-0.072,0.235-0.125,0.478-0.167,0.723c-0.009,0.059-0.018,0.116-0.026,0.176
				c-0.034,0.249-0.057,0.501-0.057,0.756c0,1.499,0.591,2.905,1.666,3.959c0.179,0.177,0.413,0.266,0.646,0.266
				c0.234,0,0.469-0.089,0.648-0.266c1.074-1.054,1.666-2.46,1.666-3.959c0-0.255-0.023-0.507-0.061-0.756
				c-0.008-0.06-0.016-0.117-0.025-0.176c-0.042-0.245-0.095-0.488-0.168-0.723c-0.006-0.019-0.014-0.036-0.02-0.055
				c-0.07-0.221-0.158-0.435-0.257-0.644c-0.024-0.053-0.048-0.104-0.075-0.156c-0.109-0.217-0.232-0.429-0.372-0.63
				c-0.007-0.009-0.011-0.018-0.016-0.026c1.146-0.7,2.688-0.7,3.834,0c-0.007,0.009-0.011,0.018-0.016,0.026
				c-0.139,0.201-0.261,0.413-0.372,0.63c-0.025,0.052-0.05,0.104-0.074,0.156c-0.099,0.209-0.187,0.423-0.258,0.644
				c-0.006,0.019-0.014,0.036-0.02,0.055c-0.073,0.235-0.126,0.478-0.168,0.723c-0.009,0.059-0.018,0.116-0.025,0.176
				c-0.034,0.249-0.058,0.501-0.058,0.756c0,1.499,0.592,2.905,1.666,3.959c0.18,0.177,0.413,0.266,0.647,0.266
				s0.469-0.089,0.648-0.266C613.293,113.813,613.885,112.406,613.885,110.907z M611.968,111.562
				c-0.009,0.048-0.018,0.097-0.028,0.145c-0.046,0.207-0.105,0.411-0.187,0.607c-0.013,0.026-0.026,0.054-0.039,0.08
				c-0.04,0.092-0.097,0.177-0.144,0.266c-0.049-0.088-0.104-0.173-0.145-0.266c-0.013-0.026-0.027-0.053-0.039-0.079
				c-0.08-0.195-0.141-0.399-0.186-0.607c-0.011-0.048-0.02-0.097-0.028-0.146c-0.038-0.215-0.065-0.432-0.065-0.654
				c0-0.222,0.027-0.439,0.065-0.654c0.009-0.049,0.018-0.097,0.028-0.146c0.045-0.207,0.105-0.41,0.186-0.606
				c0.013-0.028,0.027-0.054,0.039-0.08c0.041-0.092,0.097-0.177,0.145-0.266c0.049,0.089,0.104,0.174,0.145,0.266
				c0.012,0.027,0.027,0.053,0.039,0.081c0.08,0.195,0.141,0.398,0.188,0.606c0.01,0.048,0.02,0.097,0.027,0.145
				c0.037,0.214,0.064,0.433,0.064,0.654C612.033,111.13,612.006,111.348,611.968,111.562z M605.489,111.562
				c-0.009,0.048-0.017,0.097-0.027,0.145c-0.046,0.207-0.106,0.411-0.187,0.607c-0.013,0.026-0.027,0.054-0.039,0.08
				c-0.041,0.092-0.097,0.177-0.145,0.266c-0.049-0.088-0.104-0.173-0.145-0.266c-0.012-0.026-0.027-0.053-0.038-0.079
				c-0.081-0.195-0.141-0.399-0.187-0.607c-0.011-0.048-0.02-0.097-0.028-0.146c-0.038-0.215-0.064-0.432-0.064-0.654
				c0-0.222,0.026-0.439,0.064-0.654c0.009-0.049,0.018-0.097,0.028-0.146c0.046-0.207,0.105-0.41,0.187-0.606
				c0.013-0.028,0.026-0.054,0.039-0.08c0.04-0.092,0.097-0.177,0.145-0.266c0.048,0.089,0.104,0.174,0.144,0.266
				c0.013,0.027,0.028,0.053,0.039,0.081c0.081,0.195,0.141,0.398,0.188,0.606c0.01,0.048,0.02,0.097,0.027,0.145
				c0.038,0.214,0.064,0.433,0.064,0.654C605.555,111.13,605.528,111.348,605.489,111.562z M583.246,127.402
				c0-2.143,1.259-4.115,3.209-5.026c0.238-0.111,0.418-0.32,0.494-0.573c0.076-0.254,0.04-0.526-0.098-0.752
				c-0.542-0.878-0.828-1.882-0.828-2.903c0-3.062,1.662-13.719,4.725-13.719c0.588,0,1.176,0.097,1.746,0.285
				c0.246,0.084,0.515,0.057,0.74-0.069c0.227-0.126,0.39-0.34,0.451-0.592c0.602-2.503,2.82-4.251,5.392-4.251
				c1.021,0,2.024,0.286,2.903,0.828c0.225,0.139,0.496,0.175,0.751,0.099c0.252-0.076,0.461-0.257,0.573-0.495
				c0.91-1.949,2.885-3.208,5.027-3.208s4.116,1.259,5.025,3.207c0.112,0.239,0.321,0.419,0.573,0.495
				c0.257,0.076,0.527,0.04,0.751-0.099c0.879-0.541,1.883-0.827,2.904-0.827c2.572,0,4.789,1.748,5.393,4.251
				c0.061,0.252,0.223,0.466,0.45,0.592c0.225,0.126,0.494,0.152,0.74,0.069c0.569-0.188,1.157-0.285,1.746-0.285
				c3.063,0,5.553,2.491,5.553,5.553c0,1.021-0.286,2.025-0.828,2.903c-0.138,0.227-0.174,0.499-0.099,0.752
				c0.076,0.253,0.256,0.461,0.494,0.573c1.951,0.911,3.209,2.884,3.209,5.026c0,3.063-2.49,5.553-5.553,5.553h-16.658v-5.058
				l7.918-5.277c0.257-0.172,0.411-0.46,0.411-0.77v-2.777c0-3.063-2.49-5.553-5.553-5.553c-1.177,0-2.299,0.373-3.239,1.055
				c-0.939-0.682-2.062-1.055-3.238-1.055c-1.178,0-2.299,0.373-3.24,1.055c-0.939-0.682-2.061-1.055-3.238-1.055
				c-1.461,0-2.84,0.565-3.887,1.593l0.647,0.661l-0.647-0.66c-1.074,1.055-1.666,2.46-1.666,3.959v2.776
				c0,0.31,0.154,0.598,0.412,0.771l7.917,5.277v5.058h-8.329c-0.512,0-0.926,0.415-0.926,0.926c0,3.769-2.004,15.055-5.65,15.512
				v-7.346c0-0.511-0.414-0.926-0.926-0.926C585.736,132.955,583.246,130.465,583.246,127.402z" class="MuCBFLrx_21"></path>
		</g>
	</g>
	<g display="inline">
		<g>
			<path width="1.852" height="1.851" d="M617.586 128.491 L619.438 128.491 L619.438 130.342 L617.586 130.342 Z" class="MuCBFLrx_22"></path>
		</g>
	</g>
	<g display="inline">
		<g>
			<path width="1.851" height="1.851" d="M621.288 128.491 L623.139 128.491 L623.139 130.342 L621.288 130.342 Z" class="MuCBFLrx_23"></path>
		</g>
	</g>
	<g display="inline">
		<g>
			<path width="1.851" height="1.851" d="M624.99 128.491 L626.841 128.491 L626.841 130.342 L624.99 130.342 Z" class="MuCBFLrx_24"></path>
		</g>
	</g>
	<g display="inline">
		<g>
			<path d="M454.14,206.649l-1.469-1.115c0.118-0.631,0.177-1.268,0.171-1.903l1.646-0.831c0.7-0.354,1.042-1.157,0.806-1.905
				l-0.681-2.178c-0.127-0.407-0.405-0.742-0.783-0.943c-0.298-0.156-0.628-0.212-0.958-0.164l-1.83,0.249
				c-0.376-0.541-0.799-1.051-1.271-1.513l0.565-1.732c0.242-0.746-0.086-1.553-0.781-1.919l-2.018-1.056
				c-0.697-0.365-1.547-0.178-2.021,0.448l-1.131,1.486c-0.626-0.114-1.263-0.165-1.902-0.159l-0.822-1.643
				c-0.148-0.296-0.387-0.539-0.684-0.692c-0.379-0.201-0.817-0.24-1.223-0.111l-2.182,0.679c-0.746,0.231-1.217,0.97-1.111,1.745
				l0.254,1.85c-0.526,0.365-1.012,0.777-1.459,1.234l-1.731-0.564c-0.747-0.246-1.556,0.082-1.919,0.779l-1.057,2.017
				c-0.364,0.696-0.176,1.547,0.45,2.021l1.485,1.13c-0.114,0.627-0.168,1.265-0.16,1.905l-1.633,0.818
				c-0.699,0.354-1.04,1.16-0.804,1.905l0.68,2.179c0.128,0.408,0.406,0.744,0.782,0.942c0.299,0.154,0.629,0.211,0.96,0.165
				l1.849-0.255c0.351,0.512,0.752,0.981,1.189,1.418l-0.575,1.753c-0.245,0.743,0.085,1.555,0.778,1.917l2.021,1.06
				c0.697,0.365,1.549,0.174,2.022-0.45l1.116-1.468c0.63,0.117,1.265,0.175,1.902,0.172l0.83,1.644
				c0.148,0.301,0.391,0.54,0.688,0.698l0,0c0.379,0.198,0.813,0.234,1.22,0.107l2.177-0.681c0.746-0.234,1.217-0.968,1.111-1.746
				l-0.252-1.832c0.528-0.364,1.022-0.77,1.467-1.222l1.751,0.574c0.746,0.245,1.556-0.085,1.919-0.778l1.058-2.018
				C454.953,207.978,454.764,207.125,454.14,206.649z M452.237,210.012c-0.032,0.063-0.104,0.093-0.171,0.068l-2.189-0.719
				c-0.276-0.091-0.574-0.007-0.766,0.203c-0.552,0.61-1.184,1.14-1.887,1.572c-0.244,0.152-0.378,0.429-0.34,0.719l0.309,2.289
				c0.01,0.066-0.031,0.135-0.1,0.155l-2.178,0.682c-0.051,0.015-0.087,0.001-0.11-0.011c-0.028-0.016-0.047-0.037-0.06-0.062
				l-1.041-2.055c-0.129-0.259-0.402-0.413-0.691-0.4c-0.823,0.047-1.645-0.03-2.445-0.216c-0.281-0.071-0.576,0.038-0.746,0.268
				l-1.396,1.836c-0.042,0.056-0.115,0.073-0.18,0.041l-2.018-1.06c-0.063-0.031-0.092-0.103-0.068-0.17l0.717-2.188
				c0.094-0.276,0.01-0.577-0.201-0.767c-0.592-0.539-1.111-1.156-1.543-1.837c-0.07-0.109-0.172-0.199-0.281-0.257
				c-0.131-0.067-0.281-0.1-0.438-0.076l-2.303,0.315c-0.033,0.002-0.061-0.001-0.086-0.016c-0.018-0.008-0.055-0.034-0.068-0.085
				l-0.682-2.178c-0.02-0.064,0.01-0.134,0.07-0.169l2.047-1.037c0.26-0.132,0.412-0.406,0.4-0.693
				c-0.048-0.818,0.02-1.646,0.207-2.446c0.061-0.279-0.043-0.57-0.269-0.745l-1.849-1.41c-0.055-0.04-0.072-0.115-0.039-0.178
				l1.057-2.018c0.032-0.063,0.104-0.093,0.171-0.071l2.175,0.712c0.276,0.09,0.581,0.013,0.773-0.206
				c0.549-0.609,1.177-1.147,1.875-1.584c0.244-0.152,0.375-0.433,0.333-0.717l-0.314-2.305c-0.009-0.064,0.034-0.135,0.101-0.153
				l2.18-0.68c0.048-0.018,0.085-0.004,0.109,0.01c0.028,0.014,0.047,0.036,0.058,0.061l1.037,2.047
				c0.134,0.258,0.406,0.414,0.693,0.398c0.819-0.046,1.646,0.021,2.445,0.207c0.281,0.062,0.573-0.042,0.748-0.269l1.407-1.847
				c0.043-0.058,0.117-0.072,0.179-0.039l2.017,1.058c0.063,0.031,0.096,0.102,0.072,0.169l-0.714,2.175
				c-0.087,0.276-0.01,0.578,0.208,0.774c0.627,0.562,1.172,1.205,1.614,1.921c0.153,0.244,0.431,0.378,0.719,0.339l2.278-0.322
				c0.031,0,0.059,0.003,0.083,0.016c0.021,0.011,0.057,0.035,0.069,0.085l0.682,2.178c0.023,0.063-0.01,0.135-0.07,0.171
				l-2.056,1.043c-0.257,0.126-0.414,0.401-0.399,0.691c0.047,0.823-0.029,1.644-0.217,2.444c-0.069,0.281,0.041,0.576,0.269,0.744
				l1.835,1.398c0.057,0.04,0.073,0.117,0.041,0.178l-1.057,2.02L452.237,210.012z" class="MuCBFLrx_25"></path>
			<path d="M445.173,198.71c-2.73-1.433-6.112-0.376-7.543,2.356c-1.433,2.733-0.378,6.116,2.356,7.549
				c2.732,1.431,6.113,0.373,7.547-2.357C448.965,203.524,447.908,200.143,445.173,198.71z M440.664,207.319
				c-2.019-1.058-2.797-3.556-1.74-5.575c1.057-2.016,3.555-2.797,5.572-1.74c2.02,1.058,2.8,3.557,1.742,5.573
				C445.182,207.595,442.683,208.377,440.664,207.319z" class="MuCBFLrx_26"></path>
		</g>
	</g>
	<g display="inline">
		<g>
			<path fill="none" stroke="#000000" stroke-miterlimit="10" d="M451.109,214.704c-0.929,1.693-2.015,3.374-3.261,5.027" class="MuCBFLrx_27"></path>
			<path fill="none" stroke="#000000" stroke-miterlimit="10" stroke-dasharray="12.3447,12.3447" d="M439.26,228.555
				c-28.345,23.105-95.064,33.438-205.392-21.031" class="MuCBFLrx_28"></path>
			<path fill="none" stroke="#000000" stroke-miterlimit="10" d="M228.344,204.761c-1.769-0.896-3.548-1.809-5.339-2.737" class="MuCBFLrx_29"></path>
			<g>
				<path d="M229.728,201.851L229.605,202.844L223.104,202.044L227.57,206.835L226.839,207.517L220.5,200.716Z" class="MuCBFLrx_30"></path>
			</g>
		</g>
	</g>
	<g display="inline">
		<g>
			<g>
				<path fill="#010002" d="M194.139,147.496c-10.006,0-18.113,2.929-18.113,6.542v9.578c0,3.614,8.106,6.546,18.113,6.546
					s18.114-2.932,18.114-6.546v-9.578C212.256,150.425,204.145,147.496,194.139,147.496z M194.139,159.267
					c-7.996,0-14.477-2.342-14.477-5.229c0-2.888,6.483-5.227,14.477-5.227c8,0,14.476,2.339,14.476,5.227
					C208.616,156.927,202.139,159.267,194.139,159.267z" class="MuCBFLrx_31"></path>
				<path fill="#010002" d="M194.141,172.975c-9.564,0-17.382-2.683-18.054-6.073c-0.029,0.156-0.061,0.31-0.061,0.471v9.578
					c0,3.614,8.106,6.545,18.113,6.545s18.114-2.929,18.114-6.545v-9.578c0.003-0.161-0.03-0.312-0.058-0.471
					C211.527,170.297,203.705,172.975,194.141,172.975z" class="MuCBFLrx_32"></path>
				<path fill="#010002" d="M194.141,186.5c-9.564,0-17.382-2.681-18.054-6.074c-0.029,0.154-0.061,0.309-0.061,0.47v9.576
					c0,3.615,8.106,6.542,18.113,6.542s18.114-2.929,18.114-6.542v-9.576c0.003-0.161-0.03-0.315-0.058-0.472
					C211.527,183.819,203.705,186.5,194.141,186.5z" class="MuCBFLrx_33"></path>
			</g>
		</g>
	</g>
	<g display="inline">
		<g>
			<path fill="none" stroke="#000000" stroke-miterlimit="10" d="M461,126.716c0,0,11.5-17,54-20.5
				c36.038-2.968,60.213,22.107,66.73,29.8" class="MuCBFLrx_34"></path>
			<g>
				<path d="M575.391,133.667L575.881,132.794L581.594,136L579.277,129.873L580.213,129.519L583.5,138.216Z" class="MuCBFLrx_35"></path>
			</g>
		</g>
	</g>
	<path display="inline" fill="none" stroke="#000000" stroke-miterlimit="10" d="M628.047,179.484
		c0.049-2.66,2.381-4.428,3.85-5.936" class="MuCBFLrx_36"></path>
	<path display="inline" fill="none" stroke="#000000" stroke-miterlimit="10" d="M626.914,175.534
		c1.975-0.073,3.504,2.488,4.904,3.806" class="MuCBFLrx_37"></path>
	<path display="inline" fill="none" stroke="#000000" stroke-miterlimit="10" d="M533.475,219.24
		c1.725,1.228,4.329,1.766,5.569,4.498" class="MuCBFLrx_38"></path>
	<path display="inline" fill="none" stroke="#000000" stroke-miterlimit="10" d="M538.152,218.949
		c-1.711,1.61-2.043,4.544-3.866,6.147" class="MuCBFLrx_39"></path>
	<path display="inline" fill="none" stroke="#000000" stroke-miterlimit="10" d="M363.222,210.889
		c0.938,0.114,1.716,1.86,2.343,2.518c1.049,1.097,1.797,1.861,2.595,3.222" class="MuCBFLrx_40"></path>
	<path display="inline" fill="none" stroke="#000000" stroke-miterlimit="10" d="M362.447,216.41
		c1.544,0.218,5.981-2.021,6.73-3.785" class="MuCBFLrx_41"></path>
	<path display="inline" fill="none" stroke="#000000" stroke-miterlimit="10" d="M337.186,108.625
		c1.123,2.502,3.44,4.634,5.052,6.605" class="MuCBFLrx_42"></path>
	<path display="inline" fill="none" stroke="#000000" stroke-miterlimit="10" d="M336.881,115.041
		c0.674-2.012,3.096-4.6,4.399-6.106" class="MuCBFLrx_43"></path>
	<path display="inline" fill="none" stroke="#000000" stroke-miterlimit="10" d="M518.26,133.051
		c1.908-2.06,3.891-4.785,5.387-7.321" class="MuCBFLrx_44"></path>
	<path display="inline" fill="none" stroke="#000000" stroke-miterlimit="10" d="M518.727,126.862
		c1.277,1.615,2.633,2.926,4.162,4.177" class="MuCBFLrx_45"></path>
	<g display="inline">
		<g>
			
				<path transform="matrix(0.7074 -0.7068 0.7068 0.7074 104.7554 443.4241)" width="1.851" height="6.542" d="M586.995 91.923 L588.846 91.923 L588.846 98.465 L586.995 98.465 Z" class="MuCBFLrx_46"></path>
		</g>
	</g>
</g>
<g id="Capa_5" display="none">
	<text transform="matrix(1 0 0 1 -595.9595 137.2578)" display="inline"><tspan x="0" y="0" font-family="'HelveticaLTStd-Blk'" font-size="67">SEGURIDAD </tspan><tspan x="55.878" y="80.4" font-family="'HelveticaLTStd-Blk'" font-size="67">DE      LA </tspan><tspan x="-37.218" y="160.8" font-family="'HelveticaLTStd-Blk'" font-size="67">INFORMACION</tspan></text>
	<path display="inline" d="M-349.939,484.493c-0.268-1.676-1.139-2.68-2.278-3.283s-2.546-0.871-4.087-0.871
		c-3.484,0-5.025,1.006-5.025,2.748c0,7.236,27.739,2.746,27.739,20.301c0,11.189-9.313,16.617-22.58,16.617
		c-12.73,0-21.039-7.438-21.374-16.148h15.143c0.335,1.742,1.273,3.016,2.613,3.818c1.273,0.805,2.948,1.207,4.489,1.207
		c3.953,0,6.566-1.273,6.566-3.551c0-7.303-27.738-2.279-27.738-20.703c0-10.252,8.844-15.41,20.904-15.41
		c13.4,0,19.498,6.834,20.636,15.275H-349.939z" class="MuCBFLrx_47"></path>
	<path display="inline" d="M-326.29,518.731v-48.242h39.33v11.258h-23.518v6.9h19.899v11.256h-19.899v7.572h24.456v11.256H-326.29z" class="MuCBFLrx_48"></path>
	<path display="inline" d="M-231.686,518.864h-10.185l-0.603-4.756c-2.613,3.082-6.968,5.896-14.539,5.896
		c-12.328,0-23.383-7.975-23.383-24.791c0-15.41,9.648-25.996,25.259-25.996c11.591,0,20.904,6.029,22.848,17.889h-15.008
		c-1.139-3.953-4.021-6.098-8.107-6.098c-6.231,0-9.179,5.629-9.179,14.137c0,6.836,2.144,13.066,10.117,13.066
		c3.216,0,7.303-2.211,8.107-5.561h-6.968v-10.453h21.642V518.864z" class="MuCBFLrx_49"></path>
	<path display="inline" d="M-222.508,470.489h15.813v28.879c0,4.756,0.938,8.844,7.437,8.844c5.695,0,7.37-3.619,7.37-8.844v-28.879
		h15.813v27.27c0,15.479-7.169,22.246-23.183,22.246c-14.941,0-23.25-5.695-23.25-22.313V470.489z" class="MuCBFLrx_50"></path>
	<path display="inline" d="M-151.488,501.913v16.818h-15.813v-48.242h22.781c16.08,0,21.373,4.355,21.373,13.736
		c0,5.561-2.479,10.25-8.107,11.791c5.092,1.877,8.174,3.082,8.174,12.799c0,6.297-0.201,8.441,1.675,8.441v1.475h-16.013
		c-0.402-1.072-0.804-4.154-0.804-8.443c0-6.297-1.072-8.375-8.442-8.375H-151.488z M-151.488,491.327h6.231
		c4.891,0,7.504-1.205,7.504-4.557c0-3.416-2.68-5.023-6.365-5.023h-7.37V491.327z" class="MuCBFLrx_51"></path>
	<path display="inline" d="M-114.169,518.731v-48.242h15.812v48.242H-114.169z" class="MuCBFLrx_52"></path>
	<path display="inline" d="M-88.844,518.731v-48.242h21.172c15.544,0,25.193,7.236,25.193,23.115
		c0,18.158-10.117,25.127-25.595,25.127H-88.844z M-73.032,507.476h3.35c7.37,0,11.39-3.887,11.39-13
		c0-10.049-3.283-12.729-11.725-12.729h-3.015V507.476z" class="MuCBFLrx_53"></path>
	<path display="inline" d="M-40.336,518.731l17.287-48.242h16.08l17.287,48.242H-5.429l-1.876-6.365H-23.05l-1.809,6.365H-40.336z
		 M-15.144,485.028l-4.891,17.287h9.983L-15.144,485.028z" class="MuCBFLrx_54"></path>
	<path display="inline" d="M15.408,518.731v-48.242H36.58c15.544,0,25.193,7.236,25.193,23.115
		c0,18.158-10.117,25.127-25.595,25.127H15.408z M31.22,507.476h3.35c7.37,0,11.39-3.887,11.39-13
		c0-10.049-3.283-12.729-11.725-12.729H31.22V507.476z" class="MuCBFLrx_55"></path>
	<path display="inline" d="M-309.156,595.731v-48.242h21.172c15.544,0,25.193,7.236,25.193,23.115
		c0,18.158-10.117,25.127-25.595,25.127H-309.156z M-293.344,584.476h3.35c7.37,0,11.39-3.887,11.39-13
		c0-10.049-3.283-12.729-11.725-12.729h-3.015V584.476z" class="MuCBFLrx_56"></path>
	<path display="inline" d="M-256.293,595.731v-48.242h39.33v11.258h-23.518v6.9h19.899v11.256h-19.899v7.572h24.456v11.256H-256.293
		z" class="MuCBFLrx_57"></path>
	<path display="inline" d="M-70.609,595.731v-48.242h15.813v36.986h21.708v11.256H-70.609z" class="MuCBFLrx_58"></path>
	<path display="inline" d="M-30.276,595.731l17.286-48.242H3.09l17.287,48.242H4.631l-1.875-6.365H-12.99l-1.809,6.365H-30.276z
		 M-5.084,562.028l-4.891,17.287h9.982L-5.084,562.028z" class="MuCBFLrx_59"></path>
	<path display="inline" d="M-418.484,669.731v-48.242h15.813v48.242H-418.484z" class="MuCBFLrx_60"></path>
	<path display="inline" d="M-360.864,647.821l-0.603-10.988v-15.344h15.142v48.242h-14.808l-17.219-26.266l0.604,10.988v15.277
		h-15.143v-48.242h14.807L-360.864,647.821z" class="MuCBFLrx_61"></path>
	<path display="inline" d="M-336.746,669.731v-48.242h37.521v11.258h-21.709v8.775h17.287v11.258h-17.287v16.951H-336.746z" class="MuCBFLrx_62"></path>
	<path display="inline" d="M-243.816,645.343c0,16.414-11.055,25.662-25.326,25.662c-15.143,0-25.26-9.381-25.26-25.797
		c0-15.143,10.252-24.99,25.26-24.99C-251.924,620.218-243.816,632.612-243.816,645.343z M-278.59,645.343
		c0,6.164,1.877,13.869,9.447,13.869c6.834,0,9.514-5.896,9.514-13.869c0-6.566-2.68-13.535-9.648-13.334
		C-276.445,632.009-278.59,639.245-278.59,645.343z" class="MuCBFLrx_63"></path>
	<path display="inline" d="M-221.305,652.913v16.818h-15.813v-48.242h22.779c16.082,0,21.375,4.355,21.375,13.736
		c0,5.561-2.48,10.25-8.107,11.791c5.092,1.877,8.174,3.082,8.174,12.799c0,6.297-0.201,8.441,1.676,8.441v1.475h-16.014
		c-0.402-1.072-0.805-4.154-0.805-8.443c0-6.297-1.072-8.375-8.441-8.375H-221.305z M-221.305,642.327h6.23
		c4.891,0,7.504-1.205,7.504-4.557c0-3.416-2.68-5.023-6.365-5.023h-7.369V642.327z" class="MuCBFLrx_64"></path>
	<path display="inline" d="M-185.059,669.731v-48.242h19.096l8.51,30.084l8.508-30.084h19.096v48.242h-14.203v-14.74l0.199-7.504
		l0.805-8.711h-0.135l-8.775,30.955h-10.988l-8.777-30.955h-0.135l0.67,7.102l0.336,7.504v16.35H-185.059z" class="MuCBFLrx_65"></path>
	<path display="inline" d="M-125.094,669.731l17.285-48.242h16.08l17.287,48.242h-15.746l-1.875-6.365h-15.746l-1.809,6.365
		H-125.094z M-99.902,636.028l-4.891,17.287h9.982L-99.902,636.028z" class="MuCBFLrx_66"></path>
	<path display="inline" d="M-38.932,639.915c-0.469-5.025-3.619-7.906-8.576-7.906c-5.561,0-8.912,4.758-8.912,14.07
		c0,6.768,1.475,13.133,9.516,13.133c5.092,0,7.504-3.551,8.105-8.174h15.211c-1.408,12.461-10.318,19.967-23.049,19.967
		c-15.947,0-25.596-9.783-25.596-25.461c0-15.611,10.588-25.326,24.055-25.326c14.74,0,22.98,7.303,24.254,19.697H-38.932z" class="MuCBFLrx_67"></path>
	<path display="inline" d="M-16.488,669.731v-48.242h15.813v48.242H-16.488z" class="MuCBFLrx_68"></path>
	<path display="inline" d="M57.682,645.343c0,16.414-11.055,25.662-25.326,25.662c-15.143,0-25.26-9.381-25.26-25.797
		c0-15.143,10.252-24.99,25.26-24.99C49.574,620.218,57.682,632.612,57.682,645.343z M22.908,645.343
		c0,6.164,1.877,13.869,9.447,13.869c6.834,0,9.514-5.896,9.514-13.869c0-6.566-2.68-13.535-9.648-13.334
		C25.053,632.009,22.908,639.245,22.908,645.343z" class="MuCBFLrx_69"></path>
	<path display="inline" d="M96.943,647.821l-0.604-10.988v-15.344h15.143v48.242H96.676l-17.221-26.266l0.604,10.988v15.277H64.916
		v-48.242h14.809L96.943,647.821z" class="MuCBFLrx_70"></path>
</g>
<g id="decoraciones">
	<g>
		<g>
			<g>
				<path d="M426.717,191.287l-0.656,5.905c-0.033,0.294,0.061,0.589,0.259,0.81c0.197,0.221,0.479,0.347,0.776,0.347h4.164
					c0.295,0,0.578-0.126,0.775-0.347s0.291-0.516,0.259-0.81l-0.657-5.905c1.067-0.775,1.704-2.003,1.704-3.349
					c0-2.298-1.867-4.164-4.164-4.164c-2.296,0-4.164,1.866-4.164,4.164C425.013,189.284,425.65,190.512,426.717,191.287z
					 M429.177,185.856c1.147,0,2.083,0.934,2.083,2.082c0,0.798-0.454,1.513-1.184,1.867c-0.398,0.192-0.631,0.613-0.582,1.051
					l0.602,5.41h-1.838l0.602-5.41c0.049-0.438-0.184-0.858-0.581-1.051c-0.729-0.354-1.183-1.069-1.183-1.867
					C427.096,186.79,428.029,185.856,429.177,185.856z" class="MuCBFLrx_71"></path>
				<path d="M446.875,175.446h-3.123v-4.165c0-8.036-6.539-14.575-14.575-14.575s-14.575,6.539-14.575,14.575v4.165h-3.123
					c-0.574,0-1.041,0.465-1.041,1.04v26.026c0,2.297,1.868,4.164,4.164,4.164h29.15c2.297,0,4.164-1.867,4.164-4.164v-26.026
					C447.916,175.911,447.449,175.446,446.875,175.446z M416.685,171.281c0-6.89,5.604-12.493,12.492-12.493
					s12.493,5.604,12.493,12.493v4.165h-2.082v-4.165c0-5.74-4.671-10.411-10.411-10.411c-5.739,0-10.41,4.671-10.41,10.411v4.165
					h-2.082V171.281z M437.505,171.281v4.165h-16.656v-4.165c0-4.592,3.735-8.329,8.328-8.329S437.505,166.689,437.505,171.281z
					 M445.834,202.513c0,1.148-0.935,2.082-2.082,2.082h-29.15c-1.146,0-2.082-0.934-2.082-2.082v-24.985h33.314V202.513z" class="MuCBFLrx_72"></path>
			</g>
		</g>
	</g>
	<path d="M135.072,91.679h-2.642v-7.426h-2.123v-4.244h-29.617l-3.789-5.306H76.974c-1.598,0-2.898,1.302-2.898,2.899v46.352h0.006
		c-0.005,0.598,0.18,1.182,0.554,1.672c0.52,0.678,1.308,1.066,2.161,1.066h47.489c1.227,0,2.306-0.826,2.599-1.924l10.85-29.748
		v-0.188C137.735,93.006,136.615,91.679,135.072,91.679z M130.308,91.679h-8.488v-1.061c0-0.586-0.476-1.061-1.061-1.061
		s-1.061,0.475-1.061,1.061v1.061h-5.305v-1.061c0-0.586-0.475-1.061-1.061-1.061c-0.586,0-1.061,0.475-1.061,1.061v1.061h-5.305
		v-1.061c0-0.586-0.475-1.061-1.061-1.061c-0.585,0-1.061,0.475-1.061,1.061v1.061H99.54v-1.061c0-0.586-0.476-1.061-1.061-1.061
		s-1.061,0.475-1.061,1.061v1.061h-5.306v-1.061c0-0.586-0.475-1.061-1.061-1.061c-0.586,0-1.062,0.475-1.062,1.061v1.061h-2.407
		c-0.152,0-0.301,0.014-0.448,0.038c-0.529,0.089-1.008,0.335-1.389,0.678v-6.021h44.562V91.679z M79.381,108.966V92.741h6.042
		c-0.199,0.257-0.355,0.547-0.439,0.861l-0.336,0.924L79.381,108.966z M83.625,90.618h-2.744l0.622-0.621l2.123-2.123V90.618z
		 M128.186,82.131v2.122h-43.94l-2.744,2.743v-4.865h20.706H128.186z M76.197,77.603c0-0.43,0.35-0.777,0.777-0.777H95.81
		l2.274,3.184H79.381v9.109l-2.122,2.121v23.434l-1.062,2.894V77.603z M124.864,124.128c-0.07,0.26-0.309,0.442-0.578,0.442H76.797
		c-0.258,0-0.408-0.147-0.475-0.235c-0.067-0.087-0.17-0.272-0.13-0.434l1.067-2.926v0.001l9.719-26.646l0.027-0.087
		c0.07-0.261,0.309-0.442,0.579-0.442h44.847h2.642c0.403,0,0.506,0.579,0.532,0.868L124.864,124.128z" class="MuCBFLrx_73"></path>
	<path fill="none" stroke="#000000" stroke-miterlimit="10" d="M190.667,100.883A5,5 0,1,1 200.667,100.883A5,5 0,1,1 190.667,100.883" class="MuCBFLrx_74"></path>
	<g>
		<g>
			<path fill="none" stroke="#000000" stroke-miterlimit="10" d="M145,101.716L182,101.716" class="MuCBFLrx_75"></path>
			<g>
				<path d="M176.263,104.896L175.921,103.956L182.077,101.716L175.921,99.476L176.263,98.536L185,101.716Z" class="MuCBFLrx_76"></path>
			</g>
		</g>
	</g>
	<g>
		<g>
			<path d="M654.572,232.199l-1.834-1.253c0.103-0.768,0.135-1.536,0.089-2.302l1.931-1.1c0.821-0.47,1.184-1.457,0.853-2.343
				l-0.95-2.58c-0.178-0.483-0.533-0.869-1-1.087c-0.369-0.17-0.769-0.218-1.163-0.141l-2.188,0.412
				c-0.485-0.629-1.024-1.217-1.62-1.744l0.574-2.12c0.246-0.912-0.197-1.863-1.056-2.262l-2.493-1.148
				c-0.861-0.396-1.873-0.119-2.407,0.664l-1.271,1.857c-0.759-0.1-1.528-0.123-2.298-0.076l-1.088-1.928
				c-0.198-0.348-0.5-0.626-0.866-0.793c-0.469-0.218-0.999-0.238-1.478-0.058l-2.586,0.948c-0.884,0.324-1.406,1.241-1.23,2.169
				l0.416,2.21c-0.609,0.472-1.17,0.997-1.681,1.575l-2.118-0.574c-0.913-0.251-1.867,0.192-2.261,1.055l-1.149,2.491
				c-0.397,0.859-0.118,1.872,0.664,2.405l1.856,1.271c-0.1,0.76-0.125,1.531-0.077,2.302l-1.916,1.085
				c-0.82,0.469-1.181,1.459-0.851,2.342l0.95,2.58c0.18,0.484,0.534,0.872,0.998,1.087c0.369,0.169,0.771,0.217,1.166,0.142
				l2.209-0.42c0.453,0.594,0.965,1.137,1.518,1.634l-0.586,2.146c-0.248,0.91,0.197,1.865,1.055,2.26l2.498,1.152
				c0.861,0.397,1.875,0.116,2.406-0.664l1.254-1.834c0.766,0.103,1.532,0.133,2.301,0.091l1.1,1.928
				c0.197,0.353,0.502,0.626,0.868,0.799l0,0c0.47,0.216,0.993,0.233,1.476,0.055l2.58-0.951c0.881-0.327,1.404-1.239,1.229-2.169
				l-0.414-2.19c0.613-0.471,1.184-0.989,1.69-1.56l2.143,0.585c0.913,0.249,1.867-0.196,2.262-1.054l1.15-2.493
				C655.634,233.748,655.354,232.733,654.572,232.199z M652.488,236.362c-0.035,0.078-0.12,0.117-0.201,0.092l-2.679-0.731
				c-0.339-0.093-0.692,0.025-0.91,0.289c-0.626,0.77-1.354,1.444-2.174,2.009c-0.286,0.197-0.431,0.539-0.366,0.886l0.511,2.737
				c0.017,0.078-0.031,0.163-0.11,0.191l-2.58,0.952c-0.061,0.021-0.105,0.007-0.135-0.005c-0.035-0.018-0.058-0.042-0.076-0.071
				l-1.377-2.409c-0.17-0.304-0.508-0.473-0.855-0.439c-0.988,0.105-1.98,0.063-2.957-0.111c-0.344-0.068-0.691,0.08-0.881,0.367
				l-1.57,2.295c-0.047,0.069-0.133,0.095-0.213,0.06l-2.492-1.152c-0.078-0.035-0.117-0.118-0.094-0.2l0.73-2.678
				c0.095-0.34-0.024-0.695-0.289-0.91c-0.746-0.613-1.408-1.325-1.969-2.119c-0.092-0.126-0.219-0.229-0.354-0.29
				c-0.161-0.074-0.346-0.104-0.531-0.065l-2.754,0.519c-0.038,0.006-0.072,0.004-0.103-0.012c-0.021-0.009-0.069-0.038-0.088-0.099
				l-0.953-2.58c-0.026-0.077,0.003-0.162,0.075-0.207l2.399-1.374c0.306-0.175,0.473-0.513,0.439-0.858
				c-0.106-0.982-0.077-1.982,0.101-2.957c0.055-0.34-0.087-0.685-0.369-0.881l-2.309-1.585c-0.07-0.044-0.096-0.134-0.059-0.211
				l1.148-2.493c0.035-0.079,0.119-0.118,0.201-0.095l2.66,0.724c0.338,0.091,0.701-0.02,0.92-0.295
				c0.623-0.768,1.347-1.452,2.158-2.021c0.287-0.198,0.427-0.543,0.359-0.882l-0.518-2.755c-0.015-0.078,0.032-0.165,0.111-0.191
				l2.58-0.951c0.059-0.022,0.104-0.009,0.133,0.006c0.035,0.015,0.059,0.041,0.074,0.068l1.373,2.4
				c0.177,0.303,0.513,0.475,0.858,0.438c0.983-0.105,1.981-0.075,2.956,0.101c0.342,0.057,0.687-0.085,0.884-0.369l1.581-2.309
				c0.048-0.071,0.138-0.094,0.213-0.059l2.492,1.151c0.078,0.035,0.12,0.117,0.097,0.199l-0.727,2.661
				c-0.089,0.337,0.022,0.696,0.296,0.919c0.79,0.638,1.484,1.381,2.061,2.215c0.198,0.283,0.541,0.428,0.885,0.363l2.723-0.525
				c0.037-0.003,0.072-0.001,0.102,0.013c0.025,0.012,0.07,0.039,0.09,0.099l0.951,2.58c0.031,0.075-0.002,0.163-0.072,0.21
				l-2.412,1.38c-0.301,0.168-0.474,0.508-0.438,0.855c0.106,0.989,0.063,1.981-0.113,2.956c-0.065,0.343,0.085,0.691,0.369,0.88
				l2.292,1.57c0.072,0.046,0.098,0.137,0.063,0.212l-1.15,2.495L652.488,236.362z" class="MuCBFLrx_77"></path>
			<path d="M643.299,223.188c-3.373-1.558-7.381-0.08-8.937,3.295c-1.559,3.377-0.082,7.384,3.296,8.942
				c3.375,1.556,7.381,0.078,8.939-3.296C648.154,228.752,646.678,224.745,643.299,223.188z M638.395,233.824
				c-2.493-1.15-3.583-4.11-2.434-6.604c1.149-2.491,4.109-3.582,6.602-2.433c2.496,1.149,3.586,4.109,2.436,6.603
				C643.849,233.881,640.889,234.976,638.395,233.824z" class="MuCBFLrx_78"></path>
		</g>
	</g>
	<g>
		<g>
			<path fill="none" stroke="#000000" stroke-miterlimit="10" d="M619.5,283.216c0,0-96-11.5-134.5-35
				c-30.648-18.707-48.741-35.019-54.489-40.521" class="MuCBFLrx_79"></path>
			<g>
				<path d="M437.054,209.361L436.66,210.281L430.635,207.713L433.6,213.554L432.709,214.006L428.5,205.716Z" class="MuCBFLrx_80"></path>
			</g>
		</g>
	</g>
	<g>
		<g>
			<path fill="none" stroke="#000000" stroke-miterlimit="10" d="M414.602,175.446c0,0-3.602-12.73-19.102-12.73
				s-23.05,9.894-25.5,17c-4.656,13.503-16.25,59.093-23.072,72.566" class="MuCBFLrx_81"></path>
			<g>
				<path d="M346.521,245.475L347.515,245.585L346.795,252.096L351.532,247.57L352.223,248.293L345.5,254.716Z" class="MuCBFLrx_82"></path>
			</g>
		</g>
	</g>
	<g>
		<g>
			<path fill="none" stroke="#000000" stroke-linecap="round" stroke-miterlimit="10" d="M315.5,282.216
				c0,0-0.336-0.065-0.977-0.194" class="MuCBFLrx_83"></path>
			<path fill="none" stroke="#000000" stroke-linecap="round" stroke-miterlimit="10" stroke-dasharray="2.0029,6.0087" d="
				M308.648,280.779c-20.529-4.487-82.455-19.393-120.398-43.313c-37.685-23.758-55.403-78.22-60.577-97.134" class="MuCBFLrx_84"></path>
			<path fill="none" stroke="#000000" stroke-linecap="round" stroke-miterlimit="10" d="M126.9,137.424
				c-0.088-0.344-0.17-0.666-0.245-0.965" class="MuCBFLrx_85"></path>
			<g>
				<path d="M131.284,141.367L130.46,141.935L126.738,136.544L126.125,143.066L125.129,142.973L126,133.716Z" class="MuCBFLrx_86"></path>
			</g>
		</g>
	</g>
</g>
<g id="informacion">
	<path fill="#13BBE8" d="M174.073,286.393v-49.65h16.275v49.65H174.073z" class="MuCBFLrx_87"></path>
	<path fill="none" stroke="#000000" stroke-linecap="round" stroke-miterlimit="10" d="M189.626,237.461l0.002,2.425v45.788h-14.996
		" class="MuCBFLrx_88"></path>
	<path fill="#13BBE8" d="M576.553,286.559v-49.65h16.275v49.65H576.553z" class="MuCBFLrx_89"></path>
	<path fill="none" stroke="#000000" stroke-linecap="round" stroke-miterlimit="10" d="M592.105,237.627l0.002,2.425v45.788h-14.996
		" class="MuCBFLrx_90"></path>
	<path fill="#13BBE8" d="M371.994,268.749v17.309H355.72v-49.65h23.446c16.551,0,21.998,4.481,21.998,14.137
		c0,5.723-2.552,10.551-8.345,12.137c5.241,1.931,8.413,3.172,8.413,13.171c0,6.482-0.207,8.688,1.725,8.688v1.518h-16.482
		c-0.412-1.104-0.826-4.275-0.826-8.688c0-6.483-1.104-8.62-8.689-8.62H371.994z M371.994,257.853h6.414
		c5.033,0,7.723-1.24,7.723-4.688c0-3.517-2.76-5.172-6.552-5.172h-7.585V257.853z" class="MuCBFLrx_91"></path>
	<path fill="none" stroke="#000000" stroke-miterlimit="10" d="M378.868,237.126c16.551,0,21.638,3.296,21.638,12.951
		c0,5.724-2.49,10.76-8.282,12.346c5.241,1.93,8.289,2.711,8.289,12.711c0,6.481-0.206,8.688,1.725,8.688v1.517l-15.267-0.021
		c-0.033-0.091-0.101-0.78-0.135-0.898 M371.236,247.967l0.038,10.604h6.412" class="MuCBFLrx_92"></path>
	<g>
		<path fill="#13BBE8" stroke="#000000" stroke-miterlimit="10" d="M626.592,253.979c-4.422,0-8.013,3.591-8.013,8.013
			s3.591,8.014,8.013,8.014s8.015-3.592,8.015-8.014S631.014,253.979,626.592,253.979z" class="MuCBFLrx_93"></path>
		<path fill="#13BBE8" stroke="#000000" stroke-miterlimit="10" d="M648.979,259.514l-4.557-0.746
			c-0.545-0.084-1.069-0.494-1.204-1.039c-0.4-1.545-1.044-3.026-1.863-4.401c-0.285-0.484-0.279-1.093,0.045-1.543l2.583-3.645
			c0.074-0.115,0.06-0.264-0.037-0.357l-3.131-3.131c-0.074-0.072-0.156-0.084-0.198-0.084c-0.055,0-0.106,0.02-0.161,0.053
			l-3.622,2.604c-0.462,0.325-1.063,0.347-1.545,0.065c-1.407-0.832-2.919-1.451-4.505-1.85c-0.547-0.138-0.955-0.59-1.05-1.146
			l-0.735-4.363c-0.02-0.137-0.137-0.215-0.273-0.215h-4.422c-0.137,0-0.253,0.078-0.272,0.215l-0.758,4.436
			c-0.094,0.545-0.503,0.982-1.038,1.13c-1.544,0.399-3.027,1.026-4.39,1.846c-0.483,0.283-1.094,0.263-1.557-0.063l-3.624-2.584
			c-0.042-0.031-0.094-0.053-0.155-0.053c-0.054,0-0.126,0.012-0.201,0.085l-3.13,3.129c-0.092,0.095-0.105,0.253-0.03,0.357
			l2.616,3.675c0.324,0.452,0.354,1.05,0.073,1.535c-0.809,1.375-1.41,2.866-1.796,4.41c-0.138,0.546-0.588,0.956-1.146,1.05
			l-4.272,0.735c-0.137,0.021-0.122,0.137-0.122,0.273v4.42c0,0.139-0.015,0.253,0.122,0.275l4.388,0.755
			c0.547,0.095,0.962,0.505,1.109,1.041c0.398,1.543,1.014,3.024,1.836,4.391c0.281,0.482,0.256,1.092-0.071,1.555l-2.587,3.622
			c-0.073,0.116-0.063,0.264,0.029,0.357l3.131,3.13c0.074,0.073,0.156,0.084,0.199,0.084c0.05,0,0.104-0.021,0.155-0.053
			l3.679-2.615c0.239-0.179,0.534-0.261,0.816-0.261c0.244,0,0.496,0.062,0.717,0.188c1.354,0.777,2.803,1.376,4.304,1.765
			c0.537,0.135,0.945,0.578,1.041,1.134l0.733,4.108c0.022,0.137,0.138-0.071,0.273-0.071h4.422c0.138,0,0.254,0.208,0.273,0.071
			l0.747-4.259c0.085-0.547,0.493-0.924,1.039-1.06c1.545-0.398,3.024-0.969,4.399-1.79c0.482-0.283,1.093-0.242,1.546,0.082
			l3.642,2.604c0.044,0.032,0.098,0.058,0.159,0.058c0.055,0,0.128-0.011,0.202-0.085l3.128-3.126
			c0.096-0.094,0.105-0.251,0.031-0.357l-2.594-3.653c-0.327-0.463-0.347-1.061-0.063-1.544c0.82-1.377,1.428-2.856,1.826-4.401
			c0.139-0.536,0.581-0.945,1.135-1.041l4.412-0.979c0.137-0.022,0.231-0.52,0.231-0.52h0.589v-3.93
			C649.5,259.65,649.117,259.535,648.979,259.514z M626.592,272.841c-5.984,0-10.849-4.862-10.849-10.85
			c0-5.986,4.864-10.85,10.849-10.85c5.987,0,10.85,4.863,10.85,10.85C637.441,267.979,632.579,272.841,626.592,272.841z" class="MuCBFLrx_94"></path>
	</g>
	<g>
		<path fill="#13BBE8" stroke="#000000" stroke-miterlimit="10" d="M324.592,253.979c-4.422,0-8.013,3.591-8.013,8.013
			s3.591,8.014,8.013,8.014s8.015-3.592,8.015-8.014S329.014,253.979,324.592,253.979z" class="MuCBFLrx_95"></path>
		<path fill="#13BBE8" stroke="#000000" stroke-miterlimit="10" d="M346.979,259.514l-4.557-0.746
			c-0.545-0.084-1.069-0.494-1.204-1.039c-0.4-1.545-1.044-3.026-1.863-4.401c-0.285-0.484-0.279-1.093,0.045-1.543l2.583-3.645
			c0.074-0.115,0.06-0.264-0.037-0.357l-3.131-3.131c-0.074-0.072-0.156-0.084-0.198-0.084c-0.055,0-0.106,0.02-0.161,0.053
			l-3.622,2.604c-0.462,0.325-1.063,0.347-1.545,0.065c-1.407-0.832-2.919-1.451-4.505-1.85c-0.547-0.138-0.955-0.59-1.05-1.146
			l-0.735-4.363c-0.02-0.137-0.137-0.215-0.273-0.215h-4.422c-0.137,0-0.253,0.078-0.272,0.215l-0.758,4.436
			c-0.094,0.545-0.503,0.982-1.038,1.13c-1.544,0.399-3.027,1.026-4.39,1.846c-0.483,0.283-1.094,0.263-1.557-0.063l-3.624-2.584
			c-0.042-0.031-0.094-0.053-0.155-0.053c-0.054,0-0.126,0.012-0.201,0.085l-3.13,3.129c-0.092,0.095-0.105,0.253-0.03,0.357
			l2.616,3.675c0.324,0.452,0.354,1.05,0.073,1.535c-0.809,1.375-1.41,2.866-1.796,4.41c-0.138,0.546-0.588,0.956-1.146,1.05
			l-4.272,0.735c-0.137,0.021-0.122,0.137-0.122,0.273v4.42c0,0.139-0.015,0.253,0.122,0.275l4.388,0.755
			c0.547,0.095,0.962,0.505,1.109,1.041c0.398,1.543,1.014,3.024,1.836,4.391c0.281,0.482,0.256,1.092-0.071,1.555l-2.587,3.622
			c-0.073,0.116-0.063,0.264,0.029,0.357l3.131,3.13c0.074,0.073,0.156,0.084,0.199,0.084c0.05,0,0.104-0.021,0.155-0.053
			l3.679-2.615c0.239-0.179,0.534-0.261,0.816-0.261c0.244,0,0.496,0.062,0.717,0.188c1.354,0.777,2.803,1.376,4.304,1.765
			c0.537,0.135,0.945,0.578,1.041,1.134l0.733,4.108c0.022,0.137,0.138-0.071,0.273-0.071h4.422c0.138,0,0.254,0.208,0.273,0.071
			l0.747-4.259c0.085-0.547,0.493-0.924,1.039-1.06c1.545-0.398,3.024-0.969,4.399-1.79c0.482-0.283,1.093-0.242,1.546,0.082
			l3.642,2.604c0.044,0.032,0.098,0.058,0.159,0.058c0.055,0,0.128-0.011,0.202-0.085l3.128-3.126
			c0.096-0.094,0.105-0.251,0.031-0.357l-2.594-3.653c-0.327-0.463-0.347-1.061-0.063-1.544c0.82-1.377,1.428-2.856,1.826-4.401
			c0.139-0.536,0.581-0.945,1.135-1.041l4.412-0.979c0.137-0.022,0.231-0.52,0.231-0.52h0.589v-3.93
			C347.5,259.65,347.117,259.535,346.979,259.514z M324.592,272.841c-5.984,0-10.849-4.862-10.849-10.85
			c0-5.986,4.864-10.85,10.849-10.85c5.987,0,10.85,4.863,10.85,10.85C335.441,267.979,330.579,272.841,324.592,272.841z" class="MuCBFLrx_96"></path>
	</g>
	<path fill="#13BBE8" d="M468.184,286.516l17.793-49.65h16.549l17.793,49.65h-16.207l-1.93-6.551h-16.205l-1.863,6.551H468.184z
		 M494.113,251.829l-5.035,17.791h10.275L494.113,251.829z" class="MuCBFLrx_97"></path>
	<path fill="none" stroke="#000000" stroke-miterlimit="10" d="M504.207,286.426l-2.746-7.18l-15.973,0.042l-2.021,6.958
		 M493.523,251.186l-5.027,17.732l10.139-0.016L493.523,251.186z" class="MuCBFLrx_98"></path>
	<path fill="#13BBE8" d="M555.328,256.158c-0.482-5.172-3.723-8.139-8.826-8.139c-5.725,0-9.172,4.896-9.172,14.482
		c0,6.964,1.518,13.515,9.791,13.515c5.242,0,7.725-3.654,8.344-8.411h15.654c-1.447,12.825-10.619,20.549-23.723,20.549
		c-16.41,0-26.344-10.068-26.344-26.205c0-16.067,10.898-26.065,24.758-26.065c15.172,0,23.652,7.517,24.963,20.274H555.328z" class="MuCBFLrx_99"></path>
	<path fill="none" stroke="#000000" stroke-miterlimit="10" d="M570.842,255.541l-16.232-0.102
		c-0.482-5.172-3.264-7.979-8.367-7.979c-5.725,0-9.398,5.258-9.398,14.843c0,6.966,1.303,13.528,9.578,13.528
		c5.24,0,8.059-4.103,8.678-8.859l15.98-0.061" class="MuCBFLrx_100"></path>
	<path fill="#13BBE8" d="M231.434,263.969l-0.62-11.311v-15.791h15.584v49.651h-15.239l-17.724-27.032l0.62,11.309v15.724h-15.583
		v-49.651h15.239L231.434,263.969z" class="MuCBFLrx_101"></path>
	<path fill="#13BBE8" d="M256.253,286.519v-49.651h38.618v11.586h-22.344v9.032h17.792v11.587h-17.792v17.446H256.253z" class="MuCBFLrx_102"></path>
	<path fill="none" stroke="#000000" stroke-miterlimit="10" d="M255.535,285.8v-49.65h38.618v11.585h-22.344v9.033h17.793v11.586
		h-17.793V285.8H255.535z" class="MuCBFLrx_103"></path>
	<path fill="none" stroke="#000000" stroke-linecap="round" stroke-miterlimit="10" d="M214.13,270.795L214.13,286.519L
		198.544,286.519L198.544,236.867L213.785,236.867" class="MuCBFLrx_104"></path>
	<path fill="#13BBE8" d="M691.432,264.976l-0.62-11.311v-15.791h15.585v49.651h-15.24l-17.724-27.032l0.62,11.309v15.724H658.47
		v-49.651h15.239L691.432,264.976z" class="MuCBFLrx_105"></path>
	<path fill="none" stroke="#000000" stroke-linecap="round" stroke-miterlimit="10" d="M674.129,271.802L674.129,287.525L
		658.543,287.525L658.543,237.874L673.783,237.874" class="MuCBFLrx_106"></path>
	<path fill="#13BBE8" d="M407.008,286.679v-49.651h19.654l8.76,30.962l8.756-30.962h19.654v49.651h-14.621v-15.171l0.207-7.725
		l0.828-8.964h-0.137l-9.035,31.859h-11.309l-9.035-31.859h-0.139l0.691,7.309l0.346,7.725v16.826H407.008z" class="MuCBFLrx_107"></path>
	<path fill="none" stroke="#000000" stroke-miterlimit="10" d="M448.584,286.738l-0.092-15.949l0.209-7.724l0.826-8.965h-0.137
		l-9.008,32.398 M429.85,286.559l-9.838-32.458h-0.137l0.689,7.31l0.346,7.724v16.826h-13.867" class="MuCBFLrx_108"></path>
	<g>
		<g>
			<path fill="none" stroke="#000000" stroke-miterlimit="10" d="M348.5,110.716c-2.598,1.371,7.141-9.467,15-23.5
				c7-12.5,30.167-28.666,59.167-34.666c27.632-5.717,73.46-1.243,97,20.666c33.521,31.199,25.124,20.954,52,69.666
				c16.243,29.441,25.083,77.667,29.833,89.834c2.706,6.931,4.112,16.074,4.684,20.612" class="MuCBFLrx_109"></path>
			<g>
				<path d="M602.189,247.895L603.076,247.431L606.112,253.235L607.518,246.837L608.494,247.052L606.5,256.133Z" class="MuCBFLrx_110"></path>
			</g>
		</g>
	</g>
</g>
<g id="seguridad">
	<path fill="#13BBE8" d="M237.17,90.657c-0.268-1.674-1.139-2.68-2.278-3.283c-1.139-0.602-2.546-0.871-4.087-0.871
		c-3.484,0-5.025,1.006-5.025,2.748c0,7.236,27.739,2.746,27.739,20.301c0,11.189-9.313,16.617-22.58,16.617
		c-12.73,0-21.039-7.438-21.374-16.148h15.143c0.335,1.742,1.273,3.016,2.613,3.82c1.273,0.803,2.948,1.205,4.489,1.205
		c3.953,0,6.566-1.273,6.566-3.551c0-7.303-27.738-2.277-27.738-20.703c0-10.252,8.844-15.412,20.904-15.412
		c13.4,0,19.498,6.836,20.636,15.277H237.17z" class="MuCBFLrx_111"></path>
	<path fill="none" stroke="#000000" stroke-miterlimit="10" d="M236.092,113.866c1.241-0.604,1.952-1.518,1.952-2.705
		c0-7.303-27.738-2.277-27.738-20.703c0-8.707,6.38-13.74,15.693-15.059" class="MuCBFLrx_112"></path>
	<path fill="#13BBE8" d="M261.098,125.569v-49.65h40.479v11.586h-24.204v7.102h20.48v11.586h-20.48v7.793h25.17v11.584H261.098z" class="MuCBFLrx_113"></path>
	<path fill="none" stroke="#000000" stroke-linejoin="round" stroke-miterlimit="10" d="M300.783,75.919l0.074,10.867h-24.204v7.104
		h20.48v11.584h-20.48v7.793l25.656,0.002" class="MuCBFLrx_114"></path>
	<path fill="#13BBE8" d="M364.233,75.991h15.813v28.877c0,4.758,0.938,8.844,7.438,8.844c5.695,0,7.369-3.617,7.369-8.844V75.991
		h15.812v27.27c0,15.477-7.168,22.244-23.181,22.244c-14.941,0-23.25-5.695-23.25-22.311V75.991z" class="MuCBFLrx_115"></path>
	<path fill="#13BBE8" d="M498.205,124.231V75.99h21.173c15.544,0,25.192,7.236,25.192,23.115c0,18.158-10.117,25.126-25.595,25.126
		H498.205z M514.018,112.976h3.351c7.369,0,11.39-3.887,11.39-12.999c0-10.05-3.283-12.729-11.726-12.729h-3.015V112.976z" class="MuCBFLrx_116"></path>
	<path fill="none" stroke="#000000" d="M380.212,88.065v16.971c0,4.756,0.938,8.844,7.437,8.844c5.695,0,7.371-3.619,7.371-8.844
		V90.231 M410.27,110.22c-1.971,10.686-9.18,15.453-22.621,15.453c-12.449,0-20.294-3.955-22.564-14.887" class="MuCBFLrx_117"></path>
	<path fill="none" stroke="#000000" d="M507.343,124.398h-8.971V76.157h11.303 M509.675,76.157h6.334 M514.185,96.566v16.576h3.351
		c5.261,0,8.814-1.98,10.418-6.429" class="MuCBFLrx_118"></path>
	<path fill="#13BBE8" d="M602.211,124.247v-48.24h21.172c15.545,0,25.193,7.236,25.193,23.115c0,18.158-10.117,25.125-25.596,25.125
		H602.211z M618.023,112.991h3.35c7.369,0,11.391-3.887,11.391-12.998c0-10.051-3.283-12.73-11.727-12.73h-3.014V112.991z" class="MuCBFLrx_119"></path>
	<path fill="none" stroke="#000000" d="M611.348,124.415h-8.971V76.173h11.303 M613.68,76.173h6.334 M618.189,96.583v16.576h3.352
		c5.26,0,8.814-1.98,10.418-6.43" class="MuCBFLrx_120"></path>
	<path fill="#13BBE8" d="M472.891,125.073v-49.65h16.275v49.65H472.891z" class="MuCBFLrx_121"></path>
	<path fill="none" stroke="#000000" stroke-linecap="round" stroke-miterlimit="10" d="M488.443,76.142l0.002,2.425v45.788h-14.996" class="MuCBFLrx_122"></path>
	<path fill="#13BBE8" d="M435.657,107.768v17.309h-16.274v-49.65h23.446c16.551,0,21.998,4.481,21.998,14.137
		c0,5.723-2.552,10.551-8.345,12.137c5.241,1.931,8.413,3.172,8.413,13.171c0,6.482-0.207,8.688,1.725,8.688v1.518h-16.482
		c-0.412-1.104-0.826-4.275-0.826-8.688c0-6.483-1.104-8.62-8.689-8.62H435.657z M435.657,96.871h6.414
		c5.033,0,7.723-1.24,7.723-4.688c0-3.517-2.76-5.172-6.552-5.172h-7.585V96.871z" class="MuCBFLrx_123"></path>
	<path fill="none" stroke="#000000" stroke-miterlimit="10" d="M442.531,76.145c16.551,0,21.638,3.296,21.638,12.951
		c0,5.724-2.49,10.76-8.282,12.346c5.241,1.93,8.289,2.711,8.289,12.711c0,6.481-0.206,8.688,1.725,8.688v1.517l-15.267-0.021
		c-0.033-0.091-0.101-0.78-0.135-0.898 M434.899,86.985l0.038,10.604h6.412" class="MuCBFLrx_124"></path>
	<path fill="#13BBE8" d="M545.392,125.058l17.793-49.65h16.55l17.792,49.65H581.32l-1.93-6.551h-16.206l-1.863,6.551H545.392z
		 M571.321,90.371l-5.034,17.791h10.275L571.321,90.371z" class="MuCBFLrx_125"></path>
	<path fill="none" stroke="#000000" stroke-miterlimit="10" d="M581.416,124.968l-2.747-7.18l-15.973,0.042l-2.021,6.958
		 M570.731,89.728l-5.027,17.732l10.139-0.016L570.731,89.728z" class="MuCBFLrx_126"></path>
	<path fill="#13BBE8" d="M356.239,125.71h-10.481l-0.621-4.896c-2.689,3.172-7.171,6.068-14.964,6.068
		c-12.688,0-24.067-8.207-24.067-25.516c0-15.861,9.93-26.756,25.998-26.756c11.93,0,21.516,6.206,23.516,18.412h-15.447
		c-1.173-4.068-4.138-6.275-8.344-6.275c-6.413,0-9.448,5.793-9.448,14.551c0,7.033,2.207,13.447,10.413,13.447
		c3.31,0,7.517-2.275,8.344-5.725h-7.172V98.264h22.274V125.71z" class="MuCBFLrx_127"></path>
	<path fill="none" stroke="#000000" stroke-miterlimit="10" d="M333.245,97.546 M340.417,108.304 M339.452,92.305 M344.502,120.773
		l0.225-0.588c-2.689,3.172-7.482,6.056-15.274,5.979c-11.87-0.117-24.067-8.206-24.067-25.516c0-12.029,8.908-26.163,24.976-26.163
		c8.009,0,24.869,3.497,25.109,18.581 M344.502,120.773 M345.038,124.992" class="MuCBFLrx_128"></path>
</g>
<g id="DELA">
	<path fill="#13BBE8" d="M321.095,206.066v-49.65h40.479v11.585H337.37v7.103h20.48v11.585h-20.48v7.793h25.17v11.585H321.095z" class="MuCBFLrx_129"></path>
	<path fill="none" stroke="#000000" stroke-linejoin="round" stroke-miterlimit="10" d="M360.78,156.416l0.074,10.867H336.65v7.103
		h20.48v11.585h-20.48v7.793l25.656,0.002" class="MuCBFLrx_130"></path>
	<path fill="#13BBE8" d="M541.892,206.058l17.793-49.65h16.55l17.792,49.65H577.82l-1.93-6.551h-16.206l-1.863,6.551H541.892z
		 M567.821,171.371l-5.034,17.791h10.275L567.821,171.371z" class="MuCBFLrx_131"></path>
	<path fill="none" stroke="#000000" stroke-miterlimit="10" d="M577.916,205.968l-2.747-7.18l-15.973,0.042l-2.021,6.958
		 M567.231,170.728l-5.027,17.732l10.139-0.016L567.231,170.728z" class="MuCBFLrx_132"></path>
	<path fill="#13BBE8" d="M267.71,205.247v-48.24h21.173c15.544,0,25.192,7.236,25.192,23.115c0,18.158-10.117,25.125-25.595,25.125
		H267.71z M283.523,193.991h3.351c7.369,0,11.39-3.887,11.39-12.998c0-10.051-3.283-12.73-11.726-12.73h-3.015V193.991z" class="MuCBFLrx_133"></path>
	<path fill="none" stroke="#000000" d="M276.848,205.415h-8.971v-48.242h11.303 M279.18,157.173h6.334 M283.69,177.583v16.576h3.351
		c5.261,0,8.814-1.98,10.418-6.43" class="MuCBFLrx_134"></path>
	<path fill="#13BBE8" d="M502.629,205.203v-48.241h15.813v36.984h21.707v11.257H502.629z" class="MuCBFLrx_135"></path>
	<path fill="none" stroke="#000000" stroke-miterlimit="10" d="M536,205.203h-33.371v-48.241h7.539" class="MuCBFLrx_136"></path>
</g>
<style data-made-with="vivus-instant">.MuCBFLrx_0{stroke-dasharray:272 274;stroke-dashoffset:273;animation:MuCBFLrx_draw 39ms ease-out 0ms forwards;}.MuCBFLrx_1{stroke-dasharray:129 131;stroke-dashoffset:130;animation:MuCBFLrx_draw 18ms ease-out 39ms forwards;}.MuCBFLrx_2{stroke-dasharray:172 174;stroke-dashoffset:173;animation:MuCBFLrx_draw 24ms ease-out 57ms forwards;}.MuCBFLrx_3{stroke-dasharray:90 92;stroke-dashoffset:91;animation:MuCBFLrx_draw 13ms ease-out 82ms forwards;}.MuCBFLrx_4{stroke-dasharray:0 2;stroke-dashoffset:1;animation:MuCBFLrx_draw 0ms ease-out 95ms forwards;}.MuCBFLrx_5{stroke-dasharray:230 232;stroke-dashoffset:231;animation:MuCBFLrx_draw 33ms ease-out 95ms forwards;}.MuCBFLrx_6{stroke-dasharray:74 76;stroke-dashoffset:75;animation:MuCBFLrx_draw 10ms ease-out 128ms forwards;}.MuCBFLrx_7{stroke-dasharray:51 53;stroke-dashoffset:52;animation:MuCBFLrx_draw 7ms ease-out 139ms forwards;}.MuCBFLrx_8{stroke-dasharray:246 248;stroke-dashoffset:247;animation:MuCBFLrx_draw 35ms ease-out 146ms forwards;}.MuCBFLrx_9{stroke-dasharray:32 34;stroke-dashoffset:33;animation:MuCBFLrx_draw 4ms ease-out 182ms forwards;}.MuCBFLrx_10{stroke-dasharray:37 39;stroke-dashoffset:38;animation:MuCBFLrx_draw 5ms ease-out 186ms forwards;}.MuCBFLrx_11{stroke-dasharray:34 36;stroke-dashoffset:35;animation:MuCBFLrx_draw 5ms ease-out 192ms forwards;}.MuCBFLrx_12{stroke-dasharray:250 252;stroke-dashoffset:251;animation:MuCBFLrx_draw 35ms ease-out 197ms forwards;}.MuCBFLrx_13{stroke-dasharray:98 100;stroke-dashoffset:99;animation:MuCBFLrx_draw 14ms ease-out 233ms forwards;}.MuCBFLrx_14{stroke-dasharray:245 247;stroke-dashoffset:246;animation:MuCBFLrx_draw 35ms ease-out 247ms forwards;}.MuCBFLrx_15{stroke-dasharray:243 245;stroke-dashoffset:244;animation:MuCBFLrx_draw 34ms ease-out 282ms forwards;}.MuCBFLrx_16{stroke-dasharray:119 121;stroke-dashoffset:120;animation:MuCBFLrx_draw 17ms ease-out 317ms forwards;}.MuCBFLrx_17{stroke-dasharray:108 110;stroke-dashoffset:109;animation:MuCBFLrx_draw 15ms ease-out 334ms forwards;}.MuCBFLrx_18{stroke-dasharray:15 17;stroke-dashoffset:16;animation:MuCBFLrx_draw 2ms ease-out 350ms forwards;}.MuCBFLrx_19{stroke-dasharray:17 19;stroke-dashoffset:18;animation:MuCBFLrx_draw 2ms ease-out 352ms forwards;}.MuCBFLrx_20{stroke-dasharray:17 19;stroke-dashoffset:18;animation:MuCBFLrx_draw 2ms ease-out 355ms forwards;}.MuCBFLrx_21{stroke-dasharray:615 617;stroke-dashoffset:616;animation:MuCBFLrx_draw 88ms ease-out 357ms forwards;}.MuCBFLrx_22{stroke-dasharray:8 10;stroke-dashoffset:9;animation:MuCBFLrx_draw 1ms ease-out 445ms forwards;}.MuCBFLrx_23{stroke-dasharray:8 10;stroke-dashoffset:9;animation:MuCBFLrx_draw 1ms ease-out 447ms forwards;}.MuCBFLrx_24{stroke-dasharray:8 10;stroke-dashoffset:9;animation:MuCBFLrx_draw 1ms ease-out 448ms forwards;}.MuCBFLrx_25{stroke-dasharray:191 193;stroke-dashoffset:192;animation:MuCBFLrx_draw 27ms ease-out 449ms forwards;}.MuCBFLrx_26{stroke-dasharray:62 64;stroke-dashoffset:63;animation:MuCBFLrx_draw 9ms ease-out 477ms forwards;}.MuCBFLrx_27{stroke-dasharray:6 8;stroke-dashoffset:7;animation:MuCBFLrx_draw 1ms ease-out 486ms forwards;}.MuCBFLrx_28{stroke-dasharray:217 219;stroke-dashoffset:218;animation:MuCBFLrx_draw 31ms ease-out 487ms forwards;}.MuCBFLrx_29{stroke-dasharray:6 8;stroke-dashoffset:7;animation:MuCBFLrx_draw 1ms ease-out 518ms forwards;}.MuCBFLrx_30{stroke-dasharray:34 36;stroke-dashoffset:35;animation:MuCBFLrx_draw 5ms ease-out 519ms forwards;}.MuCBFLrx_31{stroke-dasharray:167 169;stroke-dashoffset:168;animation:MuCBFLrx_draw 24ms ease-out 524ms forwards;}.MuCBFLrx_32{stroke-dasharray:101 103;stroke-dashoffset:102;animation:MuCBFLrx_draw 14ms ease-out 548ms forwards;}.MuCBFLrx_33{stroke-dasharray:101 103;stroke-dashoffset:102;animation:MuCBFLrx_draw 14ms ease-out 562ms forwards;}.MuCBFLrx_34{stroke-dasharray:135 137;stroke-dashoffset:136;animation:MuCBFLrx_draw 19ms ease-out 577ms forwards;}.MuCBFLrx_35{stroke-dasharray:34 36;stroke-dashoffset:35;animation:MuCBFLrx_draw 5ms ease-out 596ms forwards;}.MuCBFLrx_36{stroke-dasharray:8 10;stroke-dashoffset:9;animation:MuCBFLrx_draw 1ms ease-out 601ms forwards;}.MuCBFLrx_37{stroke-dasharray:7 9;stroke-dashoffset:8;animation:MuCBFLrx_draw 1ms ease-out 603ms forwards;}.MuCBFLrx_38{stroke-dasharray:8 10;stroke-dashoffset:9;animation:MuCBFLrx_draw 1ms ease-out 604ms forwards;}.MuCBFLrx_39{stroke-dasharray:8 10;stroke-dashoffset:9;animation:MuCBFLrx_draw 1ms ease-out 605ms forwards;}.MuCBFLrx_40{stroke-dasharray:8 10;stroke-dashoffset:9;animation:MuCBFLrx_draw 1ms ease-out 606ms forwards;}.MuCBFLrx_41{stroke-dasharray:8 10;stroke-dashoffset:9;animation:MuCBFLrx_draw 1ms ease-out 608ms forwards;}.MuCBFLrx_42{stroke-dasharray:9 11;stroke-dashoffset:10;animation:MuCBFLrx_draw 1ms ease-out 609ms forwards;}.MuCBFLrx_43{stroke-dasharray:8 10;stroke-dashoffset:9;animation:MuCBFLrx_draw 1ms ease-out 610ms forwards;}.MuCBFLrx_44{stroke-dasharray:10 12;stroke-dashoffset:11;animation:MuCBFLrx_draw 1ms ease-out 612ms forwards;}.MuCBFLrx_45{stroke-dasharray:6 8;stroke-dashoffset:7;animation:MuCBFLrx_draw 1ms ease-out 613ms forwards;}.MuCBFLrx_46{stroke-dasharray:17 19;stroke-dashoffset:18;animation:MuCBFLrx_draw 2ms ease-out 614ms forwards;}.MuCBFLrx_47{stroke-dasharray:257 259;stroke-dashoffset:258;animation:MuCBFLrx_draw 36ms ease-out 617ms forwards;}.MuCBFLrx_48{stroke-dasharray:264 266;stroke-dashoffset:265;animation:MuCBFLrx_draw 37ms ease-out 654ms forwards;}.MuCBFLrx_49{stroke-dasharray:283 285;stroke-dashoffset:284;animation:MuCBFLrx_draw 40ms ease-out 692ms forwards;}.MuCBFLrx_50{stroke-dasharray:245 247;stroke-dashoffset:246;animation:MuCBFLrx_draw 35ms ease-out 732ms forwards;}.MuCBFLrx_51{stroke-dasharray:262 264;stroke-dashoffset:263;animation:MuCBFLrx_draw 37ms ease-out 767ms forwards;}.MuCBFLrx_52{stroke-dasharray:129 131;stroke-dashoffset:130;animation:MuCBFLrx_draw 18ms ease-out 805ms forwards;}.MuCBFLrx_53{stroke-dasharray:243 245;stroke-dashoffset:244;animation:MuCBFLrx_draw 34ms ease-out 824ms forwards;}.MuCBFLrx_54{stroke-dasharray:225 227;stroke-dashoffset:226;animation:MuCBFLrx_draw 32ms ease-out 859ms forwards;}.MuCBFLrx_55{stroke-dasharray:243 245;stroke-dashoffset:244;animation:MuCBFLrx_draw 34ms ease-out 891ms forwards;}.MuCBFLrx_56{stroke-dasharray:243 245;stroke-dashoffset:244;animation:MuCBFLrx_draw 34ms ease-out 926ms forwards;}.MuCBFLrx_57{stroke-dasharray:264 266;stroke-dashoffset:265;animation:MuCBFLrx_draw 37ms ease-out 961ms forwards;}.MuCBFLrx_58{stroke-dasharray:172 174;stroke-dashoffset:173;animation:MuCBFLrx_draw 24ms ease-out 999ms forwards;}.MuCBFLrx_59{stroke-dasharray:225 227;stroke-dashoffset:226;animation:MuCBFLrx_draw 32ms ease-out 1023ms forwards;}.MuCBFLrx_60{stroke-dasharray:129 131;stroke-dashoffset:130;animation:MuCBFLrx_draw 18ms ease-out 1056ms forwards;}.MuCBFLrx_61{stroke-dasharray:272 274;stroke-dashoffset:273;animation:MuCBFLrx_draw 39ms ease-out 1074ms forwards;}.MuCBFLrx_62{stroke-dasharray:207 209;stroke-dashoffset:208;animation:MuCBFLrx_draw 29ms ease-out 1113ms forwards;}.MuCBFLrx_63{stroke-dasharray:237 239;stroke-dashoffset:238;animation:MuCBFLrx_draw 34ms ease-out 1143ms forwards;}.MuCBFLrx_64{stroke-dasharray:262 264;stroke-dashoffset:263;animation:MuCBFLrx_draw 37ms ease-out 1177ms forwards;}.MuCBFLrx_65{stroke-dasharray:364 366;stroke-dashoffset:365;animation:MuCBFLrx_draw 52ms ease-out 1215ms forwards;}.MuCBFLrx_66{stroke-dasharray:225 227;stroke-dashoffset:226;animation:MuCBFLrx_draw 32ms ease-out 1267ms forwards;}.MuCBFLrx_67{stroke-dasharray:243 245;stroke-dashoffset:244;animation:MuCBFLrx_draw 34ms ease-out 1299ms forwards;}.MuCBFLrx_68{stroke-dasharray:129 131;stroke-dashoffset:130;animation:MuCBFLrx_draw 18ms ease-out 1334ms forwards;}.MuCBFLrx_69{stroke-dasharray:237 239;stroke-dashoffset:238;animation:MuCBFLrx_draw 34ms ease-out 1353ms forwards;}.MuCBFLrx_70{stroke-dasharray:272 274;stroke-dashoffset:273;animation:MuCBFLrx_draw 39ms ease-out 1387ms forwards;}.MuCBFLrx_71{stroke-dasharray:67 69;stroke-dashoffset:68;animation:MuCBFLrx_draw 9ms ease-out 1426ms forwards;}.MuCBFLrx_72{stroke-dasharray:421 423;stroke-dashoffset:422;animation:MuCBFLrx_draw 60ms ease-out 1436ms forwards;}.MuCBFLrx_73{stroke-dasharray:766 768;stroke-dashoffset:767;animation:MuCBFLrx_draw 109ms ease-out 1496ms forwards;}.MuCBFLrx_74{stroke-dasharray:32 34;stroke-dashoffset:33;animation:MuCBFLrx_draw 4ms ease-out 1606ms forwards;}.MuCBFLrx_75{stroke-dasharray:37 39;stroke-dashoffset:38;animation:MuCBFLrx_draw 5ms ease-out 1610ms forwards;}.MuCBFLrx_76{stroke-dasharray:34 36;stroke-dashoffset:35;animation:MuCBFLrx_draw 5ms ease-out 1616ms forwards;}.MuCBFLrx_77{stroke-dasharray:230 232;stroke-dashoffset:231;animation:MuCBFLrx_draw 33ms ease-out 1621ms forwards;}.MuCBFLrx_78{stroke-dasharray:74 76;stroke-dashoffset:75;animation:MuCBFLrx_draw 10ms ease-out 1654ms forwards;}.MuCBFLrx_79{stroke-dasharray:208 210;stroke-dashoffset:209;animation:MuCBFLrx_draw 29ms ease-out 1665ms forwards;}.MuCBFLrx_80{stroke-dasharray:34 36;stroke-dashoffset:35;animation:MuCBFLrx_draw 5ms ease-out 1695ms forwards;}.MuCBFLrx_81{stroke-dasharray:134 136;stroke-dashoffset:135;animation:MuCBFLrx_draw 19ms ease-out 1700ms forwards;}.MuCBFLrx_82{stroke-dasharray:34 36;stroke-dashoffset:35;animation:MuCBFLrx_draw 5ms ease-out 1719ms forwards;}.MuCBFLrx_83{stroke-dasharray:1 3;stroke-dashoffset:2;animation:MuCBFLrx_draw 0ms ease-out 1724ms forwards;}.MuCBFLrx_84{stroke-dasharray:246 248;stroke-dashoffset:247;animation:MuCBFLrx_draw 35ms ease-out 1724ms forwards;}.MuCBFLrx_85{stroke-dasharray:1 3;stroke-dashoffset:2;animation:MuCBFLrx_draw 0ms ease-out 1759ms forwards;}.MuCBFLrx_86{stroke-dasharray:34 36;stroke-dashoffset:35;animation:MuCBFLrx_draw 5ms ease-out 1760ms forwards;}.MuCBFLrx_87{stroke-dasharray:132 134;stroke-dashoffset:133;animation:MuCBFLrx_draw 19ms ease-out 1765ms forwards;}.MuCBFLrx_88{stroke-dasharray:64 66;stroke-dashoffset:65;animation:MuCBFLrx_draw 9ms ease-out 1784ms forwards;}.MuCBFLrx_89{stroke-dasharray:132 134;stroke-dashoffset:133;animation:MuCBFLrx_draw 19ms ease-out 1793ms forwards;}.MuCBFLrx_90{stroke-dasharray:64 66;stroke-dashoffset:65;animation:MuCBFLrx_draw 9ms ease-out 1812ms forwards;}.MuCBFLrx_91{stroke-dasharray:270 272;stroke-dashoffset:271;animation:MuCBFLrx_draw 38ms ease-out 1821ms forwards;}.MuCBFLrx_92{stroke-dasharray:107 109;stroke-dashoffset:108;animation:MuCBFLrx_draw 15ms ease-out 1860ms forwards;}.MuCBFLrx_93{stroke-dasharray:51 53;stroke-dashoffset:52;animation:MuCBFLrx_draw 7ms ease-out 1876ms forwards;}.MuCBFLrx_94{stroke-dasharray:246 248;stroke-dashoffset:247;animation:MuCBFLrx_draw 35ms ease-out 1883ms forwards;}.MuCBFLrx_95{stroke-dasharray:51 53;stroke-dashoffset:52;animation:MuCBFLrx_draw 7ms ease-out 1918ms forwards;}.MuCBFLrx_96{stroke-dasharray:246 248;stroke-dashoffset:247;animation:MuCBFLrx_draw 35ms ease-out 1926ms forwards;}.MuCBFLrx_97{stroke-dasharray:232 234;stroke-dashoffset:233;animation:MuCBFLrx_draw 33ms ease-out 1961ms forwards;}.MuCBFLrx_98{stroke-dasharray:78 80;stroke-dashoffset:79;animation:MuCBFLrx_draw 11ms ease-out 1994ms forwards;}.MuCBFLrx_99{stroke-dasharray:250 252;stroke-dashoffset:251;animation:MuCBFLrx_draw 35ms ease-out 2006ms forwards;}.MuCBFLrx_100{stroke-dasharray:98 100;stroke-dashoffset:99;animation:MuCBFLrx_draw 14ms ease-out 2042ms forwards;}.MuCBFLrx_101{stroke-dasharray:280 282;stroke-dashoffset:281;animation:MuCBFLrx_draw 40ms ease-out 2056ms forwards;}.MuCBFLrx_102{stroke-dasharray:213 215;stroke-dashoffset:214;animation:MuCBFLrx_draw 30ms ease-out 2096ms forwards;}.MuCBFLrx_103{stroke-dasharray:213 215;stroke-dashoffset:214;animation:MuCBFLrx_draw 30ms ease-out 2127ms forwards;}.MuCBFLrx_104{stroke-dasharray:97 99;stroke-dashoffset:98;animation:MuCBFLrx_draw 14ms ease-out 2157ms forwards;}.MuCBFLrx_105{stroke-dasharray:280 282;stroke-dashoffset:281;animation:MuCBFLrx_draw 40ms ease-out 2171ms forwards;}.MuCBFLrx_106{stroke-dasharray:97 99;stroke-dashoffset:98;animation:MuCBFLrx_draw 14ms ease-out 2211ms forwards;}.MuCBFLrx_107{stroke-dasharray:374 376;stroke-dashoffset:375;animation:MuCBFLrx_draw 53ms ease-out 2226ms forwards;}.MuCBFLrx_108{stroke-dasharray:147 149;stroke-dashoffset:148;animation:MuCBFLrx_draw 21ms ease-out 2279ms forwards;}.MuCBFLrx_109{stroke-dasharray:406 408;stroke-dashoffset:407;animation:MuCBFLrx_draw 58ms ease-out 2300ms forwards;}.MuCBFLrx_110{stroke-dasharray:34 36;stroke-dashoffset:35;animation:MuCBFLrx_draw 5ms ease-out 2359ms forwards;}.MuCBFLrx_111{stroke-dasharray:257 259;stroke-dashoffset:258;animation:MuCBFLrx_draw 36ms ease-out 2364ms forwards;}.MuCBFLrx_112{stroke-dasharray:66 68;stroke-dashoffset:67;animation:MuCBFLrx_draw 9ms ease-out 2400ms forwards;}.MuCBFLrx_113{stroke-dasharray:272 274;stroke-dashoffset:273;animation:MuCBFLrx_draw 39ms ease-out 2410ms forwards;}.MuCBFLrx_114{stroke-dasharray:129 131;stroke-dashoffset:130;animation:MuCBFLrx_draw 18ms ease-out 2449ms forwards;}.MuCBFLrx_115{stroke-dasharray:245 247;stroke-dashoffset:246;animation:MuCBFLrx_draw 35ms ease-out 2468ms forwards;}.MuCBFLrx_116{stroke-dasharray:243 245;stroke-dashoffset:244;animation:MuCBFLrx_draw 34ms ease-out 2503ms forwards;}.MuCBFLrx_117{stroke-dasharray:119 121;stroke-dashoffset:120;animation:MuCBFLrx_draw 17ms ease-out 2538ms forwards;}.MuCBFLrx_118{stroke-dasharray:108 110;stroke-dashoffset:109;animation:MuCBFLrx_draw 15ms ease-out 2555ms forwards;}.MuCBFLrx_119{stroke-dasharray:243 245;stroke-dashoffset:244;animation:MuCBFLrx_draw 34ms ease-out 2571ms forwards;}.MuCBFLrx_120{stroke-dasharray:108 110;stroke-dashoffset:109;animation:MuCBFLrx_draw 15ms ease-out 2605ms forwards;}.MuCBFLrx_121{stroke-dasharray:132 134;stroke-dashoffset:133;animation:MuCBFLrx_draw 19ms ease-out 2621ms forwards;}.MuCBFLrx_122{stroke-dasharray:64 66;stroke-dashoffset:65;animation:MuCBFLrx_draw 9ms ease-out 2640ms forwards;}.MuCBFLrx_123{stroke-dasharray:270 272;stroke-dashoffset:271;animation:MuCBFLrx_draw 38ms ease-out 2649ms forwards;}.MuCBFLrx_124{stroke-dasharray:107 109;stroke-dashoffset:108;animation:MuCBFLrx_draw 15ms ease-out 2688ms forwards;}.MuCBFLrx_125{stroke-dasharray:232 234;stroke-dashoffset:233;animation:MuCBFLrx_draw 33ms ease-out 2704ms forwards;}.MuCBFLrx_126{stroke-dasharray:78 80;stroke-dashoffset:79;animation:MuCBFLrx_draw 11ms ease-out 2737ms forwards;}.MuCBFLrx_127{stroke-dasharray:291 293;stroke-dashoffset:292;animation:MuCBFLrx_draw 41ms ease-out 2748ms forwards;}.MuCBFLrx_128{stroke-dasharray:132 134;stroke-dashoffset:133;animation:MuCBFLrx_draw 19ms ease-out 2790ms forwards;}.MuCBFLrx_129{stroke-dasharray:272 274;stroke-dashoffset:273;animation:MuCBFLrx_draw 39ms ease-out 2809ms forwards;}.MuCBFLrx_130{stroke-dasharray:129 131;stroke-dashoffset:130;animation:MuCBFLrx_draw 18ms ease-out 2848ms forwards;}.MuCBFLrx_131{stroke-dasharray:232 234;stroke-dashoffset:233;animation:MuCBFLrx_draw 33ms ease-out 2867ms forwards;}.MuCBFLrx_132{stroke-dasharray:78 80;stroke-dashoffset:79;animation:MuCBFLrx_draw 11ms ease-out 2900ms forwards;}.MuCBFLrx_133{stroke-dasharray:243 245;stroke-dashoffset:244;animation:MuCBFLrx_draw 34ms ease-out 2911ms forwards;}.MuCBFLrx_134{stroke-dasharray:108 110;stroke-dashoffset:109;animation:MuCBFLrx_draw 15ms ease-out 2946ms forwards;}.MuCBFLrx_135{stroke-dasharray:172 174;stroke-dashoffset:173;animation:MuCBFLrx_draw 24ms ease-out 2962ms forwards;}.MuCBFLrx_136{stroke-dasharray:90 92;stroke-dashoffset:91;animation:MuCBFLrx_draw 13ms ease-out 2986ms forwards;}@keyframes MuCBFLrx_draw{100%{stroke-dashoffset:0;}}@keyframes MuCBFLrx_fade{0%{stroke-opacity:1;}94.44444444444444%{stroke-opacity:1;}100%{stroke-opacity:0;}}</style></svg>
