<!--?xml version="1.0" encoding="utf-8"?-->
<!-- Generator: Adobe Illustrator 16.0.0, SVG Export Plug-In . SVG Version: 6.00 Build 0)  -->

<svg version="1.1" id="Capa_1" xmlns="http://www.w3.org/2000/svg" xmlns:xlink="http://www.w3.org/1999/xlink" x="0px" y="0px" width="500px" height="500px" viewBox="0 0 500 500" enable-background="new 0 0 500 500" xml:space="preserve" style="">
<path fill="none" stroke="#FFFFFF" stroke-width="4" stroke-miterlimit="10" d="M459.085,355.292H40.916V71.535h29.869
	 M220.131,71.535h238.953v283.757 M488.953,41.666H220.131v29.869 M309.738,385.161h179.215V41.666 M11.047,385.161h179.216v44.804
	h-59.738v29.869h224.019v-29.869h-44.804v-44.804 M70.785,71.535V41.666H11.047v343.495 M279.869,385.161v44.804h-59.738v-44.804
	H279.869" class="GOypzfrr_0"></path>
<path fill="none" stroke="#FFFFFF" stroke-width="4" stroke-miterlimit="10" d="M129.523,71.535H99.654V41.666h29.869V71.535" class="GOypzfrr_1"></path>
<path fill="none" stroke="#FFFFFF" stroke-width="4" stroke-miterlimit="10" d="M189.262,71.535h-29.869V41.666h29.869V71.535" class="GOypzfrr_2"></path>
<path fill="none" stroke="#FFFFFF" stroke-width="4" stroke-miterlimit="10" d="M249,101.404
	c-97.075,0-173.002,98.777-176.228,103.049l-6.84,8.961l6.84,8.961c3.226,4.271,79.152,103.048,176.228,103.048 M249,325.423
	c97.074,0,173.003-98.777,176.229-103.048l6.841-8.961l-6.841-8.961c-3.226-4.271-79.153-103.049-176.229-103.049 M249,131.273
	c66.444,0,124.72,59.126,144.865,82.141c-20.102,23.044-78.228,82.14-144.865,82.14 M249,295.554
	c-66.638,0-124.719-59.126-144.865-82.14c20.103-23.044,78.228-82.141,144.865-82.141" class="GOypzfrr_3"></path>
<path fill="none" stroke="#FFFFFF" stroke-width="4" stroke-miterlimit="10" d="M249,273.152c32.992,0,59.738-26.747,59.738-59.738
	c0-32.993-26.746-59.738-59.738-59.738s-59.737,26.745-59.737,59.738C189.262,246.406,216.008,273.152,249,273.152 M249,243.283
	c-16.496,0-29.869-13.374-29.869-29.869c0-16.497,13.373-29.869,29.869-29.869s29.869,13.372,29.869,29.869
	C278.869,229.909,265.496,243.283,249,243.283" class="GOypzfrr_4"></path>
<style data-made-with="vivus-instant">.GOypzfrr_0{stroke-dasharray:3376 3378;stroke-dashoffset:3377;animation:GOypzfrr_draw 3333ms linear 0ms forwards;}.GOypzfrr_1{stroke-dasharray:120 122;stroke-dashoffset:121;animation:GOypzfrr_draw 3333ms linear 416ms forwards;}.GOypzfrr_2{stroke-dasharray:120 122;stroke-dashoffset:121;animation:GOypzfrr_draw 3333ms linear 833ms forwards;}.GOypzfrr_3{stroke-dasharray:1574 1576;stroke-dashoffset:1575;animation:GOypzfrr_draw 3333ms linear 1250ms forwards;}.GOypzfrr_4{stroke-dasharray:564 566;stroke-dashoffset:565;animation:GOypzfrr_draw 3333ms linear 1666ms forwards;}@keyframes GOypzfrr_draw{100%{stroke-dashoffset:0;}}@keyframes GOypzfrr_fade{0%{stroke-opacity:1;}95.65217391304348%{stroke-opacity:1;}100%{stroke-opacity:0;}}</style></svg>
