<!--?xml version="1.0" encoding="utf-8"?-->
<!-- Generator: Adobe Illustrator 16.0.0, SVG Export Plug-In . SVG Version: 6.00 Build 0)  -->

<svg version="1.1" id="Capa_1" xmlns="http://www.w3.org/2000/svg" xmlns:xlink="http://www.w3.org/1999/xlink" x="0px" y="0px" width="500px" height="500px" viewBox="0 0 500 500" enable-background="new 0 0 500 500" xml:space="preserve" style="">
<path fill="none" d="M250.879,333.291c-80.75,0-161.498-0.002-242.247,0.021c-0.912,0-1.118-0.205-1.117-1.118
	c0.024-54.13,0.024-108.26,0-162.39c0-0.913,0.206-1.119,1.117-1.119c161.579,0.024,323.158,0.024,484.736,0
	c0.913,0,1.119,0.206,1.118,1.119c-0.023,54.13-0.023,108.26,0,162.39c0.001,0.913-0.205,1.118-1.118,1.118
	C412.538,333.289,331.71,333.291,250.879,333.291z M99.173,225.9c-8.926,0-17.853-0.001-26.778,0.001
	c-1.784,0-1.796,0.011-1.797,1.728c-0.003,4.504-0.005,9.007,0,13.511c0.001,1.724,0.072,1.819,1.767,1.799
	c7.057-0.086,14.113,0.105,21.172-0.131c5.27-0.176,10.548-0.04,15.822-0.034c1.327,0.002,1.52,0.219,1.34,1.486
	c-1.731,12.229-8.153,21.164-19.053,26.861c-8.013,4.188-16.614,5.31-25.521,4.468c-9.216-0.87-17.412-4.319-24.283-10.479
	c-11.594-10.391-16.489-23.554-14.969-38.972c1.042-10.572,5.403-19.738,13.096-27.161C50.89,188.439,64,184.832,78.821,187.175
	c8.191,1.294,15.29,4.989,21.409,10.57c0.514,0.469,0.901,0.724,1.516,0.104c3.539-3.575,7.104-7.127,10.669-10.676
	c0.481-0.479,0.469-0.804-0.045-1.289c-4.185-3.954-8.798-7.321-13.926-9.925c-12.381-6.285-25.474-7.96-39.04-5.396
	c-16.611,3.141-29.939,11.685-39.835,25.382c-9.213,12.751-12.862,27.063-10.984,42.665c1.392,11.557,5.94,21.844,13.324,30.866
	c7.728,9.442,17.375,16.132,28.897,20.075c9.001,3.08,18.257,3.914,27.718,2.897c9.829-1.058,18.949-4.022,27.021-9.817
	c6.67-4.786,12.328-10.539,16.147-17.906c6.088-11.74,7.642-24.233,6.118-37.234c-0.139-1.185-0.607-1.625-1.86-1.617
	C117.025,225.924,108.099,225.9,99.173,225.9z M383.18,251.806c0-3.895,0-7.79,0-11.685c0-7.587-0.006-15.175,0.006-22.763
	c0.001-0.937-0.054-1.673-1.32-1.663c-4.746,0.038-9.493,0.029-14.239,0.002c-0.976-0.005-1.276,0.42-1.247,1.33
	c0.044,1.338,0.02,2.678,0.003,4.017c-0.004,0.348,0.136,0.813-0.254,0.996c-0.437,0.204-0.614-0.28-0.85-0.522
	c-1.047-1.083-2.17-2.08-3.411-2.927c-8.254-5.632-17.26-6.508-26.638-3.787c-10.449,3.032-18.173,9.63-23.432,19.086
	c-4.061,7.299-5.626,15.192-4.737,23.479c1.182,11.015,6.147,20.108,14.772,27.033c8.247,6.622,17.668,9.641,28.283,7.976
	c5.89-0.924,11.043-3.432,15.153-7.864c0.218-0.234,0.41-0.599,0.776-0.474c0.442,0.15,0.335,0.605,0.332,0.95
	c-0.02,3.08,0.154,6.167-0.269,9.235c-0.538,3.909-1.696,7.587-4.004,10.851c-5.695,8.055-17.999,9.14-25.146,5.814
	c-5.018-2.333-8.643-6.092-11.023-11.061c-0.382-0.799-0.729-1.254-1.736-0.824c-4.365,1.859-8.755,3.669-13.146,5.472
	c-0.771,0.316-0.951,0.711-0.582,1.486c4.519,9.515,11.542,16.368,21.453,20.104c6.688,2.521,13.602,2.867,20.613,1.797
	c6.287-0.961,12.075-3.165,17.081-7.172c6.997-5.604,10.623-13.146,12.372-21.744c1.14-5.598,1.163-11.278,1.179-16.954
	C383.197,271.931,383.18,261.868,383.18,251.806z M135.04,253.118c-0.251,21.82,16.934,39.743,39.845,39.769
	c22.9,0.024,39.92-17.867,39.967-39.702c0.045-21.438-16.239-39.883-40.022-39.851C151.554,213.366,134.791,231.381,135.04,253.118z
	 M221.006,253.076c-0.269,21.863,16.879,39.658,39.708,39.788c22.502,0.129,39.886-17.273,40.017-39.639
	c0.128-21.84-16.505-39.849-39.864-39.864C237.491,213.347,220.762,231.448,221.006,253.076z M457.064,292.886
	c0.567,0,1.137,0.023,1.704-0.007c0.565-0.029,1.128-0.124,1.694-0.17c12.198-1.013,21.719-6.747,29.027-16.415
	c0.634-0.838,0.613-1.312-0.313-1.913c-3.744-2.429-7.439-4.933-11.153-7.404c-1.425-0.949-1.427-0.943-2.45,0.419
	c-3.948,5.264-8.977,8.751-15.663,9.461c-9.009,0.956-16.546-2.142-21.313-10.473c-0.549-0.96-0.424-1.319,0.605-1.741
	c10.659-4.369,21.298-8.786,31.942-13.188c6.185-2.56,12.367-5.125,18.559-7.667c0.801-0.33,1.342-0.622,0.9-1.671
	c-1.503-3.591-2.816-7.267-4.892-10.593c-8.313-13.328-20.06-19.927-35.932-17.783c-12.142,1.64-21.226,8.114-27.158,18.8
	c-4.67,8.41-5.982,17.509-4.589,26.976c1.31,8.882,5.17,16.556,11.702,22.727C437.371,289.453,446.621,292.769,457.064,292.886z
	 M393.187,232.13c0,0.893,0,1.785,0,2.678c0,17.972-0.001,35.946,0.001,53.918c0,1.699,0.027,1.727,1.68,1.728
	c4.748,0.003,9.495-0.019,14.24,0.015c0.989,0.006,1.392-0.329,1.367-1.339c-0.048-1.945-0.013-3.896-0.013-5.842
	c0-35.784,0-71.567-0.001-107.353c0-1.899-0.003-1.902-1.863-1.904c-4.463-0.001-8.926-0.001-13.388,0
	c-2.021,0-2.023,0.002-2.023,1.989C393.187,194.724,393.187,213.427,393.187,232.13z" class="jzUPxXuo_0"></path>
<path fill="none" stroke="#FFFFFF" stroke-width="4" stroke-miterlimit="10" d="M110,225.905c5.317,0.002,10.634-0.002,15.952-0.032
	c1.253-0.008,1.722,0.433,1.86,1.616c1.523,13-0.03,25.495-6.118,37.235c-3.82,7.367-9.478,13.12-16.147,17.906
	c-8.072,5.795-17.192,8.761-27.021,9.816c-9.461,1.018-18.717,0.184-27.718-2.896c-11.522-3.943-21.17-10.633-28.897-20.075
	c-7.383-9.022-11.933-19.31-13.324-30.866c-1.877-15.602,1.771-29.914,10.984-42.665c9.896-13.697,23.224-22.241,39.835-25.382
	c13.565-2.563,26.659-0.889,39.04,5.396c5.128,2.604,9.741,5.972,13.926,9.925c0.514,0.485,0.526,0.81,0.045,1.289
	c-3.565,3.549-7.13,7.101-10.669,10.676c-0.613,0.62-1.001,0.365-1.516-0.104c-6.119-5.581-13.217-9.276-21.409-10.57
	C64,184.832,50.89,188.439,39.968,198.977c-7.692,7.422-12.054,16.588-13.096,27.161c-1.521,15.417,3.375,28.581,14.969,38.972
	c6.872,6.159,15.067,9.608,24.283,10.479c8.907,0.842,17.509-0.279,25.521-4.468c10.898-5.697,17.321-14.633,19.053-26.861
	c0.18-1.269-0.013-1.484-1.34-1.486c-5.274-0.006-10.554-0.142-15.822,0.034c-7.06,0.237-14.115,0.045-21.172,0.131
	c-1.693,0.021-1.765-0.075-1.767-1.799c-0.005-4.504-0.003-9.007,0-13.511c0.001-1.717,0.013-1.728,1.797-1.728
	c8.926-0.002,17.853-0.001,26.778-0.001C102.782,225.9,106.391,225.904,110,225.905" class="jzUPxXuo_1"></path>
<path fill="none" stroke="#FFFFFF" stroke-width="4" stroke-miterlimit="10" d="M342.384,292.764
	c-7.517-0.455-14.362-3.394-20.55-8.361c-8.625-6.925-13.592-16.02-14.772-27.033c-0.889-8.286,0.678-16.18,4.737-23.479
	c5.259-9.456,12.981-16.054,23.432-19.086c9.378-2.721,18.384-1.845,26.638,3.787c1.241,0.847,2.364,1.844,3.411,2.927
	c0.234,0.242,0.413,0.727,0.85,0.522c0.39-0.184,0.25-0.648,0.254-0.996c0.017-1.339,0.041-2.679-0.003-4.017
	c-0.029-0.909,0.271-1.335,1.247-1.329c4.746,0.026,9.493,0.035,14.239-0.003c1.268-0.01,1.321,0.727,1.32,1.663
	c-0.012,7.587-0.006,15.176-0.006,22.763c0,3.896,0,7.79,0,11.685c0,10.063,0.018,20.125-0.008,30.188
	c-0.016,5.676-0.039,11.356-1.179,16.955c-1.749,8.597-5.375,16.141-12.372,21.743c-5.006,4.008-10.794,6.211-17.081,7.172
	c-7.013,1.07-13.925,0.724-20.613-1.797c-9.911-3.734-16.936-10.589-21.453-20.104c-0.369-0.775-0.189-1.17,0.582-1.486
	c4.391-1.803,8.779-3.61,13.146-5.472c1.009-0.43,1.354,0.025,1.736,0.824c2.382,4.969,6.007,8.728,11.023,11.061
	c7.146,3.324,19.45,2.239,25.146-5.814c2.308-3.264,3.466-6.94,4.004-10.851c0.423-3.067,0.249-6.155,0.269-9.234
	c0.003-0.346,0.11-0.801-0.332-0.951c-0.366-0.125-0.56,0.238-0.776,0.474c-4.11,4.434-9.265,6.94-15.153,7.864
	C347.466,292.793,344.887,292.916,342.384,292.764 M324.468,254.971c-0.159,5.059,2.911,12.278,8.002,16.804
	c9.362,8.326,23.801,6.678,30.796-3.69c4.038-5.985,5.053-12.629,3.952-19.657c-0.962-6.131-3.658-11.375-8.638-15.156
	c-8.165-6.199-19.499-5.342-26.795,1.875C326.79,240.088,324.566,246.178,324.468,254.971z" class="jzUPxXuo_2"></path>
<path fill="none" stroke="#FFFFFF" stroke-width="4" stroke-miterlimit="10" d="M196.338,219.221
	c11.54,7.115,18.542,19.894,18.514,33.964c-0.046,21.835-17.066,39.728-39.967,39.702c-22.911-0.024-40.096-17.947-39.845-39.769
	c-0.25-21.737,16.515-39.752,39.788-39.785C183.004,213.322,190.293,215.494,196.338,219.221 M197.17,255.35
	c-0.014-10.097-2.901-16.502-8.556-21.306c-8.619-7.322-22.663-6.177-29.975,2.443c-7.057,8.319-8.024,20.679-2.354,30
	c6.763,11.112,21.563,13.973,31.755,6.071C194.403,267.628,197.08,260.909,197.17,255.35z" class="jzUPxXuo_3"></path>
<path fill="none" stroke="#FFFFFF" stroke-width="4" stroke-miterlimit="10" d="M228.515,276.797
	c-4.854-6.627-7.618-14.838-7.51-23.721c-0.243-21.629,16.485-39.729,39.859-39.715c23.359,0.017,39.992,18.024,39.864,39.864
	c-0.131,22.364-17.515,39.768-40.017,39.639C247.159,292.788,235.607,286.483,228.515,276.797 M238.55,254.671
	c-0.059,3.729,1.393,8.653,4.482,13.097c7.675,11.035,23.553,12.484,33.08,3.01c8.188-8.147,9.44-22.591,2.777-32.072
	c-8.183-11.641-24.302-12.906-33.991-2.595C240.467,240.826,238.583,246.584,238.55,254.671z" class="jzUPxXuo_4"></path>
<path fill="none" stroke="#FFFFFF" stroke-width="4" stroke-miterlimit="10" d="M463,254.824
	c-7.929,3.281-15.856,6.563-23.798,9.817c-1.029,0.422-1.154,0.781-0.605,1.741c4.769,8.331,12.306,11.429,21.313,10.473
	c6.688-0.71,11.715-4.197,15.663-9.461c1.023-1.363,1.025-1.368,2.45-0.419c3.714,2.473,7.409,4.977,11.153,7.404
	c0.928,0.603,0.948,1.075,0.313,1.913c-7.31,9.668-16.829,15.402-29.027,16.415c-0.566,0.046-1.129,0.141-1.694,0.17
	c-0.567,0.03-1.137,0.007-1.704,0.007c-10.443-0.117-19.693-3.433-27.328-10.646c-6.532-6.17-10.394-13.844-11.702-22.726
	c-1.395-9.467-0.081-18.566,4.589-26.976c5.934-10.687,15.018-17.16,27.158-18.801c15.872-2.144,27.617,4.456,35.932,17.784
	c2.074,3.326,3.389,7.002,4.892,10.592c0.44,1.05-0.101,1.343-0.9,1.672c-6.19,2.543-12.374,5.108-18.559,7.667
	C468.43,252.576,465.716,253.7,463,254.824 M435.085,249.703c0,0.283,0.019,0.568-0.005,0.851c-0.076,0.99,0.302,1.063,1.146,0.71
	c10.927-4.558,21.86-9.104,32.813-13.601c1.1-0.451,1.289-0.92,0.619-1.833c-0.168-0.229-0.302-0.482-0.469-0.71
	c-3.137-4.265-7.575-6.035-12.646-6.194C445.219,228.569,435.325,238.237,435.085,249.703z" class="jzUPxXuo_5"></path>
<path fill="none" stroke="#FFFFFF" stroke-width="4" stroke-miterlimit="10" d="M393.187,219.5c0-14.493,0-28.986,0-43.479
	c0-1.987,0.004-1.989,2.023-1.989c4.462,0,8.925-0.001,13.388,0c1.86,0,1.863,0.004,1.863,1.904
	c0.001,35.784,0.001,71.567,0.001,107.353c0,1.946-0.035,3.896,0.013,5.842c0.024,1.01-0.378,1.345-1.367,1.339
	c-4.745-0.032-9.492-0.012-14.24-0.015c-1.651-0.001-1.68-0.027-1.68-1.728c-0.002-17.973-0.001-35.946-0.001-53.918
	c0-0.893,0-1.785,0-2.678C393.187,227.92,393.187,223.71,393.187,219.5" class="jzUPxXuo_6"></path>
<path fill="none" stroke="#FFFFFF" stroke-width="4" stroke-miterlimit="10" d="M324.604,257.338
	c-0.113-0.826-0.16-1.62-0.137-2.367c0.1-8.793,2.322-14.883,7.317-19.826c7.296-7.217,18.63-8.074,26.795-1.875
	c4.979,3.78,7.676,9.025,8.638,15.156c1.101,7.028,0.086,13.672-3.952,19.657c-6.995,10.368-21.434,12.018-30.796,3.69
	C328.131,267.918,325.259,262.104,324.604,257.338" class="jzUPxXuo_7"></path>
<path fill="none" stroke="#FFFFFF" stroke-width="4" stroke-miterlimit="10" d="M197.17,255.35
	c-0.09,5.561-2.767,12.278-9.128,17.209c-10.19,7.9-24.992,5.041-31.755-6.071c-5.672-9.32-4.703-21.68,2.354-30
	c7.312-8.62,21.354-9.767,29.975-2.443C194.268,238.847,197.156,245.253,197.17,255.35z" class="jzUPxXuo_8"></path>
<path fill="none" stroke="#FFFFFF" stroke-width="4" stroke-miterlimit="10" d="M238.55,254.671
	c0.033-8.087,1.917-13.845,6.35-18.562c9.689-10.312,25.81-9.046,33.991,2.595c6.663,9.481,5.412,23.924-2.777,32.072
	c-9.527,9.476-25.405,8.025-33.08-3.01C239.941,263.324,238.491,258.399,238.55,254.671z" class="jzUPxXuo_9"></path>
<path fill="none" d="M455.998,243.041c-6.595,2.73-13.185,5.475-19.771,8.223c-0.845,0.353-1.223,0.28-1.146-0.71
	c0.022-0.282,0.004-0.567,0.004-0.851c0.241-11.467,10.136-21.135,21.459-20.777c5.072,0.16,9.512,1.93,12.647,6.194
	c0.167,0.228,0.301,0.48,0.469,0.71c0.67,0.913,0.479,1.382-0.619,1.833C464.689,239.448,460.344,241.242,455.998,243.041" class="jzUPxXuo_10"></path>
<style data-made-with="vivus-instant">.jzUPxXuo_0{stroke-dasharray:3561 3563;stroke-dashoffset:3562;animation:jzUPxXuo_draw 3333ms linear 0ms forwards;}.jzUPxXuo_1{stroke-dasharray:703 705;stroke-dashoffset:704;animation:jzUPxXuo_draw 3333ms linear 166ms forwards;}.jzUPxXuo_2{stroke-dasharray:599 601;stroke-dashoffset:600;animation:jzUPxXuo_draw 3333ms linear 333ms forwards;}.jzUPxXuo_3{stroke-dasharray:398 400;stroke-dashoffset:399;animation:jzUPxXuo_draw 3333ms linear 500ms forwards;}.jzUPxXuo_4{stroke-dasharray:398 400;stroke-dashoffset:399;animation:jzUPxXuo_draw 3333ms linear 666ms forwards;}.jzUPxXuo_5{stroke-dasharray:423 425;stroke-dashoffset:424;animation:jzUPxXuo_draw 3333ms linear 833ms forwards;}.jzUPxXuo_6{stroke-dasharray:266 268;stroke-dashoffset:267;animation:jzUPxXuo_draw 3333ms linear 1000ms forwards;}.jzUPxXuo_7{stroke-dasharray:144 146;stroke-dashoffset:145;animation:jzUPxXuo_draw 3333ms linear 1166ms forwards;}.jzUPxXuo_8{stroke-dasharray:146 148;stroke-dashoffset:147;animation:jzUPxXuo_draw 3333ms linear 1333ms forwards;}.jzUPxXuo_9{stroke-dasharray:146 148;stroke-dashoffset:147;animation:jzUPxXuo_draw 3333ms linear 1500ms forwards;}.jzUPxXuo_10{stroke-dasharray:90 92;stroke-dashoffset:91;animation:jzUPxXuo_draw 3333ms linear 1666ms forwards;}@keyframes jzUPxXuo_draw{100%{stroke-dashoffset:0;}}@keyframes jzUPxXuo_fade{0%{stroke-opacity:1;}95.65217391304348%{stroke-opacity:1;}100%{stroke-opacity:0;}}</style></svg>
