<!--?xml version="1.0" encoding="utf-8"?-->
<!-- Generator: Adobe Illustrator 16.0.0, SVG Export Plug-In . SVG Version: 6.00 Build 0)  -->

<svg version="1.1" id="Capa_1" xmlns="http://www.w3.org/2000/svg" xmlns:xlink="http://www.w3.org/1999/xlink" x="0px" y="0px" width="500px" height="500px" viewBox="0 0 500 500" enable-background="new 0 0 500 500" xml:space="preserve" style="">
<path fill-rule="evenodd" clip-rule="evenodd" fill="none" stroke="#000000" stroke-width="2" stroke-linecap="round" stroke-linejoin="round" stroke-miterlimit="10" d="
	M347,91c0-14.667-0.046-29.333,0.033-44c0.019-3.573-1.46-5.042-5.033-5.032c-21.833,0.064-43.68-0.442-65.496,0.172
	c-19.926,0.561-38.52,5.879-54.007,19.357c-12.339,10.738-19.774,24.417-23.982,40.007c-2.871,10.637-3.71,21.498-3.555,32.497
	c0.175,12.331,0.061,24.666,0.031,37c-0.014,5.431-0.986,6.442-6.491,6.481c-9.5,0.067-19-0.006-28.5,0.028
	c-5.502,0.02-6.484,0.988-6.49,6.491c-0.024,20.333-0.013,40.667-0.005,61c0.001,1.888-0.324,3.846,2.035,6
	c5.452,0,11.957,0,18.46,0c5.333,0,10.668,0.087,16-0.03c3.576-0.079,5.229,1.457,5.008,5.03c-0.052,0.831-0.008,1.667-0.008,2.5
	c0,64.667,0.025,129.333-0.036,194c-0.007,6.993,0.542,7.565,7.536,7.537c24.167-0.097,48.334-0.1,72.5,0.006
	c6.271,0.027,7.047-0.772,7.041-7.043c-0.066-64.833-0.017-129.667-0.077-194.5c-0.006-6.993,0.542-7.594,7.536-7.537
	c14.833,0.121,29.667,0.046,44.5,0.026c1.837-0.003,3.674-0.158,5.378-0.237c2.722-6.333,2.236-12.917,3.024-19.264
	c1.963-15.796,3.46-31.651,5.059-47.492c0.183-1.81,0.383-3.724-0.461-5.496" class="UtVVnCrW_0"></path>
<path fill-rule="evenodd" clip-rule="evenodd" fill="none" stroke="#000000" stroke-width="2" stroke-linecap="round" stroke-linejoin="round" stroke-miterlimit="10" d="
	M318,114c-6,0-12-0.019-18,0.004c-10.018,0.038-16.438,5.117-17.396,15.006c-1.531,15.795-0.223,31.656-0.771,48.288
	c22.657,0.154,44.661,0.303,66.666,0.452" class="UtVVnCrW_1"></path>
<style data-made-with="vivus-instant">.UtVVnCrW_0{stroke-dasharray:1080 1082;stroke-dashoffset:1081;animation:UtVVnCrW_draw_0 7200ms ease-in-out 0ms infinite,UtVVnCrW_fade 7200ms linear 0ms infinite;}.UtVVnCrW_1{stroke-dasharray:159 161;stroke-dashoffset:160;animation:UtVVnCrW_draw_1 7200ms ease-in-out 0ms infinite,UtVVnCrW_fade 7200ms linear 0ms infinite;}@keyframes UtVVnCrW_draw{100%{stroke-dashoffset:0;}}@keyframes UtVVnCrW_fade{0%{stroke-opacity:1;}94.44444444444444%{stroke-opacity:1;}100%{stroke-opacity:0;}}@keyframes UtVVnCrW_draw_0{11.11111111111111%{stroke-dashoffset: 1081}38.88888888888889%{ stroke-dashoffset: 0;}100%{ stroke-dashoffset: 0;}}@keyframes UtVVnCrW_draw_1{25%{stroke-dashoffset: 160}52.77777777777778%{ stroke-dashoffset: 0;}100%{ stroke-dashoffset: 0;}}</style></svg>
