<!--?xml version="1.0" encoding="utf-8"?-->
<!-- Generator: Adobe Illustrator 16.0.0, SVG Export Plug-In . SVG Version: 6.00 Build 0)  -->

<svg version="1.1" id="Layer_1" xmlns="http://www.w3.org/2000/svg" xmlns:xlink="http://www.w3.org/1999/xlink" x="0px" y="0px" width="500px" height="500px" viewBox="0 0 500 500" enable-background="new 0 0 500 500" xml:space="preserve" style="">
<path fill="none" stroke="#000000" stroke-miterlimit="10" d="M436.714,446.553V53.455c0-21.708-17.592-39.306-39.299-39.306
	 M102.6,485.852h147.407h147.408c21.708,0,39.299-17.591,39.299-39.299 M63.286,53.455v275.172v117.926
	c0,21.708,17.591,39.299,39.313,39.299 M397.415,14.149H102.6c-21.722,0-39.313,17.599-39.313,39.306 M134.211,393.348
	c-7.255,5.37-11.962,13.993-11.962,23.724c0,16.267,13.2,29.481,29.481,29.481c9.731,0,18.354-4.723,23.723-11.977l13.315-16.9
	c3.585,1.107,7.198,2.13,10.84,3.037c10.077,2.519,20.355,4.276,30.733,5.255v40.22H102.6c-10.84,0-19.664-8.811-19.664-19.636
	v-98.29H87.6c13.532,17.087,29.784,32.015,47.893,44.078L134.211,393.348 M202.833,339.28c-0.85-0.346-1.713-0.677-2.548-1.037
	c-15.216-6.434-28.877-15.646-40.624-27.38c-11.732-11.746-20.945-25.422-27.38-40.623c-6.665-15.734-10.034-32.469-10.034-49.722
	s3.368-33.987,10.034-49.721c6.435-15.209,15.647-28.877,27.38-40.617c11.746-11.739,25.407-20.952,40.624-27.387
	c15.734-6.651,32.461-10.026,49.721-10.026c17.246,0,33.973,3.375,49.721,10.026c15.202,6.435,28.862,15.647,40.609,27.387
	c11.731,11.739,20.944,25.408,27.38,40.617c6.665,15.734,10.034,32.468,10.034,49.721 M377.751,220.518
	c0,17.253-3.369,33.987-10.034,49.722c-6.435,15.201-15.647,28.877-27.38,40.623c-11.747,11.732-25.407,20.945-40.609,27.38
	c-15.748,6.651-32.476,10.02-49.721,10.02c-2.16,0-4.304-0.043-6.449-0.144l33.584-42.639c1.453-1.699,2.347-3.915,2.347-6.334
	c0.001-5.441-4.404-9.847-9.831-9.847c-2.419,0-4.636,0.893-6.349,2.347l-60.475,47.634 M207.771,361.78l-47.764,60.617
	l-0.187,0.245l-0.173,0.245c-1.886,2.533-4.765,4.002-7.917,4.002c-5.427,0-9.832-4.404-9.832-9.817
	c0-3.167,1.454-6.045,4.002-7.917l0.245-0.187l0.23-0.188l60.143-47.374C206.937,361.535,207.354,361.651,207.771,361.78
	 M201.898,401.007l27.221-34.549c6.823,0.95,13.791,1.469,20.888,1.469c81.406,0,147.408-65.987,147.408-147.407
	c0-81.412-66.002-147.407-147.408-147.407c-81.419,0-147.407,65.995-147.407,147.407c0,58.229,33.757,108.569,82.773,132.522
	l-33.556,26.431c-21.363-13.157-39.875-30.489-54.415-50.845H82.936V53.455c0-10.833,8.824-19.649,19.664-19.649 M397.415,466.188
	H250.007v-58.962c-16.641,0-32.764-2.159-48.109-6.219 M102.6,33.805h294.815c10.825,0,19.649,8.817,19.649,19.649v393.098
	c0,10.825-8.824,19.635-19.649,19.635" class="JAlNQDXR_0"></path>
<path fill="none" stroke="#000000" stroke-miterlimit="10" d="M407.232,53.455c0-5.427-4.392-9.825-9.817-9.825
	c-5.427,0-9.832,4.397-9.832,9.825s4.405,9.832,9.832,9.832C402.843,63.287,407.232,58.882,407.232,53.455" class="JAlNQDXR_1"></path>
<path fill="none" stroke="#000000" stroke-miterlimit="10" d="M407.232,446.553c0-5.441-4.392-9.847-9.817-9.847
	c-5.427,0-9.832,4.404-9.832,9.847c0,5.412,4.405,9.817,9.832,9.817C402.843,456.37,407.232,451.965,407.232,446.553" class="JAlNQDXR_2"></path>
<path fill="none" stroke="#000000" stroke-miterlimit="10" d="M112.417,53.455c0-5.427-4.391-9.825-9.817-9.825
	c-5.427,0-9.832,4.397-9.832,9.825s4.405,9.832,9.832,9.832S112.417,58.882,112.417,53.455" class="JAlNQDXR_3"></path>
<path fill="none" stroke="#000000" stroke-miterlimit="10" d="M259.824,220.519c0-5.427-4.391-9.825-9.817-9.825
	c-5.427,0-9.832,4.397-9.832,9.825s4.405,9.825,9.832,9.825S259.824,225.946,259.824,220.519" class="JAlNQDXR_4"></path>
<path fill="none" stroke="#000000" stroke-miterlimit="10" d="M187.459,157.978c16.713-16.706,38.911-25.904,62.548-25.904
	c5.426,0,9.817-4.397,9.817-9.825s-4.391-9.832-9.817-9.832c-59.712,0-108.108,48.396-108.108,108.101
	c0,5.427,4.405,9.825,9.832,9.825s9.832-4.397,9.832-9.825C161.563,196.896,170.761,174.684,187.459,157.978" class="JAlNQDXR_5"></path>
<path fill="none" stroke="#000000" stroke-miterlimit="10" d="M299.138,220.519c0-27.135-21.996-49.138-49.131-49.138
	c-27.149,0-49.146,22.003-49.146,49.138s21.996,49.146,49.146,49.146C277.142,269.664,299.138,247.654,299.138,220.519
	 M279.489,220.519c0,16.252-13.23,29.481-29.482,29.481c-16.266,0-29.481-13.229-29.481-29.481s13.215-29.481,29.481-29.481
	C266.26,191.037,279.489,204.266,279.489,220.519" class="JAlNQDXR_6"></path>
<path fill="none" stroke="#000000" stroke-miterlimit="10" d="M112.417,446.553c0-5.441-4.391-9.847-9.817-9.847
	c-5.427,0-9.832,4.404-9.832,9.847c0,5.412,4.405,9.817,9.832,9.817S112.417,451.965,112.417,446.553" class="JAlNQDXR_7"></path>
<path fill="none" stroke="#000000" stroke-miterlimit="10" d="M299.138,417.072c0-2.533-0.964-5.039-2.879-6.968
	c-3.844-3.829-10.063-3.829-13.906,0c-1.915,1.929-2.88,4.447-2.864,6.968v29.467c-0.016,2.519,0.949,5.023,2.864,6.952
	c3.844,3.829,10.063,3.829,13.906,0c1.915-1.914,2.879-4.434,2.879-6.938V417.072" class="JAlNQDXR_8"></path>
<path fill="none" stroke="#000000" stroke-miterlimit="10" d="M308.97,446.538c-0.016,2.519,0.95,5.023,2.865,6.952
	c3.843,3.829,10.062,3.829,13.905,0c1.915-1.914,2.879-4.434,2.879-6.938v-29.481c0-2.533-0.964-5.039-2.879-6.968
	c-3.844-3.829-10.063-3.829-13.905,0c-1.915,1.929-2.881,4.447-2.865,6.968V446.538" class="JAlNQDXR_9"></path>
<path fill="none" stroke="#000000" stroke-miterlimit="10" d="M338.452,417.072v29.467c-0.015,2.519,0.95,5.023,2.865,6.952
	c3.843,3.829,10.062,3.829,13.905,0c1.915-1.929,2.879-4.434,2.879-6.952v-29.467c0-2.521-0.964-5.039-2.879-6.968
	c-3.844-3.829-10.063-3.829-13.905,0C339.402,412.032,338.437,414.551,338.452,417.072" class="JAlNQDXR_10"></path>
<style data-made-with="vivus-instant">.JAlNQDXR_0{stroke-dasharray:5636 5638;stroke-dashoffset:5637;animation:JAlNQDXR_draw 3333ms linear 0ms forwards;}.JAlNQDXR_1{stroke-dasharray:62 64;stroke-dashoffset:63;animation:JAlNQDXR_draw 3333ms linear 166ms forwards;}.JAlNQDXR_2{stroke-dasharray:62 64;stroke-dashoffset:63;animation:JAlNQDXR_draw 3333ms linear 333ms forwards;}.JAlNQDXR_3{stroke-dasharray:62 64;stroke-dashoffset:63;animation:JAlNQDXR_draw 3333ms linear 500ms forwards;}.JAlNQDXR_4{stroke-dasharray:62 64;stroke-dashoffset:63;animation:JAlNQDXR_draw 3333ms linear 666ms forwards;}.JAlNQDXR_5{stroke-dasharray:371 373;stroke-dashoffset:372;animation:JAlNQDXR_draw 3333ms linear 833ms forwards;}.JAlNQDXR_6{stroke-dasharray:495 497;stroke-dashoffset:496;animation:JAlNQDXR_draw 3333ms linear 1000ms forwards;}.JAlNQDXR_7{stroke-dasharray:62 64;stroke-dashoffset:63;animation:JAlNQDXR_draw 3333ms linear 1166ms forwards;}.JAlNQDXR_8{stroke-dasharray:121 123;stroke-dashoffset:122;animation:JAlNQDXR_draw 3333ms linear 1333ms forwards;}.JAlNQDXR_9{stroke-dasharray:121 123;stroke-dashoffset:122;animation:JAlNQDXR_draw 3333ms linear 1500ms forwards;}.JAlNQDXR_10{stroke-dasharray:121 123;stroke-dashoffset:122;animation:JAlNQDXR_draw 3333ms linear 1666ms forwards;}@keyframes JAlNQDXR_draw{100%{stroke-dashoffset:0;}}@keyframes JAlNQDXR_fade{0%{stroke-opacity:1;}95.65217391304348%{stroke-opacity:1;}100%{stroke-opacity:0;}}</style></svg>
