<?xml version="1.0" encoding="utf-8"?>
<!-- Generator: Adobe Illustrator 16.0.0, SVG Export Plug-In . SVG Version: 6.00 Build 0)  -->
<!DOCTYPE svg PUBLIC "-//W3C//DTD SVG 1.1//EN" "http://www.w3.org/Graphics/SVG/1.1/DTD/svg11.dtd">
<svg version="1.1" xmlns="http://www.w3.org/2000/svg" xmlns:xlink="http://www.w3.org/1999/xlink" x="0px" y="0px" width="500px"
	 height="500px" viewBox="0 0 500 500" enable-background="new 0 0 500 500" xml:space="preserve">
<g id="Capa_1" display="none">
	<g id="Capa_9" display="inline">
		<path fill="#FFFFFF" d="M3.222,250C3.222,113.708,113.709,3.222,250,3.222c136.292,0,246.778,110.486,246.778,246.778
			c0,136.291-110.486,246.777-246.778,246.777C113.709,496.778,3.222,386.291,3.222,250"/>
	</g>
	<g id="Capa_4">
		<path display="inline" fill="none" stroke="#003E52" stroke-width="10" stroke-miterlimit="10" d="M193.834,80.682
			c0,0,26.498-16.333,57.166-14.167c32.334,2.667,54.836,8,69.169,12.667s44.665,24.167,58.665,35.167S403.836,137.5,405.669,145
			s-0.666,20.349-5.5,27.016c-4.835,6.667-23.001,11-29.835,12.333c-6.832,1.333-27.832,1.833-39.332,0s-33.492-5.196-54.168-12.516
			c-26.834-9.5-49.333-26.484-62-38.818s-19.833-21.167-22-30.833s-1.48-16.127,4-21"/>
	</g>
	<g id="Capa_5">
		<path display="inline" fill="none" stroke="#003E52" stroke-width="15" stroke-miterlimit="10" d="M211.568,86.811
			c0,0,17.665-11.333,38.666-9.333s31.646,0.667,51.334,7.5s31.333,9.834,42.667,18.167s29.5,19.667,34.333,25.5s10.5,7,15,18.5
			s6.768,14.189-3.732,19.022s-15.767,10.811-34.934,8.478s-57.834-3.833-76.667-13.833s-54-28.167-63.167-42.667
			s-17.167-23.667-9.833-31.167s27.667-11.737,27.333-9.737"/>
	</g>
	<g id="Capa_6">
		<path display="inline" fill="none" stroke="#003E52" stroke-width="20" stroke-miterlimit="10" d="M378.502,154.5
			c5.167-4.167-16.333-26.5-31-32s-20.667-17-49.5-24.5c-28.834-7.5-33-12.167-50.168-10.333
			c-17.167,1.833-30.5,5.167-29.333,11.667s10.333,12.833,22,19.833s26.834,22,45.5,27.5c18.667,5.5,29.999,8.833,50.834,10
			c20.834,1.167,34.168,5.72,40.834,2.72s4.332-12.72,0.666-15.72"/>
	</g>
	<g id="Capa_7">
		<path display="inline" fill="none" stroke="#003E52" stroke-width="25" stroke-miterlimit="10" d="M263.168,102
			c7.5,1.667,24.391,4.5,35.611,10.167s31.889,11.833,36.723,17.667s25.697,11.75,25.373,16.917
			c-0.443,7.077-14.875,2.75-20.041,2.583c-5.165-0.167-14-5.167-25.832-7.5c-11.834-2.333-17.334-6.834-27.501-12.167
			s-19.499-7.5-23.333-12s-28.833-9-26-15s25-3.568,30-1.734"/>
	</g>
	<g id="Capa_8">
		<path display="inline" fill="none" stroke="#003E52" stroke-width="15" stroke-miterlimit="10" d="M193.872,75.094
			C199.5,75,206.75,72,214.5,71s14-4,21.5-3.5s8.75-1.111,20.25-0.057c11.5,1.056,14-1.943,21,1.307s7.5-0.063,18.25,6.344
			s8.25,0.406,15.75,5.656s8.75,1.5,15.25,5.5s3.75-2.25,10,2s3.75-1,10.5,8.75s4.75,0,13.5,9s10.75,3.5,16.5,6.75
			s8.5,4.25,10.75,12S399.5,129.25,400,135s6.5,7,5,12.5s5,9.25-2.5,14.25s1.25,11.25-8,11.25s-14.5,9-26.5,6.25
			s-10.25,5.75-21.75,2.25s-11.75,2.75-27.25-4s-20.25,2.25-29.25-6.25s-14.5,1.5-23.75-8.75s-18-0.25-23.5-12.5
			s-14.25-0.5-17.75-11.25s-16.5-3.063-15-14.031s-12-1.719-7.25-11.969s-19.256-11-8.628-15.75S186,86.5,196.25,84
			s2.75-5.75,19.5-3.5s4-4,26.5-0.25s14-3.5,34.5,3.25s17.5-0.5,39.5,13s18.5,4,31.5,16.25s18,3.75,27.25,17.25s26.75,8,18,18.25
			s0.25,14.75-23.25,9.5s-11,19.5-32,6.75s-18,3.25-37.5-6s-24.25-7-38.25-15.25s-16.25-3.75-25.5-14.75s-22.75-19.5-22-24.5
			S203,93.25,226.25,92s12.25-4,36.5-1.25S321.5,111,321.5,111s14.5,3.25,25,11.75S372,134.25,373,144s-18.25,8.5-31.5,8.75
			s-38-1.25-48.25-7.25s-33-18.063-36.25-20.781s-20.75-8.969-18.75-15.469s7.25-11.5,29.25-6s71.25,26,72,26.25s13,3,15,9.25
			s-12.5,8-35.5,4.25s-57.75-27.25-57.75-27.25s-11.75-10.5,25.5,2s30.75,14,30.75,14l11.5,5.5"/>
	</g>
	<g id="Capa_1_1_">
		<path display="inline" fill="none" stroke="#003E52" stroke-miterlimit="10" d="M4.492,250.196
			C4.297,114.453,115.625,2.735,250.781,2.832C385.937,3.028,497.07,114.844,496.777,250.586
			c-0.293,136.426-111.035,247.655-246.484,247.461C114.258,497.852,4.59,387.305,4.492,250.196z M46.556,221.175
			c-1.188,8.911-1.842,18.042-1.928,27.361c-0.977,114.063,90.039,207.52,203.81,209.18
			c112.793,1.66,206.738-91.113,208.008-205.273c1.271-116.016-87.305-205.664-203.906-206.348
			C144.3,45.555,60.186,118.963,46.556,221.175"/>
		<path display="inline" fill="#003E52" stroke="#E75E0D" stroke-miterlimit="10" d="M344.044,193.067
			c-54.884-2.832-106.056-21.483-145.118-65.526c-27.93-31.445-16.797-61.523,24.902-66.603
			c57.715-6.934,110.254,9.181,155.859,44.922c18.75,14.648,40.918,31.738,32.129,59.277
			C401.953,195.899,372.265,191.602,344.044,193.067z"/>
	</g>
	<g id="Capa_12" display="inline">
		<path fill="none" stroke="#003E52" stroke-miterlimit="10" d="M3.857,249.756C3.662,114.014,114.99,2.295,250.146,2.393
			c135.156,0.195,246.289,112.012,245.996,247.754c-0.293,136.426-111.035,247.656-246.484,247.461
			C113.623,497.411,3.955,386.865,3.857,249.756z M45.921,220.735c-1.188,8.911-1.841,18.042-1.927,27.361
			c-0.977,114.063,90.039,207.52,203.81,209.18c112.793,1.66,206.737-91.112,208.008-205.272
			c1.27-116.017-87.305-205.664-203.906-206.349C143.665,45.115,59.552,118.523,45.921,220.735"/>
	</g>
	<g id="Capa_10" display="inline">
		<path fill="none" stroke="#003E52" stroke-width="10" stroke-miterlimit="10" d="M193.833,81.003
			c-26.667,34.333,73.5,92.499,97.407,96.865c23.31,4.257,108.975,20.412,113.928-18.867c4.834-38.332-77.013-75.622-98.087-83.207
			c-26.747-9.626-108.032-14.498-111.248,10.373c-3.035,23.459,53.332,72.11,96.756,83.003
			c17.798,4.464,98.658,18.784,103.245-12.169c4-27-75.153-68.685-92.5-74.833c-18.335-6.5-95.269-14.067-98.001,6.833
			c-2.581,19.754,63.5,68,88.386,72.894c14.951,2.94,89.406,15.051,92.447-5.894c2.938-20.224-67.42-59.174-81.466-64.875
			c-13.034-5.291-88.555-16.996-90.868,0.542c-2.188,16.604,68.217,63.428,80.829,64.146c12.643,0.721,78.173,8.688,81.673-1.479
			s-50.5-48.667-69-55.001c-18.501-6.334-80.32-18.333-84.501-5.333c-4.18,13,51.334,49.166,71.5,53.833
			c20.167,4.667,71.771,14.744,73.501,3.501c1.666-10.833-41-35.668-63.168-43.834c-22.167-8.166-70.262-19.536-73.666-9.833
			c-3.333,9.5,49.334,37.167,64.334,42s61.166,17.168,63.5,9.5c2.523-8.29-44-28.167-55.666-33.334
			c-11.668-5.167-61.001-22.5-62.834-13.666s44.068,26.333,57.701,30.333s47.26,19.84,50.133,13.334
			c2.874-6.506-40.657-19.835-47.662-22.001c-7.006-2.166-48.536-20.999-49.87-17.333c-1.335,3.666,65.699,29.666,71.699,29.999"/>
	</g>
	<g id="Capa_3" display="inline">
		<path fill="none" stroke="#003E52" stroke-width="5" stroke-miterlimit="10" d="M343.502,190.917
			c-52.869-2.731-103.29-19.521-140.918-62C172.416,96.584,183,66.75,227.833,62.334c55.599-6.688,107.667,11.167,151.001,45.417
			c18.062,14.128,40,31.083,31.25,57.25C400.335,194.334,368.168,190.167,343.502,190.917z"/>
	</g>
	<g id="Capa_2" display="inline">
		<path fill="none" stroke="#003E52" stroke-width="44" stroke-miterlimit="10" d="M358.71,51.35
			c109.952,59.688,150.701,197.209,91.016,307.163c-59.688,109.953-197.21,150.703-307.163,91.016
			C32.608,389.841-8.142,252.32,51.546,142.365C111.233,32.412,248.754-8.337,358.71,51.35"/>
	</g>
	<g id="Capa_11" display="inline">
	</g>
</g>
<g id="Capa_2_1_" display="none">
	<path display="inline" fill="#FFFFFF" d="M2.222,250C2.222,113.708,112.709,3.222,249,3.222
		c136.292,0,246.778,110.486,246.778,246.778c0,136.291-110.486,246.777-246.778,246.777C112.709,496.778,2.222,386.291,2.222,250"
		/>
	<path display="inline" fill="none" stroke="#003E52" stroke-miterlimit="10" d="M2.857,249.756
		C2.662,114.014,113.99,2.295,249.146,2.393c135.156,0.195,246.289,112.012,245.996,247.754
		c-0.293,136.426-111.035,247.656-246.484,247.461C112.623,497.411,2.955,386.865,2.857,249.756z M44.921,220.735
		c-1.188,8.911-1.841,18.042-1.927,27.361c-0.977,114.063,90.039,207.52,203.81,209.18c112.793,1.66,206.737-91.112,208.008-205.272
		c1.27-116.017-87.305-205.664-203.906-206.349C142.665,45.115,58.552,118.523,44.921,220.735"/>
	<path display="inline" fill="none" stroke="#003E52" stroke-width="44" stroke-miterlimit="10" d="M357.71,51.35
		c109.952,59.688,150.701,197.209,91.016,307.163c-59.688,109.953-197.21,150.703-307.163,91.016
		C31.608,389.841-9.142,252.32,50.546,142.365C110.233,32.412,247.754-8.337,357.71,51.35"/>
</g>
<g id="Capa_3_1_" display="none">
	<path display="inline" fill="none" stroke="#003E52" stroke-width="12" stroke-miterlimit="10" d="M155,199.25
		c-28.75,38.5,70.662,94.324,96.75,99.333c23.833,6.365,108.465,19.829,113.418-19.45c4.834-38.332-77.013-75.622-98.087-83.207
		c-26.747-9.626-108.032-14.498-111.248,10.373c-3.583,26.201,53.332,72.11,96.756,83.003
		c17.798,4.464,98.658,18.784,103.245-12.169c4-27-75.153-68.685-92.5-74.833c-18.335-6.5-95.269-14.067-98.001,6.833
		c-2.581,19.754,63.5,68,88.386,72.894c14.951,2.94,89.406,15.051,92.447-5.894c2.938-20.224-67.42-59.174-81.466-64.875
		c-13.034-5.291-88.555-16.996-90.868,0.542c-2.188,16.604,68.217,63.428,80.829,64.146c12.643,0.721,78.173,8.688,81.673-1.479
		s-50.5-48.667-69-55.001c-18.501-6.334-80.32-18.333-84.501-5.333c-4.18,13,51.334,49.166,71.5,53.833
		c20.167,4.667,71.771,14.744,73.501,3.501c1.666-10.833-41-35.668-63.168-43.834c-22.167-8.166-70.262-19.536-73.666-9.833
		c-3.333,9.5,49.334,37.167,64.334,42s61.166,17.168,63.5,9.5c2.523-8.29-44-28.167-55.666-33.334
		c-11.668-5.167-61.001-22.5-62.834-13.666s44.068,26.333,57.701,30.333s47.26,19.84,50.133,13.334
		c2.874-6.506-40.657-19.835-47.662-22.001c-7.006-2.166-48.536-20.999-49.87-17.333c-1.335,3.666,65.699,29.666,71.699,29.999"/>
</g>
<g id="Capa_4_1_" display="none">
	<g display="inline">
		<path fill-rule="evenodd" clip-rule="evenodd" fill="#093E52" d="M525.5,739.5c0-243.833,0.01-487.667-0.094-731.5
			c-0.001-3.749,0.845-4.594,4.594-4.593c637.333,0.097,1274.667,0.097,1912,0c3.749-0.001,4.595,0.844,4.594,4.593
			c-0.104,243.833-0.094,487.667-0.094,731.5C1806.167,739.5,1165.833,739.5,525.5,739.5z M1714.848,544.789
			c0.245,0.261,0.49,0.521,0.735,0.782c0.212,1.557-1.177,3.841,2.064,3.953c2.76,0.096,3.49-1.069,3.96-3.752
			c1.88-10.733,4.14-21.401,6.313-32.082c0.374-1.836,1.776-4.109-0.747-5.015c-2.615-0.938-4.872,0.042-4.927,3.526
			c-6.596-4.548-13.133-5.491-19.891-1.12c-8.008,5.181-12.991,21.338-10.021,31.304c1.091,3.661,2.824,6.54,6.621,6.995
			C1704.78,550.08,1710.543,549.733,1714.848,544.789z M1514.151,513.211c-0.245-0.26-0.49-0.521-0.735-0.781
			c0.242-2.021-0.021-3.72-2.561-3.907c-1.673-0.124-2.938,0.368-3.311,2.223c-2.341,11.665-4.745,23.317-6.959,35.007
			c-0.242,1.276-1.082,3.58,1.774,3.729c2.172,0.114,3.783-0.133,4.207-2.94c0.754-4.986,1.811-9.938,2.966-14.851
			c1.782-7.579,4.903-14.234,12.719-17.526c2.93-1.233,5.069-0.623,6.533,2.12c1.243,2.328,0.782,4.759,0.251,7.213
			c-1.552,7.166-3.128,14.33-4.405,21.547c-0.245,1.384-1.41,3.936,1.523,4.39c2.344,0.363,4.151-0.049,4.437-3.183
			c0.292-3.222,1.313-6.372,1.901-9.574c1.346-7.311,2.895-14.621,9.039-19.567c2.618-2.108,5.531-5.335,9.571-2.646
			c3.603,2.397,2.513,5.894,1.789,9.282c-1.499,7.012-3.045,14.021-4.227,21.088c-0.241,1.44-1.71,4.267,1.773,4.641
			c2.586,0.277,3.702-0.642,4.172-3.507c1.265-7.709,3.011-15.342,4.669-22.982c1.305-6.013-0.946-13.212-5.077-14.104
			c-5.259-1.135-10.554-0.921-14.812,3.229c-2.008,1.956-3.896,5.441-5.51-0.482c-0.529-1.945-3.038-2.902-5.293-3.109
			C1523.11,508.014,1518.052,508.847,1514.151,513.211z M1909.5,416.215c0,5.952,0.318,10.964-0.087,15.917
			c-0.431,5.27,2.514,7.234,6.8,8.359c7.497,1.968,15.25,1.579,22.683,0.734c7.813-0.889,10.679-2.431,10.672-8.441
			c-0.101-80.483-0.079-160.968-0.036-241.452c0.003-4.392-1.629-6.865-6.113-7.949c-11.372-2.751-22.679-2.517-34.068-0.296
			c-5.304,1.034-6.967,4.126-6.933,9.37c0.178,27.494,0.095,54.989,0.047,82.483c-0.002,1.365,0.641,2.916-0.667,4.314
			c-16.393-16.569-35.492-24.9-59.195-20.835c-18.331,3.144-32.743,11.952-43.14,27.361c-11.752,17.419-15.562,37.252-16.848,57.642
			c-0.976,15.454,0.292,30.86,3.869,46.015c3.017,12.781,7.937,24.585,16.894,34.444c10.247,11.279,22.538,17.996,38.01,19.879
			c13.761,1.674,26.6,0.102,39.008-5.699C1891.302,432.963,1899.978,424.78,1909.5,416.215z M828.276,376.422
			c0.198,52.889,20.046,103.133,59.769,144.842c40.244,42.257,90.346,64.87,148.64,67.021
			c60.955,2.248,114.332-18.07,158.457-60.206c40.585-38.757,62.919-86.903,66.184-142.967
			c3.764-64.642-17.396-120.886-62.888-166.786c-41.16-41.528-92.205-62.841-150.622-63.561
			c-60.529-0.746-113.39,20.547-156.158,63.461C849.75,260.275,828.459,311.704,828.276,376.422z M1597.197,362.5
			c15.496,0,31-0.306,46.485,0.106c10.528,0.28,15.808-6.22,15.818-15.924c0.011-9.885-0.013-19.716-1.899-29.534
			c-2.516-13.094-6.768-25.368-15.56-35.519c-14.213-16.408-33.083-22.951-54.139-24.063c-8.87-0.469-17.705,0.036-26.521,1.844
			c-19.091,3.913-35.16,12.757-46.625,28.624c-12.446,17.226-17.229,37.147-18.221,58.071c-0.609,12.856,0.304,25.654,2.992,38.261
			c2.99,14.023,8.602,26.851,18.68,37.29c16.093,16.672,37.017,21.34,58.973,22.76c13.834,0.894,27.631-0.415,41.264-2.953
			c8.562-1.594,17.051-3.594,25.111-6.999c3.777-1.597,6.102-4.177,7.118-8.57c1.303-5.63,0.665-11.181,0.765-16.751
			c0.183-10.143-3.639-12.825-12.882-9.191c-19.898,7.822-40.356,11.644-61.713,8.487c-7.808-1.153-15.134-4.284-20.624-9.935
			c-8.437-8.682-10.918-19.927-11.776-31.659c-0.25-3.427,0.667-4.484,4.267-4.437C1564.871,362.619,1581.035,362.5,1597.197,362.5z
			 M2087.13,362.5c15.496,0,31-0.313,46.485,0.107c10.646,0.289,15.824-6.264,15.894-15.857c0.072-10.057-0.012-20.069-1.951-30.026
			c-2.545-13.069-6.941-25.291-15.813-35.405c-14.465-16.491-33.545-22.779-54.773-23.776c-8.554-0.402-17.045,0.183-25.519,1.883
			c-19.109,3.833-35.175,12.695-46.662,28.553c-12.363,17.066-17.167,36.826-18.241,57.563c-0.674,13.018,0.262,25.984,2.973,38.762
			c2.978,14.031,8.58,26.86,18.642,37.306c16.072,16.686,36.989,21.399,58.951,22.805c13.831,0.886,27.631-0.377,41.266-2.939
			c8.562-1.609,17.048-3.591,25.114-6.992c3.788-1.598,6.122-4.152,7.171-8.521c1.393-5.793,0.662-11.515,0.769-17.251
			c0.175-9.431-2.427-11.379-11.413-9.196c-0.477,0.116-0.968,0.202-1.421,0.383c-19.704,7.822-39.979,11.64-61.196,8.588
			c-8.21-1.181-15.727-4.407-21.474-10.3c-8.085-8.289-10.288-19.148-11.47-30.271c-0.436-4.104,0.481-5.662,5.185-5.553
			C2055.466,362.729,2071.301,362.5,2087.13,362.5z M1402.48,444.664c4.39,0.325,11.716-0.808,18.946-2.231
			c13.411-2.641,25.748-7.478,35.496-17.75c7.645-8.057,12.084-17.23,13.781-28.304c2.597-16.945-0.941-31.748-12.985-44.091
			c-9.32-9.552-21.621-14.006-33.678-18.788c-8.66-3.437-17.89-5.658-25.64-11.075c-5.737-4.01-10.401-9.151-8.777-16.869
			c1.597-7.588,6.623-12.294,14.264-14.037c8.321-1.899,16.577-1.237,24.817,0.598c8.885,1.979,17.118,5.664,25.326,9.455
			c4.382,2.024,6.238,0.969,7.517-3.418c1.856-6.366,0.978-12.836,0.816-19.221c-0.193-7.629-4.71-12.429-11.835-14.943
			c-10.314-3.641-20.937-5.8-31.828-6.447c-8.732-0.519-17.42,0.152-26.006,1.954c-11.566,2.428-22.3,6.685-31.271,14.598
			c-18.454,16.28-20.935,46.312-7.796,66.037c8.123,12.194,20.886,17.682,33.532,23.398c9.673,4.373,20.255,6.665,29.114,12.916
			c5.979,4.217,10.378,9.222,9.19,17.132c-1.146,7.631-5.937,12.475-12.974,14.825c-9.551,3.19-19.435,3.073-29.018,0.458
			c-9.786-2.671-19.301-6.241-27.987-11.776c-5.496-3.503-8.554-1.57-10.1,4.822c-1.477,6.106-1.063,12.219-0.725,18.248
			c0.366,6.5,2.996,11.933,9.781,14.943C1368.818,441.477,1383.804,444.376,1402.48,444.664z M2188.5,311.513
			c0,39.993,0.113,79.986-0.123,119.978c-0.035,5.936,2.5,7.764,8.021,8.984c1.265,0.28,2.592,0.278,3.891,0.405
			c10,0.977,19.944,1.356,29.834-1.232c4.114-1.077,5.454-3.379,5.431-7.437c-0.116-19.829-0.053-39.659-0.053-59.488
			c0-60.489-0.031-120.979,0.059-181.468c0.007-4.956-1.383-7.877-6.676-9.032c-11.243-2.454-22.361-2.33-33.595-0.107
			c-5.438,1.076-6.881,4.241-6.863,9.42C2188.561,231.528,2188.5,271.521,2188.5,311.513z M1698.5,351.634
			c0,26.66,0.164,53.322-0.132,79.979c-0.063,5.657,2.51,7.752,8.15,8.863c1.422,0.279,2.95,0.496,4.308,0.583
			c10.004,0.637,20.059,1.36,29.891-1.55c3.179-0.94,4.828-2.849,4.824-6.414c-0.059-54.32-0.057-108.641-0.01-162.961
			c0.004-4.2-1.57-6.666-5.818-7.696c-11.51-2.79-22.956-2.647-34.515-0.255c-5.187,1.073-6.792,3.942-6.765,8.971
			C1698.574,297.98,1698.5,324.807,1698.5,351.634z M1722.184,187.676c-4.665-1.031-9.277,0.163-13.687,1.057
			c-5.91,1.197-10.155,4.788-12.256,11.188c-1.973,6.012-2.09,11.994-1.598,17.957c0.686,8.312,3.825,15.344,13.197,17.362
			c9.127,1.966,18.314,1.894,27.337-0.127c5.819-1.303,9.65-5.118,11.659-11.204c1.927-5.838,2.374-11.777,1.475-17.472
			c-1.856-11.738-3.528-14.896-13.465-17.649C1730.827,187.674,1726.525,186.725,1722.184,187.676z M1866.935,513.165
			c-1.076-1.708,1.647-4.181-1.66-4.621c-2.46-0.328-3.492,0.751-3.935,3.247c-1.105,6.242-2.61,12.413-3.828,18.637
			c-1.064,5.439-2.759,10.769-2.998,16.355c-0.058,1.332-0.168,2.745,1.895,2.715c1.705-0.024,3.531,0.132,3.984-2.03
			c0.503-2.396,0.745-4.848,1.108-7.273c1.403-9.35,3.377-18.439,11.491-24.656c2.312-1.771,4.951-3.263,7.612-1.249
			c2.252,1.704,3.219,4,2.43,7.345c-1.869,7.926-3.096,16.005-4.523,24.033c-0.278,1.563-1.546,3.557,1.682,3.877
			c2.532,0.251,3.725-0.937,4.21-3.058c0.51-2.225,0.706-4.52,1.108-6.771c1.627-9.088,3.243-18.18,11.447-24.169
			c2.365-1.728,4.961-3.253,7.622-1.277c2.267,1.684,3.251,3.997,2.468,7.337c-1.858,7.929-3.105,16.002-4.532,24.029
			c-0.274,1.544-1.595,3.563,1.645,3.904c2.516,0.266,3.805-0.883,4.241-3.02c1.764-8.625,3.63-17.24,5.017-25.929
			c1.204-7.544-3.218-12.016-10.887-12.144c-5.773-0.097-9.327,4.044-13.723,6.66
			C1886.157,506.643,1880.899,506.21,1866.935,513.165z M1633.452,514.5c1.997,0,3.995,0.029,5.992-0.007
			c2.698-0.049,4.552-0.523,3.349,3.892c-2.393,8.778-3.69,17.864-5.199,26.864c-0.256,1.527-1.315,4.267,2.26,4.276
			c2.479,0.007,3.296-0.971,3.733-3.471c1.967-11.23,4.122-22.432,6.5-33.582c0.667-3.128-0.442-3.952-3.113-3.963
			c-5.326-0.021-10.659-0.174-15.977,0.043c-4.187,0.17-6.964-0.119-4.683-5.521c0.492-1.166,1.657-4.205-1.838-4.52
			c-2.659-0.239-3.911,0.725-4.052,3.614c-0.175,3.585-0.591,7.192-5.958,6.584c-1.402-0.159-2.989,1.542-2.881,3.478
			c0.105,1.885,1.527,2.413,3.189,2.3c3.833-0.262,2.879,2.471,2.507,4.364c-1.098,5.584-3.03,11.065-3.521,16.685
			c-0.351,4.008-2.289,8.905,1.662,12.204c3.265,2.725,7.369,2.261,11.285,1.079c1.993-0.601,3.365-1.864,2.665-4.004
			c-0.759-2.318-2.49-1.15-4.054-0.747c-4.741,1.222-5.866,0.315-5.798-4.77c0.072-5.434,1.745-10.598,2.889-15.854
			C1624.352,514.514,1624.291,514.5,1633.452,514.5z M1590.975,544.823c1.227,1.677-0.876,4.854,3.021,4.748
			c3.484-0.096,3.151-2.254,3.614-4.64c2.075-10.688,4.464-21.314,6.64-31.983c0.297-1.455,1.26-3.584-0.897-4.256
			c-1.784-0.556-4.185-0.793-4.803,1.968c-0.774,3.462-1.843,0.333-2.404,0.035c-8.983-4.763-17.47-2.736-23.071,5.671
			c-4.632,6.952-5.918,14.731-5.584,22.913c0.271,6.636,3.92,10.068,10.578,10.265
			C1583.051,549.69,1587.355,548.243,1590.975,544.823z M2085.048,544.93c1.163,1.556-0.953,4.743,2.947,4.643
			c3.343-0.087,3.022-2.778,3.367-4.457c2.228-10.855,4.077-21.789,6.295-32.646c0.362-1.774,1.184-3.245-1.109-3.843
			c-1.669-0.435-3.577-0.257-3.939,1.896c-0.441,2.625-1.255,1.982-2.813,0.82c-6.269-4.676-14.563-4.102-20.091,1.495
			c-7.552,7.646-8.776,17.264-8.225,27.411c0.297,5.46,3.934,8.817,9.442,9.331C2076.423,550.095,2080.714,547.558,2085.048,544.93z
			 M1826.334,549.48c3.406,0.09,6.805-0.099,10.109-2.252c7.024-4.577,9.722-11.205,11.326-19.108
			c3.126-15.4-5.933-22.176-20.31-19.104c-7.979,1.704-16.204,13.373-16.093,25.59
			C1811.456,544.393,1815.889,550.505,1826.334,549.48z M1429.462,534.226c0.038,8.503,0.038,8.503,2.481,11.233
			c3.795,4.241,13.895,5.682,19.809,2.967c12.87-5.909,15.18-20.769,13.366-31.546c-0.513-3.046-2.558-6.091-6.133-7.187
			c-6.343-1.943-12.651-2.422-18.479,1.379C1432.172,516.508,1429.257,524.66,1429.462,534.226z M1429.042,490.582
			c-6.886-0.085-9.761,1.728-12.56,8.112c-0.839,1.914-1.901,4.023-1.803,5.99c0.184,3.68-1.612,4.109-4.488,3.837
			c-2.057-0.195-3.639,0.385-3.677,2.885c-0.03,2.052,0.932,3.179,2.992,3.066c3.403-0.185,3.126,1.438,2.556,4.045
			c-2.021,9.223-3.888,18.485-5.523,27.784c-1.563,8.888-2.883,10.627-11.199,12.162c-2.186,0.403-2.688,2.021-2.688,3.476
			c0.001,2.016,2.022,2.438,3.594,2.502c7.786,0.322,13.361-3.688,15.238-12.803c1.969-9.563,4.3-19.077,5.666-28.728
			c0.844-5.963,1.982-10.046,9.285-8.491c2.328,0.495,2.99-1.302,3.101-3.454c0.133-2.59-1.458-2.406-3.195-2.486
			c-6.538-0.302-6.966-0.963-4.79-6.996c1.899-5.269,4.964-6.895,10.828-5.53c1.302,0.303,2.659,1.276,3.014-0.82
			c0.3-1.773,0.538-3.916-1.877-4.49C1432.099,490.307,1430.538,490.582,1429.042,490.582z M2194.481,522.643
			c0.187-3.586,0.566-8.046-3.631-11.312c-6.796-5.287-21.31-3.148-26.311,3.896c-4.865,6.852-6.67,14.405-6.09,22.737
			c0.394,5.645,3.023,10.23,8.479,11.153c5.589,0.946,11.548,1.525,16.688-2.259
			C2191.488,541.064,2194.942,533.209,2194.481,522.643z M2213.784,512.919c-0.899-1.515,1.073-4.694-2.853-4.466
			c-3.084,0.181-3.048,2.281-3.45,4.406c-2.03,10.715-4.088,21.426-6.254,32.114c-0.341,1.683-1.853,3.612,0.725,4.385
			c2.562,0.768,4.788,0.215,5.277-3.198c0.6-4.188,1.421-8.351,2.294-12.493c1.538-7.305,3.985-14.111,10.733-18.407
			c2.291-1.458,4.801-2.904,7.262-1.065c2.665,1.991,3.421,4.772,2.562,8.326c-1.797,7.43-3.212,14.961-4.461,22.505
			c-0.235,1.424-1.559,4.256,2.001,4.479c2.741,0.173,3.536-0.998,3.992-3.709c1.294-7.691,3.273-15.266,4.639-22.947
			c0.819-4.614,0.841-9.226-3.497-12.635c-3.759-2.954-7.63-1.588-11.647-0.975C2218.159,509.689,2216.491,512.255,2213.784,512.919
			z M1374.986,513.275c-1.09-1.892,0.852-5.014-3.072-4.837c-3.082,0.139-3.072,1.898-3.511,4.235
			c-2.015,10.721-4.337,21.384-6.524,32.072c-0.341,1.663-1.398,3.866,0.941,4.586c2.411,0.741,4.401,0.131,4.866-3.193
			c0.628-4.492,1.792-8.914,2.829-13.343c1.789-7.636,4.293-14.798,12.24-18.392c2.25-1.018,4.399-1.717,6.347,0.273
			c1.769,1.808,2.714,3.803,2.083,6.646c-1.765,7.947-3.105,15.988-4.787,23.956c-0.381,1.809-1.545,3.505,1.278,4.164
			c2.533,0.591,4.235-0.437,4.73-2.929c1.748-8.79,3.836-17.547,4.904-26.424c0.762-6.331-2.636-11.96-9.93-11.668
			C1382.749,508.609,1378.704,509.75,1374.986,513.275z M1945.166,545.078c1.03,1.427-1.065,4.688,2.846,4.472
			c3.066-0.168,3.104-2.224,3.505-4.364c1.979-10.579,3.91-21.17,6.142-31.697c0.478-2.257,1.688-4.258-1.573-4.915
			c-3.202-0.645-3.961,2.021-4.47,4.171c-0.936,3.963-1.262,8.067-2.167,12.039c-1.62,7.103-4.104,13.748-10.692,17.969
			c-2.687,1.722-5.409,2.732-8.216,0.677c-2.657-1.945-2.279-4.813-1.706-7.627c1.563-7.667,3.21-15.319,4.55-23.024
			c0.235-1.354,1.441-3.936-1.716-4.249c-2.498-0.248-3.796,0.444-4.275,3.397c-1.251,7.713-3.177,15.313-4.559,23.008
			c-0.789,4.393-1.294,9.215,2.347,12.54c3.611,3.299,8.198,2.237,12.654,1.35C1940.733,548.245,1942.476,545.842,1945.166,545.078z
			 M1977.031,513.05c-1.356-1.402,0.936-4.77-2.924-4.599c-3.368,0.15-3.202,2.467-3.638,4.729
			c-2.061,10.706-4.179,21.401-6.383,32.078c-0.324,1.57-1.604,3.404,0.676,4.067c2.051,0.597,4.275,0.538,4.819-2.633
			c0.797-4.637,1.812-9.245,2.947-13.813c1.746-7.021,3.858-13.891,10.818-17.751c2.461-1.364,5.053-2.976,7.664-0.523
			c2.312,2.171,2.778,4.732,2.018,8.052c-1.818,7.927-3.087,15.981-4.498,23.998c-0.279,1.586-0.024,2.982,2.241,2.866
			c1.775-0.091,3.421-0.183,3.675-2.402c1.019-8.921,3.583-17.56,4.93-26.397c1.226-8.046-4.095-12.833-10.833-12.366
			C1984.007,508.671,1980.583,510.809,1977.031,513.05z M2117.181,549.495c1.33,0,2.692,0.184,3.986-0.035
			c3.727-0.63,7.236-1.735,9.398-5.244c0.827-1.341,1.513-2.609,0.106-3.99c-1.553-1.524-2.22,0.219-3.271,0.798
			c-1.859,1.024-3.764,1.989-5.724,2.799c-5.695,2.352-11.128-1.271-11.173-7.407c-0.025-3.447-0.075-6.862,0.971-10.257
			c3.028-9.832,10.695-16.516,19.959-10.101c1.677,1.161,3.16,2.37,4.573,0.269c1.314-1.956,0.36-3.767-1.382-5.181
			c-4.663-3.786-16.313-3.681-21.235,0.782c-6.173,5.598-8.021,12.739-9.414,20.438
			C2102.523,540.4,2105.797,551.543,2117.181,549.495z M2039.076,549.496c1.332,0,2.754,0.304,3.98-0.057
			c3.947-1.158,8.427-1.576,9.856-6.669c0.302-1.076,0.567-1.759-0.273-2.591c-0.976-0.966-1.714-0.487-2.552,0.216
			c-2.299,1.931-5.114,2.878-7.897,3.746c-4.4,1.372-8.751-1.159-9.664-5.607c-1.365-6.646,0.162-12.793,3.776-18.426
			c4.605-7.177,9.997-8.518,17.025-4.123c1.637,1.024,3.094,2.565,4.599,0.435c1.556-2.204,0.4-4.222-1.613-5.478
			c-5.413-3.377-11.521-3.905-16.981-1.209c-10.506,5.188-13.383,15.164-13.757,25.911
			C2025.232,545.447,2029.472,549.5,2039.076,549.496z M1803.109,539.518c-3.655,0.876-5.875,3.51-9.195,4.312
			c-5.993,1.446-8.816,0.49-10.407-5.282c-2.167-7.86,0.208-14.88,5.371-20.804c4.616-5.296,8.553-5.448,14.698-1.784
			c1.666,0.992,3.889,3.061,5.512,0.185c1.438-2.549-0.227-4.409-2.494-5.605c-5.589-2.95-11.305-2.962-17.075-0.557
			c-10.708,4.464-15.054,22.603-12.42,31.509c2.507,8.482,8.729,9.532,18.632,7.187
			C1803.808,546.763,1803.834,546.142,1803.109,539.518z M1682.911,539.446c-3.327,0.983-5.762,3.606-9.162,4.487
			c-6.623,1.714-10.979-1.333-11.301-8.142c-0.216-4.557,0.854-8.846,2.419-12.938c3.304-8.644,11.929-11.884,18.311-7.088
			c1.649,1.239,3.595,3.057,4.931,0.921c1.198-1.916,0.98-4.678-1.993-6.122c-6.153-2.989-12.311-3.328-18.253,0.134
			c-11.204,6.527-12.82,21.458-10.89,31.521c0.887,4.62,4.711,7.286,9.794,7.28c2.164-0.002,4.34,0.142,6.489-0.032
			C1680.251,548.904,1683.874,545.203,1682.911,539.446z M1485.125,513.544c-1.211-2.189,0.695-5.334-3.225-5.093
			c-3.121,0.191-3.001,2.338-3.42,4.44c-2.195,11.01-4.473,22.003-6.685,33.011c-0.27,1.34-1.169,3.131,1.169,3.511
			c1.605,0.262,3.515,0.486,4.305-1.511c0.594-1.498,0.872-3.127,1.22-4.714c1.253-5.705,1.5-11.726,4.086-17.018
			c2.944-6.025,5.568-12.98,14.529-11.653c2.639,0.391,2.566-1.702,2.77-3.091c0.248-1.694-0.547-2.808-2.678-2.982
			C1492.45,508.054,1488.343,508.988,1485.125,513.544z M1311.498,564.495c6.488,0,12.979-0.099,19.464,0.049
			c2.521,0.058,3.178-1.577,3.405-3.317c0.283-2.169-1.333-2.745-3.224-2.727c-2.162,0.021-4.325,0-6.488,0
			c-10.148,0.001-20.298,0.032-30.446-0.019c-2.424-0.013-3.635,0.785-3.758,3.422c-0.141,3.007,1.772,2.594,3.577,2.595
			C1299.851,564.501,1305.675,564.499,1311.498,564.495z M1745.235,564.498c6.157,0,12.315-0.021,18.474,0.011
			c2.017,0.011,3.678-0.292,3.773-2.82c0.107-2.81-1.638-3.272-3.898-3.196c-1.496,0.05-2.995,0.008-4.493,0.008
			c-10.152,0-20.307,0.133-30.454-0.08c-3.017-0.063-4.687,1.502-4.849,3.776c-0.212,2.975,2.633,2.257,4.472,2.278
			C1733.918,564.543,1739.576,564.5,1745.235,564.498z M1345.71,549.441c3.479,0.922,3.27-2.357,3.602-3.946
			c2.258-10.807,4.172-21.685,6.23-32.534c0.339-1.784,1.912-3.844-1.444-4.436c-2.967-0.523-4.085,1.025-4.603,3.652
			c-2.227,11.302-4.501,22.594-6.819,33.877C1342.146,548.626,1342.809,549.92,1345.71,549.441z M2019.562,512.603
			c-0.278-1.941,0.756-4.123-2.411-4.156c-2.76-0.027-3.224,1.738-3.625,3.709c-2.312,11.322-4.606,22.648-6.867,33.982
			c-0.218,1.094-0.655,2.696,0.613,3.117c1.474,0.489,3.419,0.863,4.597-0.762c0.844-1.163,1.484-2.469,1.672-4.03
			c0.37-3.068,0.977-6.111,1.563-9.15C2016.588,527.635,2018.114,519.966,2019.562,512.603z M2139.112,547.055
			c-0.334,0.809-0.497,2.125,2.032,2.477s3.819-0.919,4.249-2.996c2.413-11.646,4.698-23.317,7.028-34.98
			c0.495-2.477-0.606-3.132-2.979-3.104c-2.95,0.034-3.047,2.364-3.407,4.079C2143.685,523.692,2141.526,534.894,2139.112,547.055z
			 M2192.696,490.872c-6.579-0.625-8.414,0.837-12.333,9.093c-0.563,1.186-1.694,2.523-0.037,3.289
			c1.145,0.529,3.09,0.959,4.014-0.547C2186.78,498.731,2190.691,495.781,2192.696,490.872z M1600.426,492.387
			c0.085-1.157-0.226-1.854-1.296-1.83c-1.919,0.042-4.075-0.715-5.464,1.364c-1.896,2.841-3.808,5.676-5.598,8.584
			c-1.239,2.013-0.598,3.078,1.83,3.001c1.172-0.037,2.312,0.022,3.123-1.089C1595.509,499.013,1598.027,495.632,1600.426,492.387z
			 M2019.173,501.526c2.896-0.227,4.351-1.73,4.342-4.731c-0.007-2.244-0.948-3.503-3.236-3.25c-2.952,0.325-4.673,2.02-4.745,5.073
			C2015.474,501.072,2017.079,501.606,2019.173,501.526z M1356.5,501.414c1.357-0.28,3.085-1.507,3.021-4.6
			c-0.045-2.228-0.918-3.513-3.224-3.272c-2.966,0.308-4.677,2.005-4.765,5.055C1351.463,501.043,1353.047,501.608,1356.5,501.414z
			 M2155.476,497.66c0.102-2.236-0.039-4.312-2.988-4.119c-2.818,0.184-3.958,1.9-4.016,4.642c-0.043,2.065,0.101,3.457,2.839,3.388
			C2154.165,501.498,2155.871,500.779,2155.476,497.66z M1653.48,497.608c0.143-2.361-0.269-4.282-3.095-4.061
			c-2.825,0.222-3.846,2.021-3.927,4.739c-0.065,2.207,0.352,3.325,2.951,3.286C1652.363,501.529,1653.866,500.582,1653.48,497.608z
			"/>
		<path fill-rule="evenodd" clip-rule="evenodd" fill="#FEFEFE" d="M525.5,739.5c640.333,0,1280.667,0,1921,0
			c0,113.667-0.02,227.333,0.096,341c0.003,3.424-0.672,4.095-4.096,4.094c-637.667-0.098-1275.333-0.098-1913,0
			c-3.424,0-4.099-0.67-4.096-4.094C525.519,966.833,525.5,853.167,525.5,739.5z"/>
		<path fill-rule="evenodd" clip-rule="evenodd" fill="#FEFEFE" d="M1909.5,416.215c-9.521,8.564-18.197,16.748-29.105,21.847
			c-12.408,5.801-25.247,7.373-39.008,5.699c-15.472-1.883-27.763-8.6-38.01-19.879c-8.957-9.859-13.877-21.663-16.894-34.444
			c-3.577-15.154-4.845-30.561-3.869-46.015c1.286-20.39,5.096-40.223,16.848-57.642c10.396-15.409,24.809-24.218,43.14-27.361
			c23.703-4.065,42.803,4.266,59.195,20.835c1.308-1.398,0.665-2.949,0.667-4.314c0.048-27.494,0.131-54.989-0.047-82.483
			c-0.034-5.244,1.629-8.336,6.933-9.37c11.39-2.221,22.696-2.455,34.068,0.296c4.484,1.084,6.116,3.558,6.113,7.949
			c-0.043,80.484-0.064,160.969,0.036,241.452c0.007,6.011-2.858,7.553-10.672,8.441c-7.433,0.845-15.186,1.233-22.683-0.734
			c-4.286-1.125-7.23-3.09-6.8-8.359C1909.818,427.179,1909.5,422.167,1909.5,416.215z M1902.5,350.75
			c0-8.162-0.044-16.323,0.03-24.484c0.02-2.075-0.585-3.562-1.914-5.292c-4.858-6.329-10.454-11.883-16.816-16.589
			c-14.316-10.59-32.75-9.818-43.67,6.864c-6.733,10.288-8.628,21.895-9.505,33.695c-0.474,6.371-0.171,12.808,0.712,19.267
			c1.173,8.583,2.774,16.888,6.895,24.577c6.845,12.776,18.422,18.111,32.272,14.738c13.368-3.256,21.747-13.063,30.027-23.004
			c1.693-2.032,2.063-4.227,2.018-6.789C1902.412,366.074,1902.5,358.411,1902.5,350.75z"/>
		<path fill-rule="evenodd" clip-rule="evenodd" fill="#FEFEFE" d="M828.276,376.422c0.183-64.718,21.474-116.147,63.381-158.196
			c42.769-42.914,95.629-64.207,156.158-63.461c58.417,0.72,109.462,22.032,150.622,63.561
			c45.491,45.9,66.651,102.145,62.888,166.786c-3.265,56.063-25.599,104.21-66.184,142.967
			c-44.125,42.136-97.502,62.454-158.457,60.206c-58.294-2.15-108.396-24.764-148.64-67.021
			C848.322,479.555,828.474,429.311,828.276,376.422z M1045.173,569.63c50.311-0.368,94.692-16.79,132.065-50.541
			c43.308-39.111,65.538-88.598,65.951-146.686c0.363-51.154-17.044-96.65-51.953-134.484
			c-36.917-40.011-83.084-61.797-137.432-64.216c-54.302-2.417-102.304,14.934-142.496,51.686
			c-42.361,38.735-64.164,87.658-64.556,144.779C845.999,480.412,935.044,570.299,1045.173,569.63z"/>
		<path fill-rule="evenodd" clip-rule="evenodd" fill="#FEFEFE" d="M1597.197,362.5c-16.162,0-32.326,0.119-48.486-0.092
			c-3.6-0.048-4.517,1.01-4.267,4.437c0.858,11.732,3.34,22.978,11.776,31.659c5.49,5.65,12.816,8.781,20.624,9.935
			c21.356,3.156,41.814-0.665,61.713-8.487c9.243-3.634,13.064-0.951,12.882,9.191c-0.1,5.57,0.538,11.121-0.765,16.751
			c-1.017,4.394-3.341,6.974-7.118,8.57c-8.061,3.405-16.55,5.405-25.111,6.999c-13.633,2.538-27.43,3.847-41.264,2.953
			c-21.956-1.42-42.88-6.088-58.973-22.76c-10.078-10.439-15.689-23.267-18.68-37.29c-2.688-12.606-3.602-25.404-2.992-38.261
			c0.992-20.924,5.774-40.846,18.221-58.071c11.465-15.867,27.534-24.711,46.625-28.624c8.815-1.808,17.65-2.313,26.521-1.844
			c21.056,1.112,39.926,7.655,54.139,24.063c8.792,10.15,13.044,22.425,15.56,35.519c1.887,9.818,1.91,19.649,1.899,29.534
			c-0.011,9.704-5.29,16.204-15.818,15.924C1628.197,362.195,1612.693,362.5,1597.197,362.5z M1578.661,332.5
			c10.483,0,20.967-0.016,31.45,0.014c1.904,0.005,3.45,0.231,3.453-2.674c0.015-15.766-5.485-36.095-27.178-38.947
			c-10.609-1.396-20.311,0.364-28.667,7.801c-9.205,8.192-11.435,19.199-13.222,30.498c-0.404,2.556,0.528,3.412,3.214,3.371
			C1558.026,332.407,1568.344,332.5,1578.661,332.5z"/>
		<path fill-rule="evenodd" clip-rule="evenodd" fill="#FEFEFE" d="M2087.13,362.5c-15.829,0-31.664,0.229-47.484-0.141
			c-4.703-0.109-5.62,1.449-5.185,5.553c1.182,11.122,3.385,21.981,11.47,30.271c5.747,5.893,13.264,9.119,21.474,10.3
			c21.217,3.052,41.492-0.766,61.196-8.588c0.453-0.181,0.944-0.267,1.421-0.383c8.986-2.183,11.588-0.234,11.413,9.196
			c-0.106,5.736,0.624,11.458-0.769,17.251c-1.049,4.369-3.383,6.924-7.171,8.521c-8.066,3.401-16.553,5.383-25.114,6.992
			c-13.635,2.563-27.435,3.825-41.266,2.939c-21.962-1.405-42.879-6.119-58.951-22.805c-10.062-10.445-15.664-23.274-18.642-37.306
			c-2.711-12.777-3.646-25.744-2.973-38.762c1.074-20.736,5.878-40.496,18.241-57.563c11.487-15.857,27.553-24.72,46.662-28.553
			c8.474-1.7,16.965-2.285,25.519-1.883c21.229,0.997,40.309,7.285,54.773,23.776c8.871,10.114,13.268,22.336,15.813,35.405
			c1.939,9.957,2.023,19.97,1.951,30.026c-0.069,9.594-5.248,16.146-15.894,15.857C2118.13,362.188,2102.626,362.5,2087.13,362.5z
			 M2068.662,332.5c10.482,0,20.966-0.016,31.449,0.014c1.905,0.005,3.45,0.231,3.453-2.674
			c0.015-15.766-5.486-36.095-27.178-38.947c-10.609-1.396-20.311,0.364-28.667,7.801c-9.204,8.192-11.435,19.198-13.222,30.497
			c-0.404,2.554,0.527,3.413,3.215,3.372C2048.027,332.407,2058.344,332.5,2068.662,332.5z"/>
		<path fill-rule="evenodd" clip-rule="evenodd" fill="#FEFEFE" d="M1402.48,444.664c-18.676-0.288-33.662-3.188-48.036-9.566
			c-6.785-3.011-9.415-8.443-9.781-14.943c-0.339-6.029-0.752-12.142,0.725-18.248c1.546-6.393,4.604-8.325,10.1-4.822
			c8.687,5.535,18.201,9.105,27.987,11.776c9.583,2.615,19.467,2.732,29.018-0.458c7.037-2.351,11.827-7.194,12.974-14.825
			c1.188-7.91-3.212-12.915-9.19-17.132c-8.859-6.251-19.441-8.543-29.114-12.916c-12.646-5.717-25.409-11.204-33.532-23.398
			c-13.139-19.726-10.658-49.757,7.796-66.037c8.971-7.913,19.704-12.17,31.271-14.598c8.586-1.802,17.273-2.473,26.006-1.954
			c10.892,0.647,21.514,2.807,31.828,6.447c7.125,2.515,11.642,7.314,11.835,14.943c0.161,6.385,1.04,12.854-0.816,19.221
			c-1.278,4.387-3.135,5.442-7.517,3.418c-8.208-3.791-16.441-7.476-25.326-9.455c-8.24-1.835-16.496-2.497-24.817-0.598
			c-7.641,1.743-12.667,6.449-14.264,14.037c-1.624,7.718,3.04,12.859,8.777,16.869c7.75,5.417,16.979,7.639,25.64,11.075
			c12.057,4.782,24.357,9.236,33.678,18.788c12.044,12.343,15.582,27.146,12.985,44.091c-1.697,11.073-6.137,20.247-13.781,28.304
			c-9.748,10.272-22.085,15.109-35.496,17.75C1414.196,443.857,1406.87,444.99,1402.48,444.664z"/>
		<path fill-rule="evenodd" clip-rule="evenodd" fill="#FEFEFE" d="M2188.5,311.513c0-39.992,0.062-79.985-0.075-119.978
			c-0.018-5.179,1.425-8.344,6.863-9.42c11.233-2.223,22.352-2.347,33.595,0.107c5.293,1.155,6.683,4.076,6.676,9.032
			c-0.09,60.489-0.059,120.979-0.059,181.468c0,19.829-0.063,39.659,0.053,59.488c0.023,4.058-1.316,6.359-5.431,7.437
			c-9.89,2.589-19.834,2.209-29.834,1.232c-1.299-0.127-2.626-0.125-3.891-0.405c-5.521-1.221-8.056-3.049-8.021-8.984
			C2188.613,391.499,2188.5,351.506,2188.5,311.513z"/>
		<path fill-rule="evenodd" clip-rule="evenodd" fill="#FEFEFE" d="M1698.5,351.634c0-26.827,0.074-53.654-0.066-80.48
			c-0.027-5.028,1.578-7.897,6.765-8.971c11.559-2.393,23.005-2.535,34.515,0.255c4.248,1.03,5.822,3.496,5.818,7.696
			c-0.047,54.32-0.049,108.641,0.01,162.961c0.004,3.565-1.646,5.474-4.824,6.414c-9.832,2.91-19.887,2.187-29.891,1.55
			c-1.357-0.087-2.886-0.304-4.308-0.583c-5.641-1.111-8.213-3.206-8.15-8.863C1698.664,404.956,1698.5,378.294,1698.5,351.634z"/>
		<path fill-rule="evenodd" clip-rule="evenodd" fill="#FEFEFE" d="M1722.184,187.676c4.341-0.951,8.643-0.002,12.663,1.111
			c9.937,2.754,11.608,5.911,13.465,17.649c0.899,5.694,0.452,11.634-1.475,17.472c-2.009,6.086-5.84,9.901-11.659,11.204
			c-9.022,2.021-18.21,2.093-27.337,0.127c-9.372-2.019-12.512-9.051-13.197-17.362c-0.492-5.963-0.375-11.945,1.598-17.957
			c2.101-6.399,6.346-9.99,12.256-11.188C1712.907,187.839,1717.519,186.645,1722.184,187.676z"/>
		<path fill-rule="evenodd" clip-rule="evenodd" fill="#B4C4CA" d="M1514.151,513.211c3.901-4.364,8.959-5.197,14.437-4.693
			c2.255,0.207,4.764,1.164,5.293,3.109c1.613,5.924,3.502,2.438,5.51,0.482c4.258-4.149,9.553-4.363,14.812-3.229
			c4.131,0.893,6.382,8.092,5.077,14.104c-1.658,7.641-3.404,15.273-4.669,22.982c-0.47,2.865-1.586,3.784-4.172,3.507
			c-3.483-0.374-2.015-3.2-1.773-4.641c1.182-7.067,2.728-14.076,4.227-21.088c0.724-3.389,1.813-6.885-1.789-9.282
			c-4.04-2.689-6.953,0.537-9.571,2.646c-6.145,4.946-7.693,12.257-9.039,19.567c-0.589,3.202-1.609,6.353-1.901,9.574
			c-0.285,3.134-2.093,3.546-4.437,3.183c-2.934-0.454-1.769-3.006-1.523-4.39c1.277-7.217,2.854-14.381,4.405-21.547
			c0.531-2.454,0.992-4.885-0.251-7.213c-1.464-2.743-3.604-3.354-6.533-2.12c-7.815,3.292-10.937,9.947-12.719,17.526
			c-1.155,4.913-2.212,9.864-2.966,14.851c-0.424,2.808-2.035,3.055-4.207,2.94c-2.856-0.149-2.017-2.453-1.774-3.729
			c2.214-11.689,4.618-23.342,6.959-35.007c0.372-1.854,1.638-2.347,3.311-2.223c2.539,0.188,2.803,1.886,2.561,3.907
			c-0.763,0.263-1.165,0.968-0.661,1.478C1513.438,514.599,1513.691,513.5,1514.151,513.211z"/>
		<path fill-rule="evenodd" clip-rule="evenodd" fill="#B4C4CA" d="M1866.935,513.165c13.964-6.955,19.222-6.522,21.874,1.942
			c4.396-2.616,7.949-6.757,13.723-6.66c7.669,0.128,12.091,4.6,10.887,12.144c-1.387,8.688-3.253,17.304-5.017,25.929
			c-0.437,2.137-1.726,3.285-4.241,3.02c-3.239-0.342-1.919-2.36-1.645-3.904c1.427-8.027,2.674-16.101,4.532-24.029
			c0.783-3.34-0.201-5.653-2.468-7.337c-2.661-1.976-5.257-0.45-7.622,1.277c-8.204,5.989-9.82,15.081-11.447,24.169
			c-0.402,2.252-0.599,4.547-1.108,6.771c-0.485,2.121-1.678,3.309-4.21,3.058c-3.228-0.32-1.96-2.313-1.682-3.877
			c1.428-8.028,2.654-16.107,4.523-24.033c0.789-3.345-0.178-5.641-2.43-7.345c-2.661-2.014-5.301-0.521-7.612,1.249
			c-8.114,6.217-10.088,15.307-11.491,24.656c-0.363,2.426-0.605,4.877-1.108,7.273c-0.453,2.162-2.279,2.006-3.984,2.03
			c-2.063,0.03-1.952-1.383-1.895-2.715c0.239-5.587,1.934-10.916,2.998-16.355c1.218-6.224,2.723-12.395,3.828-18.637
			c0.442-2.496,1.475-3.575,3.935-3.247C1868.583,508.985,1865.859,511.457,1866.935,513.165z"/>
		<path fill-rule="evenodd" clip-rule="evenodd" fill="#B4C4CA" d="M1633.452,514.5c-9.161,0-9.1,0.014-11.041,8.945
			c-1.144,5.257-2.816,10.421-2.889,15.854c-0.068,5.085,1.057,5.991,5.798,4.77c1.563-0.403,3.295-1.571,4.054,0.747
			c0.7,2.14-0.672,3.403-2.665,4.004c-3.916,1.182-8.021,1.646-11.285-1.079c-3.951-3.299-2.013-8.196-1.662-12.204
			c0.49-5.619,2.423-11.101,3.521-16.685c0.372-1.894,1.326-4.626-2.507-4.364c-1.662,0.113-3.084-0.415-3.189-2.3
			c-0.108-1.936,1.479-3.637,2.881-3.478c5.367,0.608,5.783-2.999,5.958-6.584c0.141-2.89,1.393-3.854,4.052-3.614
			c3.495,0.314,2.33,3.354,1.838,4.52c-2.281,5.401,0.496,5.69,4.683,5.521c5.317-0.217,10.65-0.063,15.977-0.043
			c2.671,0.011,3.78,0.835,3.113,3.963c-2.378,11.15-4.533,22.352-6.5,33.582c-0.438,2.5-1.255,3.478-3.733,3.471
			c-3.575-0.01-2.516-2.749-2.26-4.276c1.509-9,2.807-18.086,5.199-26.864c1.203-4.415-0.65-3.94-3.349-3.892
			C1637.447,514.53,1635.449,514.5,1633.452,514.5z"/>
		<path fill-rule="evenodd" clip-rule="evenodd" fill="#B4C4CA" d="M1590.975,544.823c-3.62,3.421-7.925,4.867-12.907,4.721
			c-6.658-0.196-10.307-3.629-10.578-10.265c-0.334-8.182,0.952-15.961,5.584-22.913c5.602-8.407,14.088-10.434,23.071-5.671
			c0.562,0.298,1.63,3.427,2.404-0.035c0.618-2.761,3.019-2.523,4.803-1.968c2.157,0.672,1.194,2.801,0.897,4.256
			c-2.176,10.669-4.564,21.295-6.64,31.983c-0.463,2.386-0.13,4.544-3.614,4.64C1590.099,549.677,1592.202,546.499,1590.975,544.823
			z M1573.499,535.347c-0.656,4.043,1.325,7.152,4.447,8.725c3.471,1.747,6.743-0.679,9.288-2.921
			c5.252-4.627,7.03-10.925,8.577-17.614c0.914-3.951-0.042-6.036-2.864-7.799c-3.426-2.139-6.947-3.497-10.81-0.398
			C1575.65,520.544,1574.417,527.872,1573.499,535.347z"/>
		<path fill-rule="evenodd" clip-rule="evenodd" fill="#B4C4CA" d="M1714.848,544.789c-4.306,4.943-10.068,5.291-15.893,4.592
			c-3.797-0.455-5.53-3.334-6.621-6.995c-2.97-9.966,2.014-26.123,10.021-31.304c6.758-4.371,13.295-3.428,19.891,1.12
			c0.055-3.484,2.312-4.465,4.927-3.526c2.523,0.905,1.121,3.179,0.747,5.015c-2.173,10.681-4.433,21.349-6.313,32.082
			c-0.47,2.683-1.2,3.848-3.96,3.752c-3.241-0.112-1.853-2.396-2.064-3.953c0.763-0.264,1.165-0.969,0.661-1.479
			C1715.561,543.402,1715.308,544.5,1714.848,544.789z M1697.495,535.164c0.045,7.954,5.056,11.146,11.063,7.738
			c7.139-4.049,9.345-11.011,11.24-18.532c1.127-4.474,0.114-6.749-3.417-8.928c-3.947-2.436-7.368-2.637-11.103,0.669
			C1699.173,521.517,1698.965,529.004,1697.495,535.164z"/>
		<path fill-rule="evenodd" clip-rule="evenodd" fill="#B4C4CA" d="M2085.048,544.93c-4.334,2.628-8.625,5.165-14.126,4.65
			c-5.509-0.514-9.146-3.871-9.442-9.331c-0.552-10.147,0.673-19.765,8.225-27.411c5.528-5.597,13.822-6.171,20.091-1.495
			c1.559,1.162,2.372,1.805,2.813-0.82c0.362-2.153,2.271-2.331,3.939-1.896c2.293,0.598,1.472,2.068,1.109,3.843
			c-2.218,10.857-4.067,21.791-6.295,32.646c-0.345,1.679-0.024,4.37-3.367,4.457
			C2084.094,549.673,2086.211,546.486,2085.048,544.93z M2080.594,513.508c-1.321-0.005-2.462,0.13-3.688,1.004
			c-7.808,5.561-9.37,13.62-9.442,22.417c-0.025,3.066,0.811,5.869,3.458,7.162c2.602,1.271,5.367,0.313,7.891-1.37
			c6.479-4.323,8.743-11.041,10.591-18.019C2091.032,518.547,2087.059,513.549,2080.594,513.508z"/>
		<path fill-rule="evenodd" clip-rule="evenodd" fill="#B4C4CA" d="M1826.334,549.48c-10.444,1.025-14.878-5.087-14.967-14.874
			c-0.111-12.217,8.113-23.886,16.093-25.59c14.377-3.072,23.436,3.703,20.31,19.104c-1.604,7.903-4.302,14.531-11.326,19.108
			C1833.138,549.381,1829.74,549.57,1826.334,549.48z M1841.865,523.507c0.419-5.708-2.94-10.008-8.066-9.959
			c-4.456,0.042-8.303,1.689-11.08,5.392c-2.815,3.752-3.834,8.138-4.835,12.61c-0.935,4.173-0.575,8.099,2.654,10.823
			c3.778,3.188,8.197,2.742,12.331,0.207C1840.003,538.205,1841.267,531.006,1841.865,523.507z"/>
		<path fill-rule="evenodd" clip-rule="evenodd" fill="#B4C4CA" d="M1429.462,534.226c-0.205-9.565,2.71-17.718,11.045-23.153
			c5.827-3.801,12.136-3.322,18.479-1.379c3.575,1.096,5.62,4.141,6.133,7.187c1.813,10.777-0.496,25.637-13.366,31.546
			c-5.914,2.715-16.014,1.274-19.809-2.967C1429.5,542.729,1429.5,542.729,1429.462,534.226z M1435.415,533.834
			c-0.125,4.193,0.197,7.991,4.775,9.933c4.556,1.932,8.514,0.479,11.809-2.407c5.658-4.955,7.63-11.612,7.505-18.988
			c-0.117-6.889-6.229-10.728-12.62-7.993C1438.225,518.08,1436.102,525.531,1435.415,533.834z"/>
		<path fill-rule="evenodd" clip-rule="evenodd" fill="#B4C4CA" d="M1429.042,490.582c1.496,0,3.058-0.275,4.474,0.061
			c2.415,0.574,2.177,2.717,1.877,4.49c-0.354,2.097-1.712,1.123-3.014,0.82c-5.864-1.364-8.929,0.262-10.828,5.53
			c-2.176,6.033-1.748,6.694,4.79,6.996c1.737,0.08,3.328-0.104,3.195,2.486c-0.11,2.152-0.772,3.949-3.101,3.454
			c-7.303-1.555-8.441,2.528-9.285,8.491c-1.366,9.65-3.697,19.165-5.666,28.728c-1.877,9.115-7.452,13.125-15.238,12.803
			c-1.571-0.064-3.593-0.486-3.594-2.502c-0.001-1.454,0.502-3.072,2.688-3.476c8.316-1.535,9.637-3.274,11.199-12.162
			c1.636-9.299,3.503-18.562,5.523-27.784c0.57-2.606,0.848-4.229-2.556-4.045c-2.061,0.112-3.022-1.015-2.992-3.066
			c0.038-2.5,1.62-3.08,3.677-2.885c2.876,0.272,4.672-0.157,4.488-3.837c-0.099-1.967,0.964-4.076,1.803-5.99
			C1419.281,492.31,1422.156,490.497,1429.042,490.582z"/>
		<path fill-rule="evenodd" clip-rule="evenodd" fill="#B4C4CA" d="M2194.481,522.643c0.461,10.566-2.993,18.421-10.864,24.216
			c-5.141,3.784-11.1,3.205-16.688,2.259c-5.455-0.923-8.085-5.509-8.479-11.153c-0.58-8.332,1.225-15.886,6.09-22.737
			c5.001-7.044,19.515-9.183,26.311-3.896C2195.048,514.597,2194.668,519.057,2194.481,522.643z M2188.502,526.785
			c-0.008-12.527-6.403-16.237-14.711-11.313c-7.273,4.313-8.994,11.506-9.303,19.301c-0.144,3.649,0.331,7.055,4.152,8.645
			c4.359,1.815,8.454,1.456,12.26-1.781C2186.457,536.909,2188.34,530.748,2188.502,526.785z"/>
		<path fill-rule="evenodd" clip-rule="evenodd" fill="#B4C4CA" d="M2213.784,512.919c2.707-0.664,4.375-3.23,7.322-3.68
			c4.018-0.613,7.889-1.979,11.647,0.975c4.338,3.409,4.316,8.021,3.497,12.635c-1.365,7.682-3.345,15.256-4.639,22.947
			c-0.456,2.711-1.251,3.882-3.992,3.709c-3.56-0.224-2.236-3.056-2.001-4.479c1.249-7.544,2.664-15.075,4.461-22.505
			c0.859-3.554,0.104-6.335-2.562-8.326c-2.461-1.839-4.971-0.393-7.262,1.065c-6.748,4.296-9.195,11.103-10.733,18.407
			c-0.873,4.143-1.694,8.305-2.294,12.493c-0.489,3.413-2.716,3.966-5.277,3.198c-2.577-0.772-1.065-2.702-0.725-4.385
			c2.166-10.688,4.224-21.399,6.254-32.114c0.402-2.125,0.366-4.226,3.45-4.406C2214.857,508.225,2212.885,511.405,2213.784,512.919
			z"/>
		<path fill-rule="evenodd" clip-rule="evenodd" fill="#B4C4CA" d="M1374.986,513.275c3.718-3.524,7.763-4.666,12.396-4.852
			c7.294-0.292,10.691,5.337,9.93,11.668c-1.068,8.877-3.156,17.634-4.904,26.424c-0.495,2.492-2.197,3.52-4.73,2.929
			c-2.823-0.659-1.659-2.355-1.278-4.164c1.682-7.968,3.022-16.009,4.787-23.956c0.631-2.844-0.314-4.839-2.083-6.646
			c-1.947-1.99-4.097-1.291-6.347-0.273c-7.947,3.594-10.451,10.756-12.24,18.392c-1.037,4.429-2.201,8.851-2.829,13.343
			c-0.465,3.324-2.455,3.935-4.866,3.193c-2.34-0.72-1.282-2.923-0.941-4.586c2.188-10.688,4.51-21.352,6.524-32.072
			c0.438-2.337,0.429-4.097,3.511-4.235C1375.838,508.261,1373.896,511.383,1374.986,513.275z"/>
		<path fill-rule="evenodd" clip-rule="evenodd" fill="#B4C4CA" d="M1945.166,545.078c-2.689,0.764-4.433,3.167-7.331,3.745
			c-4.456,0.888-9.043,1.949-12.654-1.35c-3.641-3.325-3.136-8.147-2.347-12.54c1.382-7.694,3.308-15.295,4.559-23.008
			c0.479-2.953,1.777-3.646,4.275-3.397c3.157,0.313,1.951,2.895,1.716,4.249c-1.34,7.705-2.987,15.357-4.55,23.024
			c-0.573,2.813-0.951,5.682,1.706,7.627c2.807,2.056,5.529,1.045,8.216-0.677c6.589-4.221,9.072-10.866,10.692-17.969
			c0.905-3.972,1.231-8.076,2.167-12.039c0.509-2.15,1.268-4.815,4.47-4.171c3.261,0.657,2.051,2.658,1.573,4.915
			c-2.231,10.527-4.162,21.118-6.142,31.697c-0.4,2.141-0.438,4.196-3.505,4.364C1944.1,549.766,1946.196,546.505,1945.166,545.078z
			"/>
		<path fill-rule="evenodd" clip-rule="evenodd" fill="#B4C4CA" d="M1977.031,513.05c3.552-2.241,6.976-4.379,11.513-4.693
			c6.738-0.467,12.059,4.32,10.833,12.366c-1.347,8.838-3.911,17.477-4.93,26.397c-0.254,2.22-1.899,2.312-3.675,2.402
			c-2.266,0.116-2.521-1.28-2.241-2.866c1.411-8.017,2.68-16.071,4.498-23.998c0.761-3.319,0.294-5.881-2.018-8.052
			c-2.611-2.452-5.203-0.841-7.664,0.523c-6.96,3.86-9.072,10.73-10.818,17.751c-1.136,4.567-2.15,9.176-2.947,13.813
			c-0.544,3.171-2.769,3.229-4.819,2.633c-2.279-0.663-1-2.497-0.676-4.067c2.204-10.677,4.322-21.372,6.383-32.078
			c0.436-2.263,0.27-4.579,3.638-4.729C1977.967,508.281,1975.675,511.648,1977.031,513.05z"/>
		<path fill-rule="evenodd" clip-rule="evenodd" fill="#B4C4CA" d="M2117.181,549.497c-11.385,2.046-14.658-9.098-13.204-17.132
			c1.394-7.698,3.241-14.84,9.414-20.438c4.922-4.463,16.572-4.568,21.235-0.782c1.742,1.414,2.696,3.225,1.382,5.181
			c-1.413,2.102-2.896,0.893-4.573-0.269c-9.264-6.415-16.931,0.269-19.959,10.101c-1.046,3.395-0.996,6.81-0.971,10.257
			c0.045,6.137,5.478,9.759,11.173,7.407c1.96-0.81,3.864-1.774,5.724-2.799c1.051-0.579,1.718-2.322,3.271-0.798
			c1.406,1.381,0.721,2.649-0.106,3.99c-2.162,3.509-5.672,4.614-9.398,5.244C2119.874,549.679,2118.511,549.495,2117.181,549.497z"
			/>
		<path fill-rule="evenodd" clip-rule="evenodd" fill="#B4C4CA" d="M2039.076,549.498c-9.604,0.002-13.844-4.052-13.501-13.854
			c0.374-10.747,3.251-20.723,13.757-25.911c5.46-2.696,11.568-2.168,16.981,1.209c2.014,1.256,3.169,3.273,1.613,5.478
			c-1.505,2.131-2.962,0.59-4.599-0.435c-7.028-4.395-12.42-3.054-17.025,4.123c-3.614,5.633-5.142,11.78-3.776,18.426
			c0.913,4.448,5.264,6.979,9.664,5.607c2.783-0.868,5.599-1.815,7.897-3.746c0.838-0.703,1.576-1.182,2.552-0.216
			c0.841,0.832,0.575,1.515,0.273,2.591c-1.43,5.093-5.909,5.511-9.856,6.669C2041.83,549.8,2040.408,549.496,2039.076,549.498z"/>
		<path fill-rule="evenodd" clip-rule="evenodd" fill="#B4C4CA" d="M1803.109,539.518c0.725,6.624,0.699,7.245-7.379,9.159
			c-9.903,2.346-16.125,1.296-18.632-7.187c-2.634-8.906,1.712-27.045,12.42-31.509c5.771-2.405,11.486-2.394,17.075,0.557
			c2.268,1.196,3.932,3.057,2.494,5.605c-1.623,2.876-3.846,0.808-5.512-0.185c-6.146-3.664-10.082-3.512-14.698,1.784
			c-5.163,5.924-7.538,12.943-5.371,20.804c1.591,5.772,4.414,6.729,10.407,5.282
			C1797.234,543.028,1799.454,540.394,1803.109,539.518z"/>
		<path fill-rule="evenodd" clip-rule="evenodd" fill="#B4C4CA" d="M1682.911,539.446c0.963,5.758-2.66,9.458-9.655,10.021
			c-2.149,0.174-4.325,0.03-6.489,0.032c-5.083,0.006-8.907-2.66-9.794-7.28c-1.931-10.063-0.314-24.994,10.89-31.521
			c5.942-3.462,12.1-3.123,18.253-0.134c2.974,1.444,3.191,4.206,1.993,6.122c-1.336,2.136-3.281,0.318-4.931-0.921
			c-6.382-4.796-15.007-1.556-18.311,7.088c-1.564,4.093-2.635,8.382-2.419,12.938c0.322,6.809,4.678,9.855,11.301,8.142
			C1677.149,543.052,1679.584,540.429,1682.911,539.446z"/>
		<path fill-rule="evenodd" clip-rule="evenodd" fill="#B4C4CA" d="M1485.125,513.544c3.218-4.557,7.325-5.49,12.071-5.1
			c2.131,0.175,2.926,1.288,2.678,2.982c-0.203,1.389-0.131,3.481-2.77,3.091c-8.961-1.327-11.585,5.628-14.529,11.653
			c-2.586,5.292-2.833,11.313-4.086,17.018c-0.348,1.587-0.626,3.216-1.22,4.714c-0.79,1.997-2.699,1.772-4.305,1.511
			c-2.338-0.38-1.438-2.171-1.169-3.511c2.212-11.008,4.489-22.001,6.685-33.011c0.419-2.103,0.299-4.249,3.42-4.44
			C1485.82,508.21,1483.914,511.355,1485.125,513.544z"/>
		<path fill-rule="evenodd" clip-rule="evenodd" fill="#B4C4CA" d="M1311.498,564.497c-5.823,0.002-11.646,0.004-17.47,0.001
			c-1.805-0.001-3.718,0.412-3.577-2.595c0.123-2.637,1.334-3.435,3.758-3.422c10.148,0.051,20.298,0.02,30.446,0.019
			c2.163,0,4.326,0.021,6.488,0c1.891-0.019,3.507,0.558,3.224,2.727c-0.228,1.74-0.884,3.375-3.405,3.317
			C1324.477,564.397,1317.986,564.495,1311.498,564.497z"/>
		<path fill-rule="evenodd" clip-rule="evenodd" fill="#B4C4CA" d="M1745.235,564.499c-5.659,0.001-11.317,0.044-16.976-0.024
			c-1.839-0.021-4.684,0.696-4.472-2.278c0.162-2.274,1.832-3.84,4.849-3.776c10.147,0.213,20.302,0.08,30.454,0.08
			c1.498,0,2.997,0.042,4.493-0.008c2.261-0.076,4.006,0.387,3.898,3.196c-0.096,2.528-1.757,2.831-3.773,2.82
			C1757.551,564.478,1751.392,564.498,1745.235,564.499z"/>
		<path fill-rule="evenodd" clip-rule="evenodd" fill="#B4C4CA" d="M1345.71,549.441c-2.9,0.479-3.563-0.814-3.034-3.387
			c2.318-11.283,4.593-22.575,6.819-33.877c0.518-2.627,1.636-4.176,4.603-3.652c3.356,0.592,1.783,2.651,1.444,4.436
			c-2.059,10.85-3.973,21.728-6.23,32.534C1348.979,547.083,1349.189,550.363,1345.71,549.441z"/>
		<path fill-rule="evenodd" clip-rule="evenodd" fill="#B4C4CA" d="M2019.562,512.603c-1.448,7.363-2.975,15.032-4.458,22.71
			c-0.587,3.039-1.193,6.082-1.563,9.15c-0.188,1.562-0.828,2.867-1.672,4.03c-1.178,1.625-3.123,1.251-4.597,0.762
			c-1.269-0.421-0.831-2.023-0.613-3.117c2.261-11.334,4.556-22.66,6.867-33.982c0.401-1.971,0.865-3.736,3.625-3.709
			C2020.318,508.48,2019.284,510.661,2019.562,512.603z"/>
		<path fill-rule="evenodd" clip-rule="evenodd" fill="#B4C4CA" d="M2139.112,547.055c2.414-12.161,4.573-23.363,6.924-34.525
			c0.36-1.715,0.457-4.045,3.407-4.079c2.372-0.027,3.474,0.628,2.979,3.104c-2.33,11.663-4.615,23.335-7.028,34.98
			c-0.43,2.077-1.72,3.348-4.249,2.996S2138.778,547.864,2139.112,547.055z"/>
		<path fill-rule="evenodd" clip-rule="evenodd" fill="#B4C4CA" d="M2192.696,490.872c-2.005,4.908-5.916,7.858-8.356,11.835
			c-0.924,1.506-2.869,1.076-4.014,0.547c-1.657-0.766-0.526-2.104,0.037-3.289C2184.282,491.709,2186.117,490.247,2192.696,490.872
			z"/>
		<path fill-rule="evenodd" clip-rule="evenodd" fill="#B4C4CA" d="M1600.426,492.387c-2.398,3.245-4.917,6.626-7.404,10.03
			c-0.812,1.111-1.951,1.052-3.123,1.089c-2.428,0.077-3.069-0.988-1.83-3.001c1.79-2.908,3.701-5.743,5.598-8.584
			c1.389-2.079,3.545-1.322,5.464-1.364C1600.2,490.533,1600.51,491.23,1600.426,492.387z"/>
		<path fill-rule="evenodd" clip-rule="evenodd" fill="#B4C4CA" d="M2019.173,501.526c-2.094,0.08-3.698-0.454-3.64-2.908
			c0.072-3.054,1.793-4.748,4.745-5.073c2.288-0.253,3.229,1.006,3.236,3.25C2023.523,499.795,2022.068,501.299,2019.173,501.526z"
			/>
		<path fill-rule="evenodd" clip-rule="evenodd" fill="#B4C4CA" d="M1356.5,501.414c-3.453,0.193-5.037-0.371-4.967-2.817
			c0.088-3.05,1.799-4.747,4.765-5.055c2.306-0.24,3.179,1.045,3.224,3.272C1359.585,499.907,1357.857,501.134,1356.5,501.414z"/>
		<path fill-rule="evenodd" clip-rule="evenodd" fill="#B4C4CA" d="M2155.476,497.66c0.395,3.118-1.312,3.838-4.165,3.91
			c-2.738,0.069-2.882-1.322-2.839-3.388c0.058-2.741,1.197-4.458,4.016-4.642C2155.437,493.349,2155.578,495.424,2155.476,497.66z"
			/>
		<path fill-rule="evenodd" clip-rule="evenodd" fill="#B4C4CA" d="M1653.48,497.608c0.386,2.975-1.117,3.921-4.07,3.965
			c-2.6,0.039-3.017-1.079-2.951-3.286c0.081-2.719,1.102-4.518,3.927-4.739C1653.212,493.325,1653.623,495.246,1653.48,497.608z"/>
		<path fill-rule="evenodd" clip-rule="evenodd" fill="#093E52" d="M1902.5,350.75c0,7.661-0.088,15.324,0.049,22.983
			c0.046,2.563-0.324,4.757-2.018,6.789c-8.28,9.94-16.659,19.748-30.027,23.004c-13.851,3.373-25.428-1.962-32.272-14.738
			c-4.12-7.689-5.722-15.994-6.895-24.577c-0.883-6.459-1.186-12.896-0.712-19.267c0.877-11.801,2.771-23.407,9.505-33.695
			c10.92-16.683,29.354-17.454,43.67-6.864c6.362,4.706,11.958,10.26,16.816,16.589c1.329,1.73,1.934,3.217,1.914,5.292
			C1902.456,334.427,1902.5,342.588,1902.5,350.75z"/>
		<path fill-rule="evenodd" clip-rule="evenodd" fill="#093E52" d="M1045.173,569.63c-110.129,0.669-199.174-89.218-198.42-199.462
			c0.392-57.121,22.194-106.044,64.556-144.779c40.192-36.752,88.194-54.103,142.496-51.686
			c54.348,2.419,100.515,24.205,137.432,64.216c34.909,37.834,52.316,83.33,51.953,134.484
			c-0.413,58.088-22.644,107.574-65.951,146.686C1139.865,552.84,1095.483,569.262,1045.173,569.63z M1044.992,200.5
			c-95.73-0.143-168.686,77.148-171.316,165.324c-1.583,53.037,18.188,97.935,57.43,133.529
			c32.172,29.182,70.943,43.987,114.138,43.776c45.582-0.222,85.651-16.557,118.698-48.602
			c33.203-32.197,51.137-71.783,52.313-117.707C1218.801,277.374,1138.644,199.943,1044.992,200.5z"/>
		<path fill-rule="evenodd" clip-rule="evenodd" fill="#093E52" d="M1578.661,332.5c-10.316,0-20.635-0.093-30.949,0.063
			c-2.686,0.041-3.618-0.815-3.214-3.371c1.787-11.299,4.017-22.306,13.222-30.498c8.356-7.437,18.058-9.196,28.667-7.801
			c21.692,2.853,27.192,23.182,27.178,38.947c-0.003,2.905-1.549,2.679-3.453,2.674C1599.628,332.485,1589.144,332.5,1578.661,332.5
			z"/>
		<path fill-rule="evenodd" clip-rule="evenodd" fill="#093E52" d="M2068.662,332.5c-10.317,0-20.635-0.093-30.949,0.063
			c-2.688,0.041-3.619-0.818-3.215-3.372c1.787-11.299,4.018-22.305,13.222-30.497c8.356-7.437,18.058-9.196,28.667-7.801
			c21.691,2.853,27.192,23.182,27.178,38.947c-0.003,2.905-1.548,2.679-3.453,2.674C2089.628,332.485,2079.144,332.5,2068.662,332.5
			z"/>
		<path fill-rule="evenodd" clip-rule="evenodd" fill="#093E52" d="M1514.151,513.211c-0.46,0.289-0.713,1.388-1.396,0.696
			c-0.504-0.51-0.102-1.215,0.661-1.478C1513.661,512.691,1513.906,512.951,1514.151,513.211z"/>
		<path fill-rule="evenodd" clip-rule="evenodd" fill="#093E52" d="M1573.499,535.347c0.918-7.475,2.151-14.803,8.639-20.008
			c3.862-3.099,7.384-1.74,10.81,0.398c2.822,1.763,3.778,3.848,2.864,7.799c-1.547,6.689-3.325,12.987-8.577,17.614
			c-2.545,2.242-5.817,4.668-9.288,2.921C1574.824,542.499,1572.843,539.39,1573.499,535.347z"/>
		<path fill-rule="evenodd" clip-rule="evenodd" fill="#093E52" d="M1697.495,535.164c1.47-6.16,1.678-13.647,7.784-19.053
			c3.734-3.306,7.155-3.104,11.103-0.669c3.531,2.179,4.544,4.454,3.417,8.928c-1.896,7.521-4.102,14.483-11.24,18.532
			C1702.551,546.31,1697.54,543.118,1697.495,535.164z"/>
		<path fill-rule="evenodd" clip-rule="evenodd" fill="#093E52" d="M1714.848,544.789c0.46-0.289,0.713-1.388,1.396-0.696
			c0.504,0.51,0.102,1.215-0.661,1.479C1715.339,545.311,1715.094,545.05,1714.848,544.789z"/>
		<path fill-rule="evenodd" clip-rule="evenodd" fill="#093E52" d="M2080.593,513.505c6.467,0.044,10.439,5.042,8.81,11.197
			c-1.848,6.978-4.111,13.695-10.591,18.019c-2.523,1.683-5.289,2.642-7.891,1.37c-2.647-1.293-3.483-4.096-3.458-7.162
			c0.072-8.797,1.635-16.856,9.442-22.417C2078.132,513.638,2079.272,513.503,2080.593,513.505z"/>
		<path fill-rule="evenodd" clip-rule="evenodd" fill="#093E52" d="M1841.865,523.507c-0.598,7.499-1.862,14.698-8.996,19.073
			c-4.134,2.535-8.553,2.98-12.331-0.207c-3.229-2.725-3.589-6.65-2.654-10.823c1.001-4.473,2.02-8.858,4.835-12.61
			c2.777-3.702,6.624-5.35,11.08-5.392C1838.925,513.499,1842.284,517.799,1841.865,523.507z"/>
		<path fill-rule="evenodd" clip-rule="evenodd" fill="#093E52" d="M1435.415,533.834c0.688-8.304,2.811-15.754,11.469-19.456
			c6.392-2.734,12.503,1.104,12.62,7.993c0.125,7.376-1.847,14.033-7.505,18.988c-3.295,2.886-7.253,4.339-11.809,2.407
			C1435.612,541.825,1435.29,538.028,1435.415,533.834z"/>
		<path fill-rule="evenodd" clip-rule="evenodd" fill="#093E52" d="M2188.502,526.785c-0.162,3.963-2.045,10.124-7.602,14.852
			c-3.806,3.237-7.9,3.597-12.26,1.781c-3.821-1.59-4.296-4.995-4.152-8.645c0.309-7.795,2.029-14.988,9.303-19.301
			C2182.098,510.548,2188.494,514.258,2188.502,526.785z"/>
		<path fill-rule="evenodd" clip-rule="evenodd" fill="#FEFEFE" d="M1044.992,200.5c93.652-0.558,173.809,76.874,171.262,176.321
			c-1.176,45.924-19.109,85.51-52.313,117.707c-33.047,32.045-73.116,48.38-118.698,48.602
			c-43.194,0.211-81.966-14.595-114.138-43.776c-39.241-35.595-59.013-80.492-57.43-133.529
			C876.306,277.649,949.261,200.358,1044.992,200.5z M1129.731,323.55c7.118,0.338,14.072-0.979,21.011-2.133
			c3.295-0.548,6.558-1.682,9.651-2.983c15.687-6.603,19.233-17.672,14.651-31.561c-3.679-11.149-11.97-19.605-20.844-26.935
			c-12.899-10.654-27.328-18.904-42.77-25.538c-22.11-9.498-45.081-15.267-69.027-16.787c-11.451-0.728-22.832,1.028-33.67,4.963
			c-11.49,4.173-20.732,15.273-15.407,30.45c4.543,12.945,13.634,22.152,23.851,30.283c13.455,10.708,28.433,18.914,44.491,25.307
			C1083.591,317.342,1106.131,322.759,1129.731,323.55z"/>
		<path fill-rule="evenodd" clip-rule="evenodd" fill="#093E52" d="M1129.731,323.55c-23.601-0.791-46.141-6.208-68.063-14.934
			c-16.059-6.393-31.036-14.599-44.491-25.307c-10.217-8.131-19.308-17.338-23.851-30.283c-5.325-15.177,3.917-26.277,15.407-30.45
			c10.838-3.935,22.219-5.69,33.67-4.963c23.946,1.521,46.917,7.289,69.027,16.787c15.441,6.634,29.87,14.884,42.77,25.538
			c8.874,7.329,17.165,15.785,20.844,26.935c4.582,13.889,1.035,24.958-14.651,31.561c-3.094,1.302-6.356,2.436-9.651,2.983
			C1143.803,322.572,1136.849,323.888,1129.731,323.55z"/>
	</g>
</g>
<g id="Capa_5_1_" display="none">
	<path display="inline" fill-rule="evenodd" clip-rule="evenodd" fill="#FEFEFE" d="M24.06,758.405
		c0.183-64.718,21.474-116.147,63.381-158.196c42.769-42.914,95.629-64.207,156.158-63.461
		c58.417,0.72,109.462,22.032,150.622,63.561c45.491,45.9,66.651,102.145,62.888,166.786
		c-3.265,56.063-25.599,104.21-66.184,142.967c-44.125,42.136-97.502,62.454-158.457,60.206
		c-58.294-2.15-108.396-24.764-148.64-67.021C44.106,861.537,24.259,811.293,24.06,758.405z M240.957,951.613
		c50.311-0.368,94.692-16.79,132.065-50.541c43.308-39.111,65.538-88.598,65.951-146.686c0.363-51.154-17.044-96.65-51.953-134.484
		c-36.917-40.011-83.084-61.797-137.432-64.216c-54.302-2.417-102.304,14.934-142.496,51.686
		c-42.361,38.735-64.164,87.658-64.556,144.779C41.783,862.395,130.828,952.281,240.957,951.613z"/>
	<path display="inline" fill-rule="evenodd" clip-rule="evenodd" fill="#093E52" d="M240.957,951.613
		c-110.129,0.669-199.174-89.218-198.42-199.462c0.392-57.121,22.194-106.044,64.556-144.779
		c40.192-36.752,88.194-54.103,142.496-51.686c54.348,2.419,100.515,24.205,137.432,64.216
		c34.909,37.834,52.316,83.33,51.953,134.484c-0.413,58.088-22.644,107.574-65.951,146.686
		C335.649,934.823,291.267,951.244,240.957,951.613z M240.776,582.483c-95.73-0.143-168.686,77.148-171.316,165.324
		c-1.583,53.037,18.188,97.935,57.43,133.529c32.172,29.182,70.943,43.987,114.138,43.776
		c45.582-0.222,85.651-16.557,118.698-48.602c33.203-32.197,51.137-71.783,52.313-117.707
		C414.585,659.357,334.428,581.925,240.776,582.483z"/>
	<path display="inline" fill-rule="evenodd" clip-rule="evenodd" fill="#FEFEFE" d="M240.776,582.483
		c93.652-0.558,173.809,76.874,171.262,176.321c-1.176,45.924-19.109,85.51-52.313,117.707
		c-33.047,32.045-73.116,48.38-118.698,48.602c-43.194,0.211-81.966-14.595-114.138-43.776
		c-39.241-35.595-59.013-80.492-57.43-133.529C72.091,659.631,145.046,582.34,240.776,582.483z M325.515,705.532
		c7.118,0.338,14.072-0.979,21.011-2.133c3.295-0.548,6.558-1.682,9.651-2.983c15.687-6.603,19.233-17.672,14.651-31.561
		c-3.679-11.149-11.97-19.605-20.844-26.935c-12.899-10.654-27.328-18.904-42.77-25.538c-22.11-9.498-45.081-15.267-69.027-16.787
		c-11.451-0.728-22.832,1.028-33.67,4.963c-11.49,4.173-20.732,15.273-15.407,30.45c4.543,12.945,13.634,22.152,23.851,30.283
		c13.455,10.708,28.433,18.914,44.491,25.307C279.375,699.324,301.915,704.741,325.515,705.532z"/>
	<path display="inline" fill-rule="evenodd" clip-rule="evenodd" fill="#093E52" d="M325.515,705.532
		c-23.601-0.791-46.141-6.208-68.063-14.934c-16.059-6.393-31.036-14.599-44.491-25.307c-10.217-8.131-19.308-17.338-23.851-30.283
		c-5.325-15.177,3.917-26.277,15.407-30.45c10.838-3.935,22.219-5.69,33.67-4.963c23.946,1.521,46.917,7.289,69.027,16.787
		c15.441,6.634,29.87,14.884,42.77,25.538c8.874,7.329,17.165,15.785,20.844,26.935c4.582,13.889,1.035,24.958-14.651,31.561
		c-3.094,1.302-6.356,2.436-9.651,2.983C339.588,704.554,332.634,705.87,325.515,705.532z"/>
</g>
<g id="Capa_7_1_" display="none">
	<path display="inline" fill="none" stroke="#FFFFFF" stroke-miterlimit="10" d="M87.936,600.639
		c-39.12,39.142-63.317,93.215-63.317,152.941c0,119.455,96.786,216.294,216.179,216.294c119.39,0,216.179-96.839,216.179-216.294
		c0-119.454-96.789-216.292-216.179-216.292C181.101,537.288,127.057,561.498,87.936,600.639"/>
	<path display="inline" fill="none" stroke="#003E52" stroke-miterlimit="10" d="M119.359,632.42
		c-31.063,31.063-50.275,73.977-50.275,121.376c0,94.8,76.851,171.652,171.651,171.652c94.799,0,171.652-76.853,171.652-171.652
		s-76.853-171.65-171.652-171.65C193.335,582.146,150.422,601.358,119.359,632.42"/>
	<path display="inline" fill="none" stroke="#003E52" stroke-miterlimit="10" d="M100.538,613.6
		c-35.88,35.879-58.072,85.446-58.072,140.196c0,109.501,88.768,198.27,198.27,198.27c109.499,0,198.27-88.769,198.27-198.27
		c0-109.499-88.771-198.268-198.27-198.268C185.985,555.529,136.418,577.72,100.538,613.6"/>
	<path display="inline" fill="none" stroke="#003E52" stroke-width="27" stroke-miterlimit="10" d="M109.887,622.95
		C76.4,656.438,55.688,702.698,55.688,753.796c0,102.197,82.848,185.047,185.046,185.047c102.198,0,185.044-82.85,185.044-185.047
		c0-102.195-82.847-185.045-185.044-185.045C189.635,568.751,143.374,589.463,109.887,622.95"/>
	
		<line display="inline" fill="none" stroke="#003E52" stroke-miterlimit="10" x1="240.734" y1="568.837" x2="242.625" y2="568.837"/>
</g>
<g id="Capa_8_1_" display="none">
	
		<line display="inline" fill="none" stroke="#FFFFFF" stroke-miterlimit="10" x1="-472.902" y1="582.999" x2="15.132" y2="582.999"/>
	
		<line display="inline" fill="none" stroke="#FFFFFF" stroke-miterlimit="10" x1="-429.867" y1="537.288" x2="-87.632" y2="879.525"/>
	
		<line display="inline" fill="none" stroke="#FFFFFF" stroke-miterlimit="10" x1="-387.778" y1="537.288" x2="-45.544" y2="879.525"/>
	
		<line display="inline" fill="none" stroke="#FFFFFF" stroke-miterlimit="10" x1="-353.274" y1="537.288" x2="-11.04" y2="879.525"/>
	
		<line display="inline" fill="none" stroke="#FFFFFF" stroke-miterlimit="10" x1="-316.295" y1="537.288" x2="25.941" y2="879.525"/>
	<line display="inline" fill="none" stroke="#003E52" stroke-miterlimit="10" x1="-85.046" y1="925.143" x2="-464.22" y2="545.97"/>
</g>
<g id="Capa_6_1_" display="none">
	<g display="inline">
		<path fill="none" stroke="#003E52" stroke-width="5" stroke-miterlimit="10" d="M191.259,619.92
			c3.647-9.484,15.526-16.791,35.117-18.413c7.438-0.792,22.438,0.083,39.968,3.812c26.073,5.546,54.824,16.951,78.766,35.219
			c8.037,6.344,15.452,13.121,19.576,20.246c3.023,5.223,4.364,9.599,5.215,13.951c0.619,3.169,0.221,8.952-0.942,11.349
			c-2.104,5.292-6.822,8.641-11.479,11.063c-3.125,1.625-5.93,2.729-10.396,3.604c-13.167,2.583-21.771,3.021-34.229,1.354
			c-28.098-4.106-53.542-11.092-76.208-24.055c-12.408-7.096-24.551-15.424-34.645-26.361c-6.517-7.469-10.495-15.408-11.625-21.688
			C189.742,626.485,190.043,623.081,191.259,619.92"/>
		<path fill="none" stroke="#003E52" stroke-width="12" stroke-miterlimit="10" d="M200.25,614.125
			c-24.437,26.535,51.999,70.981,72.678,75.673c18.825,5.572,86.013,18.799,91.444-9.289c5.305-27.416-58.764-57.677-75.334-64.021
			c-21.039-8.048-85.867-14.937-89.373,2.842c-3.845,18.729,39.957,54.167,74.277,63.815c14.074,3.962,78.215,17.636,83.04-4.463
			c4.213-19.29-57.537-52.611-71.181-57.76c-14.423-5.446-75.675-14.093-78.643,0.849c-2.803,14.117,48.245,51.627,67.963,56.183
			c11.85,2.742,70.946,14.561,74.163-0.396c3.113-14.449-51.705-45.43-62.727-50.121c-10.229-4.358-70.195-15.929-72.7-3.396
			c-2.374,11.873,52.186,48.528,62.249,49.573c10.083,1.046,62.2,9.505,65.381,2.326c3.179-7.176-38.568-37.155-53.13-42.486
			c-14.561-5.33-63.557-16.546-67.392-7.354c-3.828,9.186,39.22,37.552,55.173,41.747c15.959,4.207,56.855,13.614,58.662,5.584
			c1.735-7.737-31.456-27.394-48.884-34.198c-17.424-6.811-55.466-16.999-58.553-10.151c-3.024,6.702,38.064,28.826,49.883,32.929
			c11.816,4.105,48.276,14.911,50.434,9.486c2.33-5.867-34.139-22.121-43.274-26.332c-9.138-4.205-47.95-18.742-49.746-12.453
			c-1.798,6.285,34.259,20.801,45.014,24.25c10.753,3.446,37.059,16.255,39.601,11.691c2.539-4.567-31.777-15.983-37.298-17.832
			c-5.526-1.853-38.037-17.148-39.24-14.562c-1.206,2.586,51.436,24.106,56.224,24.591"/>
	</g>
</g>
<g id="Capa_9_1_">
	<path fill="#FFFFFF" d="M105.637,105.435C66.517,144.576,42.32,198.65,42.32,258.376c0,119.455,96.786,216.294,216.18,216.294
		c119.39,0,216.179-96.839,216.179-216.294c0-119.454-96.789-216.292-216.179-216.292
		C198.802,42.084,144.758,66.294,105.637,105.435"/>
	<path fill="none" stroke="#003E52" stroke-miterlimit="10" d="M103.299,185.13c-18.8,39.704-22.455,86.58-6.507,131.215
		c31.896,89.272,130.125,135.788,219.396,103.893c89.272-31.896,135.788-130.125,103.892-219.398
		c-31.896-89.273-130.124-135.786-219.397-103.89C156.047,112.897,122.099,145.427,103.299,185.13"/>
	<path fill="none" stroke="#003E52" stroke-miterlimit="10" d="M60.17,257.577c-0.261,50.74,18.836,101.58,57.351,140.492
		c77.031,77.825,202.566,78.469,280.392,1.437c77.823-77.029,78.468-202.567,1.437-280.392
		c-77.029-77.823-202.566-78.465-280.39-1.436C80.047,156.195,60.43,206.835,60.17,257.577"/>
	<path fill="none" stroke="#003E52" stroke-width="27" stroke-miterlimit="10" d="M127.589,127.746
		c-33.487,33.487-54.199,79.748-54.199,130.846c0,102.197,82.849,185.047,185.046,185.047c102.198,0,185.045-82.85,185.045-185.047
		c0-102.195-82.847-185.045-185.045-185.045C207.337,73.547,161.076,94.259,127.589,127.746"/>
	<line fill="none" stroke="#003E52" stroke-miterlimit="10" x1="258.435" y1="73.633" x2="260.326" y2="73.633"/>
	<g>
		<path fill="none" stroke="#003E52" stroke-width="5" stroke-miterlimit="10" d="M208.96,124.716
			c3.647-9.484,15.526-16.791,35.117-18.413c7.438-0.792,22.438,0.083,39.968,3.812c26.073,5.546,54.824,16.951,78.766,35.219
			c8.037,6.344,15.452,13.121,19.576,20.246c3.023,5.223,4.364,9.599,5.215,13.951c0.619,3.169,0.221,8.952-0.942,11.349
			c-2.104,5.292-6.822,8.641-11.479,11.063c-3.125,1.625-5.93,2.729-10.396,3.604c-13.167,2.583-21.771,3.021-34.229,1.354
			c-28.098-4.106-53.542-11.092-76.209-24.055c-12.408-7.096-24.551-15.424-34.645-26.361c-6.518-7.469-10.494-15.408-11.625-21.688
			C207.443,131.281,207.744,127.877,208.96,124.716"/>
		<path fill="none" stroke="#003E52" stroke-width="12" stroke-miterlimit="10" d="M217.951,118.921
			c-24.438,26.535,51.999,70.981,72.678,75.673c18.825,5.572,86.013,18.799,91.444-9.289c5.305-27.416-58.764-57.677-75.334-64.021
			c-21.039-8.048-85.867-14.937-89.373,2.842c-3.845,18.729,39.957,54.167,74.277,63.815c14.074,3.962,78.215,17.636,83.04-4.463
			c4.213-19.29-57.537-52.611-71.181-57.76c-14.423-5.446-75.675-14.093-78.644,0.849c-2.803,14.117,48.245,51.627,67.964,56.183
			c11.85,2.742,70.946,14.561,74.163-0.396c3.113-14.449-51.705-45.43-62.727-50.121c-10.229-4.358-70.195-15.929-72.7-3.396
			c-2.374,11.873,52.186,48.528,62.249,49.573c10.083,1.046,62.2,9.505,65.381,2.326c3.179-7.176-38.568-37.155-53.13-42.486
			c-14.561-5.33-63.557-16.546-67.392-7.354c-3.828,9.186,39.22,37.552,55.173,41.747c15.959,4.207,56.855,13.614,58.662,5.584
			c1.735-7.737-31.456-27.394-48.884-34.198c-17.424-6.811-55.466-16.999-58.553-10.151c-3.024,6.702,38.063,28.826,49.883,32.929
			c11.816,4.105,48.276,14.911,50.434,9.486c2.33-5.867-34.139-22.121-43.274-26.332c-9.138-4.205-47.95-18.742-49.745-12.453
			c-1.799,6.285,34.259,20.801,45.014,24.25c10.753,3.446,37.059,16.255,39.601,11.691c2.539-4.567-31.777-15.983-37.298-17.832
			c-5.526-1.853-38.037-17.148-39.24-14.562c-1.205,2.586,51.437,24.106,56.225,24.591"/>
	</g>
</g>
</svg>
