<!--?xml version="1.0" encoding="utf-8"?-->
<!-- Generator: Adobe Illustrator 16.0.0, SVG Export Plug-In . SVG Version: 6.00 Build 0)  -->

<svg version="1.1" id="Layer_1" xmlns="http://www.w3.org/2000/svg" xmlns:xlink="http://www.w3.org/1999/xlink" x="0px" y="0px" width="500px" height="500px" viewBox="0 0 500 500" enable-background="new 0 0 500 500" xml:space="preserve" style="">
<g>
	<path fill="none" stroke="#FFFFFF" stroke-width="4" stroke-miterlimit="10" d="M280.405,176.352L13.513,83.783L
		237.162,13.514L486.487,72.297Z" class="RoOtVVuY_0"></path>
	<path fill="none" stroke="#FFFFFF" stroke-width="4" stroke-miterlimit="10" d="M486.487,72.297L280.405,176.352L
		272.973,486.487L460.135,332.433Z" class="RoOtVVuY_1"></path>
	<g>
		<g>
			<path fill="none" stroke="#FFFFFF" stroke-width="4" stroke-miterlimit="10" d="M390.541,287.838L381.757,293.919L
				380.406,360.135L361.487,376.352L362.838,306.081L354.054,312.162L372.298,277.027Z" class="RoOtVVuY_2"></path>
			<path fill="none" stroke="#FFFFFF" stroke-width="4" stroke-miterlimit="10" d="M331.082,304.73L349.325,315.54L
				341.217,320.946L339.189,387.838L320.27,403.378L321.622,333.783L313.513,339.189Z" class="RoOtVVuY_3"></path>
		</g>
	</g>
	<g>
		<path fill="none" stroke="#FFFFFF" stroke-width="4" stroke-miterlimit="10" d="M272.973,486.487L280.405,176.352L
			13.513,83.783L41.217,353.378Z" class="RoOtVVuY_4"></path>
	</g>
</g>
<path fill="none" stroke="#FFFFFF" stroke-width="4" stroke-miterlimit="10" d="M152.027,199.324L152.027,131.757L
	368.919,44.595L331.757,35.811L111.486,117.568L111.486,181.757Z" class="RoOtVVuY_5"></path>
<style data-made-with="vivus-instant">.RoOtVVuY_0{stroke-dasharray:1004 1006;stroke-dashoffset:1005;animation:RoOtVVuY_draw 3333ms ease-in-out 0ms forwards;}.RoOtVVuY_1{stroke-dasharray:1045 1047;stroke-dashoffset:1046;animation:RoOtVVuY_draw 3333ms ease-in-out 333ms forwards;}.RoOtVVuY_2{stroke-dasharray:244 246;stroke-dashoffset:245;animation:RoOtVVuY_draw 3333ms ease-in-out 666ms forwards;}.RoOtVVuY_3{stroke-dasharray:241 243;stroke-dashoffset:242;animation:RoOtVVuY_draw 3333ms ease-in-out 1000ms forwards;}.RoOtVVuY_4{stroke-dasharray:1131 1133;stroke-dashoffset:1132;animation:RoOtVVuY_draw 3333ms ease-in-out 1333ms forwards;}.RoOtVVuY_5{stroke-dasharray:683 685;stroke-dashoffset:684;animation:RoOtVVuY_draw 3333ms ease-in-out 1666ms forwards;}@keyframes RoOtVVuY_draw{100%{stroke-dashoffset:0;}}@keyframes RoOtVVuY_fade{0%{stroke-opacity:1;}95.65217391304348%{stroke-opacity:1;}100%{stroke-opacity:0;}}</style></svg>
