<!--?xml version="1.0" encoding="utf-8"?-->
<!-- Generator: Adobe Illustrator 16.0.0, SVG Export Plug-In . SVG Version: 6.00 Build 0)  -->

<svg version="1.1" xmlns="http://www.w3.org/2000/svg" xmlns:xlink="http://www.w3.org/1999/xlink" x="0px" y="0px" width="391px" height="444px" viewBox="0 0 391 444" enable-background="new 0 0 391 444" xml:space="preserve" style="">
<g id="Capa_1">
	<g>
		<g>
			<path fill="none" stroke="#010202" stroke-miterlimit="10" d="M266.219,260.344l1.982-1.981c1.918,1.771,4.438,2.758,7.061,2.758
				l0,0c2.766,0,5.413-1.098,7.367-3.051l51.313-51.313c6.114-6.117,9.482-14.25,9.482-22.901c0-8.65-3.368-16.783-9.48-22.898
				l-26.458-26.455l49.92-49.922c7.473-7.477,11.591-17.419,11.591-27.992c0-10.574-4.118-20.516-11.598-27.993
				C349.921,21.117,339.98,17,329.409,17c-10.575,0-20.519,4.117-27.991,11.594l-49.922,49.922l-26.455-26.455
				c-6.117-6.116-14.251-9.485-22.9-9.485c-8.65,0-16.781,3.37-22.897,9.485l-51.313,51.312c-1.953,1.954-3.052,4.604-3.052,7.367
				c0,2.692,2.903,7.215,2.903,7.215l-1.726,1.726 M126.056,119.68l-84.004,84.002c-4.063,4.063-4.07,10.649-0.013,14.72
				l48.812,48.983l-0.025,17.919c0,13.651,2.397,23.549,7.539,31.144c5.392,7.968,13.785,12.985,23.464,14.171
				c-0.85,7.258-2.84,15.215-4.779,22.972c-5.027,20.12-10.226,40.925,3.055,57.934c8.257,10.577,21.338,15.94,38.881,15.94
				c16.533,0,25.787-7.181,30.639-13.199c11.708-14.528,7.727-32.821,4.522-47.545c-0.164-0.769-0.333-1.535-0.498-2.31
				c2.276,0.494,4.621,0.744,7.021,0.744c7.04,0,13.847-2.191,20.229-6.515c9.109-6.162,14.354-15.396,15.16-26.705
				c0.465-6.515-0.627-12.718-1.683-18.72c-1.127-6.377-2.193-12.431-1.778-19.265l33.621-33.607 M207.342,277.858
				c-1.516,1.514-2.526,3.457-2.896,5.563c-2.5,14.226-0.396,26.153,1.137,34.865c1.994,11.329,1.806,14.194-1.067,16.141
				c-1.005,0.681-2.485,1.49-3.841,1.491c-3.612,0-6.568-6.105-7.388-7.979c-2.241-5.112-8.109-7.552-13.313-5.531
				c-23.409,9.084-18.195,33.046-14.391,50.543c1.972,9.06,4.205,19.326,1.273,22.968c-1.536,1.903-5.128,2.305-7.87,2.305
				c-8.082,0-13.413-1.58-15.849-4.696c-4.502-5.769-1.212-18.925,2.271-32.854c3.397-13.587,7.249-28.987,5.743-43.648
				c-1.106-10.798-6.069-16.271-14.748-16.272h-0.002c-1.924,0-3.807,0.248-5.633,0.489c-1.6,0.212-3.109,0.412-4.438,0.412
				c-2.682,0-3.306-0.925-3.761-1.599c-1.146-1.692-2.514-5.625-2.514-14.722l0.035-25.702c0.004-2.762-1.088-5.41-3.038-7.367
				l-41.052-41.196l66.887-66.882l27.434,27.434l-33.175,38.265c-0.717,0.825-0.674,2.064,0.1,2.837
				c0.404,0.406,0.939,0.61,1.471,0.61c0.487,0,0.975-0.169,1.367-0.51l38.264-33.176l34.875,34.875l-22.417,25.856
				c-0.717,0.826-0.674,2.065,0.1,2.84c0.404,0.403,0.939,0.608,1.472,0.608c0.486,0,0.974-0.169,1.366-0.511l25.856-22.417
				l22.354,22.353L207.342,277.858z" class="scuSUEst_0"></path>
		</g>
	</g>
	<g>
	</g>
	<g>
	</g>
	<g>
	</g>
	<g>
	</g>
	<g>
	</g>
	<g>
	</g>
	<g>
	</g>
	<g>
	</g>
	<g>
	</g>
	<g>
	</g>
	<g>
	</g>
	<g>
	</g>
	<g>
	</g>
	<g>
	</g>
	<g>
	</g>
</g>
<g id="Capa_2" display="none">
	<path display="inline" fill="none" stroke="#E5211E" stroke-miterlimit="10" d="M119.282,117.954L116.378,110.739L
		119.431,103.372L170.744,52.061L193.641,42.575L216.541,52.061L242.996,78.516L292.918,28.594L320.909,17L348.899,28.595L
		360.497,56.588L348.906,84.58L298.986,134.502L325.444,160.957L334.925,183.855L325.442,206.757L274.129,258.069L266.762,261.12L
		259.701,258.362Z" class="scuSUEst_1"></path>
</g>
<style data-made-with="vivus-instant">.scuSUEst_0{stroke-dasharray:2135 2137;stroke-dashoffset:2136;animation:scuSUEst_draw 3333ms linear 0ms forwards;}.scuSUEst_1{stroke-dasharray:812 814;stroke-dashoffset:813;animation:scuSUEst_draw 3333ms linear 1666ms forwards;}@keyframes scuSUEst_draw{100%{stroke-dashoffset:0;}}@keyframes scuSUEst_fade{0%{stroke-opacity:1;}95.65217391304348%{stroke-opacity:1;}100%{stroke-opacity:0;}}</style></svg>
